%!PS-Adobe-3.0 EPSF-3.0
%%Creator: MATLAB, The MathWorks, Inc. Version 8.1.0.604 (R2013a). Operating System: Darwin 13.3.0 Darwin Kernel Version 13.3.0: Tue Jun  3 21:27:35 PDT 2014; root:xnu-2422.110.17~1/RELEASE_X86_64 x86_64.
%%Title: /Users/Pinglin/ICL/Thesis/materials/figs/ch3/10_frame_translation.eps
%%CreationDate: 09/27/2014  05:14:20
%%DocumentNeededFonts: Helvetica
%%DocumentProcessColors: Cyan Magenta Yellow Black
%%LanguageLevel: 2
%%Pages: 1
%%BoundingBox:    17   211   576   631
%%EndComments

%%BeginProlog
% MathWorks dictionary
/MathWorks 160 dict begin
% definition operators
/bdef {bind def} bind def
/ldef {load def} bind def
/xdef {exch def} bdef
/xstore {exch store} bdef
% operator abbreviations
/c  /clip ldef
/cc /concat ldef
/cp /closepath ldef
/gr /grestore ldef
/gs /gsave ldef
/mt /moveto ldef
/np /newpath ldef
/cm /currentmatrix ldef
/sm /setmatrix ldef
/rm /rmoveto ldef
/rl /rlineto ldef
/s {show newpath} bdef
/sc {setcmykcolor} bdef
/sr /setrgbcolor ldef
/sg /setgray ldef
/w /setlinewidth ldef
/j /setlinejoin ldef
/cap /setlinecap ldef
/rc {rectclip} bdef
/rf {rectfill} bdef
% page state control
/pgsv () def
/bpage {/pgsv save def} bdef
/epage {pgsv restore} bdef
/bplot /gsave ldef
/eplot {stroke grestore} bdef
% orientation switch
/portraitMode 0 def /landscapeMode 1 def /rotateMode 2 def
% coordinate system mappings
/dpi2point 0 def
% font control
/FontSize 0 def
/FMS {/FontSize xstore findfont [FontSize 0 0 FontSize neg 0 0]
  makefont setfont} bdef
/reencode {exch dup where {pop load} {pop StandardEncoding} ifelse
  exch dup 3 1 roll findfont dup length dict begin
  { 1 index /FID ne {def}{pop pop} ifelse } forall
  /Encoding exch def currentdict end definefont pop} bdef
/isroman {findfont /CharStrings get /Agrave known} bdef
/FMSR {3 1 roll 1 index dup isroman {reencode} {pop pop} ifelse
  exch FMS} bdef
/csm {1 dpi2point div -1 dpi2point div scale neg translate
 dup landscapeMode eq {pop -90 rotate}
  {rotateMode eq {90 rotate} if} ifelse} bdef
% line types: solid, dotted, dashed, dotdash
/SO { [] 0 setdash } bdef
/DO { [.5 dpi2point mul 4 dpi2point mul] 0 setdash } bdef
/DA { [6 dpi2point mul] 0 setdash } bdef
/DD { [.5 dpi2point mul 4 dpi2point mul 6 dpi2point mul 4
  dpi2point mul] 0 setdash } bdef
% macros for lines and objects
/L {lineto stroke} bdef
/MP {3 1 roll moveto 1 sub {rlineto} repeat} bdef
/AP {{rlineto} repeat} bdef
/PDlw -1 def
/W {/PDlw currentlinewidth def setlinewidth} def
/PP {closepath eofill} bdef
/DP {closepath stroke} bdef
/MR {4 -2 roll moveto dup  0 exch rlineto exch 0 rlineto
  neg 0 exch rlineto closepath} bdef
/FR {MR stroke} bdef
/PR {MR fill} bdef
/L1i {{currentfile picstr readhexstring pop} image} bdef
/tMatrix matrix def
/MakeOval {newpath tMatrix currentmatrix pop translate scale
0 0 1 0 360 arc tMatrix setmatrix} bdef
/FO {MakeOval stroke} bdef
/PO {MakeOval fill} bdef
/PD {currentlinewidth 2 div 0 360 arc fill
   PDlw -1 eq not {PDlw w /PDlw -1 def} if} def
/FA {newpath tMatrix currentmatrix pop translate scale
  0 0 1 5 -2 roll arc tMatrix setmatrix stroke} bdef
/PA {newpath tMatrix currentmatrix pop	translate 0 0 moveto scale
  0 0 1 5 -2 roll arc closepath tMatrix setmatrix fill} bdef
/FAn {newpath tMatrix currentmatrix pop translate scale
  0 0 1 5 -2 roll arcn tMatrix setmatrix stroke} bdef
/PAn {newpath tMatrix currentmatrix pop translate 0 0 moveto scale
  0 0 1 5 -2 roll arcn closepath tMatrix setmatrix fill} bdef
/vradius 0 def /hradius 0 def /lry 0 def
/lrx 0 def /uly 0 def /ulx 0 def /rad 0 def
/MRR {/vradius xdef /hradius xdef /lry xdef /lrx xdef /uly xdef
  /ulx xdef newpath tMatrix currentmatrix pop ulx hradius add uly
  vradius add translate hradius vradius scale 0 0 1 180 270 arc 
  tMatrix setmatrix lrx hradius sub uly vradius add translate
  hradius vradius scale 0 0 1 270 360 arc tMatrix setmatrix
  lrx hradius sub lry vradius sub translate hradius vradius scale
  0 0 1 0 90 arc tMatrix setmatrix ulx hradius add lry vradius sub
  translate hradius vradius scale 0 0 1 90 180 arc tMatrix setmatrix
  closepath} bdef
/FRR {MRR stroke } bdef
/PRR {MRR fill } bdef
/MlrRR {/lry xdef /lrx xdef /uly xdef /ulx xdef /rad lry uly sub 2 div def
  newpath tMatrix currentmatrix pop ulx rad add uly rad add translate
  rad rad scale 0 0 1 90 270 arc tMatrix setmatrix lrx rad sub lry rad
  sub translate rad rad scale 0 0 1 270 90 arc tMatrix setmatrix
  closepath} bdef
/FlrRR {MlrRR stroke } bdef
/PlrRR {MlrRR fill } bdef
/MtbRR {/lry xdef /lrx xdef /uly xdef /ulx xdef /rad lrx ulx sub 2 div def
  newpath tMatrix currentmatrix pop ulx rad add uly rad add translate
  rad rad scale 0 0 1 180 360 arc tMatrix setmatrix lrx rad sub lry rad
  sub translate rad rad scale 0 0 1 0 180 arc tMatrix setmatrix
  closepath} bdef
/FtbRR {MtbRR stroke } bdef
/PtbRR {MtbRR fill } bdef
/stri 6 array def /dtri 6 array def
/smat 6 array def /dmat 6 array def
/tmat1 6 array def /tmat2 6 array def /dif 3 array def
/asub {/ind2 exch def /ind1 exch def dup dup
  ind1 get exch ind2 get sub exch } bdef
/tri_to_matrix {
  2 0 asub 3 1 asub 4 0 asub 5 1 asub
  dup 0 get exch 1 get 7 -1 roll astore } bdef
/compute_transform {
  dmat dtri tri_to_matrix tmat1 invertmatrix 
  smat stri tri_to_matrix tmat2 concatmatrix } bdef
/ds {stri astore pop} bdef
/dt {dtri astore pop} bdef
/db {2 copy /cols xdef /rows xdef mul dup 3 mul string
  currentfile 
  3 index 0 eq {/ASCIIHexDecode filter}
  {/ASCII85Decode filter 3 index 2 eq {/RunLengthDecode filter} if }
  ifelse exch readstring pop
  dup 0 3 index getinterval /rbmap xdef
  dup 2 index dup getinterval /gbmap xdef
  1 index dup 2 mul exch getinterval /bbmap xdef pop pop}bdef
/it {gs np dtri aload pop moveto lineto lineto cp c
  cols rows 8 compute_transform 
  rbmap gbmap bbmap true 3 colorimage gr}bdef
/il {newpath moveto lineto stroke}bdef
currentdict end def
%%EndProlog

%%BeginSetup
MathWorks begin

0 cap

end
%%EndSetup

%%Page: 1 1
%%BeginPageSetup
%%PageBoundingBox:    17   211   576   631
MathWorks begin
bpage
%%EndPageSetup

%%BeginObject: obj1
bplot

/dpi2point 12 def
portraitMode 0204 7572 csm

    0     0  6712  5034 rc
85 dict begin %Colortable dictionary
/c0 { 0.000000 0.000000 0.000000 sr} bdef
/c1 { 1.000000 1.000000 1.000000 sr} bdef
/c2 { 0.900000 0.000000 0.000000 sr} bdef
/c3 { 0.000000 0.820000 0.000000 sr} bdef
/c4 { 0.000000 0.000000 0.800000 sr} bdef
/c5 { 0.910000 0.820000 0.320000 sr} bdef
/c6 { 1.000000 0.260000 0.820000 sr} bdef
/c7 { 0.000000 0.820000 0.820000 sr} bdef
c0
1 j
1 sg
   0    0 6713 5035 rf
6 w
0 4102 5201 0 0 -4102 873 4480 4 MP
PP
-5201 0 0 4102 5201 0 0 -4102 873 4480 5 MP stroke
4 w
DO
0 sg
 873 4480 mt  873  378 L
 873  378 mt  873  378 L
1523 4480 mt 1523  378 L
1523  378 mt 1523  378 L
2173 4480 mt 2173  378 L
2173  378 mt 2173  378 L
2823 4480 mt 2823  378 L
2823  378 mt 2823  378 L
3473 4480 mt 3473  378 L
3473  378 mt 3473  378 L
4123 4480 mt 4123  378 L
4123  378 mt 4123  378 L
4773 4480 mt 4773  378 L
4773  378 mt 4773  378 L
5423 4480 mt 5423  378 L
5423  378 mt 5423  378 L
6074 4480 mt 6074  378 L
6074  378 mt 6074  378 L
 873 4480 mt 6074 4480 L
6074 4480 mt 6074 4480 L
 873 3894 mt 6074 3894 L
6074 3894 mt 6074 3894 L
 873 3308 mt 6074 3308 L
6074 3308 mt 6074 3308 L
 873 2722 mt 6074 2722 L
6074 2722 mt 6074 2722 L
 873 2136 mt 6074 2136 L
6074 2136 mt 6074 2136 L
 873 1550 mt 6074 1550 L
6074 1550 mt 6074 1550 L
 873  964 mt 6074  964 L
6074  964 mt 6074  964 L
 873  378 mt 6074  378 L
6074  378 mt 6074  378 L
SO
6 w
 873 4480 mt 6074 4480 L
 873  378 mt 6074  378 L
 873 4480 mt  873  378 L
6074 4480 mt 6074  378 L
 873 4480 mt 6074 4480 L
 873 4480 mt  873  378 L
 873 4480 mt  873 4427 L
 873  378 mt  873  430 L
%%IncludeResource: font Helvetica
/Helvetica /ISOLatin1Encoding 120 FMSR

 737 4625 mt 
(-20) s
1523 4480 mt 1523 4427 L
1523  378 mt 1523  430 L
1387 4625 mt 
(-15) s
2173 4480 mt 2173 4427 L
2173  378 mt 2173  430 L
2037 4625 mt 
(-10) s
2823 4480 mt 2823 4427 L
2823  378 mt 2823  430 L
2720 4625 mt 
(-5) s
3473 4480 mt 3473 4427 L
3473  378 mt 3473  430 L
3440 4625 mt 
(0) s
4123 4480 mt 4123 4427 L
4123  378 mt 4123  430 L
4090 4625 mt 
(5) s
4773 4480 mt 4773 4427 L
4773  378 mt 4773  430 L
4707 4625 mt 
(10) s
5423 4480 mt 5423 4427 L
5423  378 mt 5423  430 L
5357 4625 mt 
(15) s
6074 4480 mt 6074 4427 L
6074  378 mt 6074  430 L
6008 4625 mt 
(20) s
 873 4480 mt  925 4480 L
6074 4480 mt 6021 4480 L
 772 4524 mt 
(0) s
 873 3894 mt  925 3894 L
6074 3894 mt 6021 3894 L
 638 3938 mt 
(100) s
 873 3308 mt  925 3308 L
6074 3308 mt 6021 3308 L
 638 3352 mt 
(200) s
 873 2722 mt  925 2722 L
6074 2722 mt 6021 2722 L
 638 2766 mt 
(300) s
 873 2136 mt  925 2136 L
6074 2136 mt 6021 2136 L
 638 2180 mt 
(400) s
 873 1550 mt  925 1550 L
6074 1550 mt 6021 1550 L
 638 1594 mt 
(500) s
 873  964 mt  925  964 L
6074  964 mt 6021  964 L
 638 1008 mt 
(600) s
 873  378 mt  925  378 L
6074  378 mt 6021  378 L
 638  422 mt 
(700) s
 873 4480 mt 6074 4480 L
 873  378 mt 6074  378 L
 873 4480 mt  873  378 L
6074 4480 mt 6074  378 L
gs 873 378 5202 4103 rc
/c8 { 0.000000 0.000000 1.000000 sr} bdef
c8
131 39 130 -125 130 -81 130 -70 130 -17 130 -124 130 -92 130 -79 
130 -88 130 -148 130 -38 130 -115 130 -182 130 -110 130 -88 130 -151 
130 -145 130 -137 130 -297 130 -513 130 158 130 180 130 159 130 96 
130 101 130 49 130 87 130 88 130 53 130 42 130 79 130 123 
130 59 130 113 130 114 130 150 130 15 130 61 130 155 130 90 
873 2426 41 MP stroke
/c9 { 0.000000 0.500000 0.000000 sr} bdef
c9
131 -14 130 -47 130 -60 130 -19 130 -24 130 -46 130 -25 130 -53 
130 -58 130 -34 130 -52 130 -58 130 -121 130 -64 130 -73 130 -84 
130 -108 130 -113 130 -131 130 -119 130 274 130 228 130 181 130 158 
130 127 130 90 130 112 130 46 130 66 130 147 130 84 130 125 
130 82 130 65 130 -12 130 129 130 18 130 39 130 3 130 16 
873 2420 41 MP stroke
/c10 { 1.000000 0.000000 0.000000 sr} bdef
c10
131 -114 130 -38 130 -137 130 -114 130 -21 130 -164 130 -70 130 -118 
130 -118 130 -102 130 -169 130 -157 130 -119 130 -192 130 -171 130 -255 
130 -228 130 -344 130 -399 130 -443 130 376 130 271 130 196 130 194 
130 145 130 95 130 173 130 51 130 156 130 82 130 80 130 94 
130 70 130 71 130 46 130 68 130 90 130 102 130 44 130 34 
873 1960 41 MP stroke
gr

c10
0 sg
2945 4768 mt 
(Shift Distance \(mm\)) s
 556 2955 mt  -90 rotate
(Colour-consistency) s
90 rotate
 856 4523 mt 
( ) s
6058  420 mt 
( ) s
1 sg
0 564 876 0 0 -564 1094 1139 4 MP
PP
-876 0 0 564 876 0 0 -564 1094 1139 5 MP stroke
4 w
DO
SO
6 w
0 sg
1094 1139 mt 1970 1139 L
1094  575 mt 1970  575 L
1094 1139 mt 1094  575 L
1970 1139 mt 1970  575 L
1094 1139 mt 1970 1139 L
1094 1139 mt 1094  575 L
1094 1139 mt 1970 1139 L
1094  575 mt 1970  575 L
1094 1139 mt 1094  575 L
1970 1139 mt 1970  575 L
1563  725 mt 
(ShiftX) s
gs 1094 575 877 565 rc
c8
360 0 1166 683 2 MP stroke
gr

c8
0 sg
1563  900 mt 
(ShiftY) s
gs 1094 575 877 565 rc
c9
360 0 1166 857 2 MP stroke
gr

c9
0 sg
1563 1074 mt 
(ShiftZ) s
gs 1094 575 877 565 rc
c10
360 0 1166 1030 2 MP stroke
gr

c10

end %%Color Dict

eplot
%%EndObject

epage
end

showpage

%%Trailer
%%EOF
