%!PS-Adobe-3.0 EPSF-3.0
%%Creator: MATLAB, The MathWorks, Inc. Version 8.1.0.604 (R2013a). Operating System: Darwin 13.3.0 Darwin Kernel Version 13.3.0: Tue Jun  3 21:27:35 PDT 2014; root:xnu-2422.110.17~1/RELEASE_X86_64 x86_64.
%%Title: /Users/Pinglin/ICL/Thesis/materials/figs/ch3/10_frame_rotation.eps
%%CreationDate: 09/27/2014  05:14:00
%%DocumentNeededFonts: Helvetica
%%DocumentProcessColors: Cyan Magenta Yellow Black
%%LanguageLevel: 2
%%Pages: 1
%%BoundingBox:    17   211   576   631
%%EndComments

%%BeginProlog
% MathWorks dictionary
/MathWorks 160 dict begin
% definition operators
/bdef {bind def} bind def
/ldef {load def} bind def
/xdef {exch def} bdef
/xstore {exch store} bdef
% operator abbreviations
/c  /clip ldef
/cc /concat ldef
/cp /closepath ldef
/gr /grestore ldef
/gs /gsave ldef
/mt /moveto ldef
/np /newpath ldef
/cm /currentmatrix ldef
/sm /setmatrix ldef
/rm /rmoveto ldef
/rl /rlineto ldef
/s {show newpath} bdef
/sc {setcmykcolor} bdef
/sr /setrgbcolor ldef
/sg /setgray ldef
/w /setlinewidth ldef
/j /setlinejoin ldef
/cap /setlinecap ldef
/rc {rectclip} bdef
/rf {rectfill} bdef
% page state control
/pgsv () def
/bpage {/pgsv save def} bdef
/epage {pgsv restore} bdef
/bplot /gsave ldef
/eplot {stroke grestore} bdef
% orientation switch
/portraitMode 0 def /landscapeMode 1 def /rotateMode 2 def
% coordinate system mappings
/dpi2point 0 def
% font control
/FontSize 0 def
/FMS {/FontSize xstore findfont [FontSize 0 0 FontSize neg 0 0]
  makefont setfont} bdef
/reencode {exch dup where {pop load} {pop StandardEncoding} ifelse
  exch dup 3 1 roll findfont dup length dict begin
  { 1 index /FID ne {def}{pop pop} ifelse } forall
  /Encoding exch def currentdict end definefont pop} bdef
/isroman {findfont /CharStrings get /Agrave known} bdef
/FMSR {3 1 roll 1 index dup isroman {reencode} {pop pop} ifelse
  exch FMS} bdef
/csm {1 dpi2point div -1 dpi2point div scale neg translate
 dup landscapeMode eq {pop -90 rotate}
  {rotateMode eq {90 rotate} if} ifelse} bdef
% line types: solid, dotted, dashed, dotdash
/SO { [] 0 setdash } bdef
/DO { [.5 dpi2point mul 4 dpi2point mul] 0 setdash } bdef
/DA { [6 dpi2point mul] 0 setdash } bdef
/DD { [.5 dpi2point mul 4 dpi2point mul 6 dpi2point mul 4
  dpi2point mul] 0 setdash } bdef
% macros for lines and objects
/L {lineto stroke} bdef
/MP {3 1 roll moveto 1 sub {rlineto} repeat} bdef
/AP {{rlineto} repeat} bdef
/PDlw -1 def
/W {/PDlw currentlinewidth def setlinewidth} def
/PP {closepath eofill} bdef
/DP {closepath stroke} bdef
/MR {4 -2 roll moveto dup  0 exch rlineto exch 0 rlineto
  neg 0 exch rlineto closepath} bdef
/FR {MR stroke} bdef
/PR {MR fill} bdef
/L1i {{currentfile picstr readhexstring pop} image} bdef
/tMatrix matrix def
/MakeOval {newpath tMatrix currentmatrix pop translate scale
0 0 1 0 360 arc tMatrix setmatrix} bdef
/FO {MakeOval stroke} bdef
/PO {MakeOval fill} bdef
/PD {currentlinewidth 2 div 0 360 arc fill
   PDlw -1 eq not {PDlw w /PDlw -1 def} if} def
/FA {newpath tMatrix currentmatrix pop translate scale
  0 0 1 5 -2 roll arc tMatrix setmatrix stroke} bdef
/PA {newpath tMatrix currentmatrix pop	translate 0 0 moveto scale
  0 0 1 5 -2 roll arc closepath tMatrix setmatrix fill} bdef
/FAn {newpath tMatrix currentmatrix pop translate scale
  0 0 1 5 -2 roll arcn tMatrix setmatrix stroke} bdef
/PAn {newpath tMatrix currentmatrix pop translate 0 0 moveto scale
  0 0 1 5 -2 roll arcn closepath tMatrix setmatrix fill} bdef
/vradius 0 def /hradius 0 def /lry 0 def
/lrx 0 def /uly 0 def /ulx 0 def /rad 0 def
/MRR {/vradius xdef /hradius xdef /lry xdef /lrx xdef /uly xdef
  /ulx xdef newpath tMatrix currentmatrix pop ulx hradius add uly
  vradius add translate hradius vradius scale 0 0 1 180 270 arc 
  tMatrix setmatrix lrx hradius sub uly vradius add translate
  hradius vradius scale 0 0 1 270 360 arc tMatrix setmatrix
  lrx hradius sub lry vradius sub translate hradius vradius scale
  0 0 1 0 90 arc tMatrix setmatrix ulx hradius add lry vradius sub
  translate hradius vradius scale 0 0 1 90 180 arc tMatrix setmatrix
  closepath} bdef
/FRR {MRR stroke } bdef
/PRR {MRR fill } bdef
/MlrRR {/lry xdef /lrx xdef /uly xdef /ulx xdef /rad lry uly sub 2 div def
  newpath tMatrix currentmatrix pop ulx rad add uly rad add translate
  rad rad scale 0 0 1 90 270 arc tMatrix setmatrix lrx rad sub lry rad
  sub translate rad rad scale 0 0 1 270 90 arc tMatrix setmatrix
  closepath} bdef
/FlrRR {MlrRR stroke } bdef
/PlrRR {MlrRR fill } bdef
/MtbRR {/lry xdef /lrx xdef /uly xdef /ulx xdef /rad lrx ulx sub 2 div def
  newpath tMatrix currentmatrix pop ulx rad add uly rad add translate
  rad rad scale 0 0 1 180 360 arc tMatrix setmatrix lrx rad sub lry rad
  sub translate rad rad scale 0 0 1 0 180 arc tMatrix setmatrix
  closepath} bdef
/FtbRR {MtbRR stroke } bdef
/PtbRR {MtbRR fill } bdef
/stri 6 array def /dtri 6 array def
/smat 6 array def /dmat 6 array def
/tmat1 6 array def /tmat2 6 array def /dif 3 array def
/asub {/ind2 exch def /ind1 exch def dup dup
  ind1 get exch ind2 get sub exch } bdef
/tri_to_matrix {
  2 0 asub 3 1 asub 4 0 asub 5 1 asub
  dup 0 get exch 1 get 7 -1 roll astore } bdef
/compute_transform {
  dmat dtri tri_to_matrix tmat1 invertmatrix 
  smat stri tri_to_matrix tmat2 concatmatrix } bdef
/ds {stri astore pop} bdef
/dt {dtri astore pop} bdef
/db {2 copy /cols xdef /rows xdef mul dup 3 mul string
  currentfile 
  3 index 0 eq {/ASCIIHexDecode filter}
  {/ASCII85Decode filter 3 index 2 eq {/RunLengthDecode filter} if }
  ifelse exch readstring pop
  dup 0 3 index getinterval /rbmap xdef
  dup 2 index dup getinterval /gbmap xdef
  1 index dup 2 mul exch getinterval /bbmap xdef pop pop}bdef
/it {gs np dtri aload pop moveto lineto lineto cp c
  cols rows 8 compute_transform 
  rbmap gbmap bbmap true 3 colorimage gr}bdef
/il {newpath moveto lineto stroke}bdef
currentdict end def
%%EndProlog

%%BeginSetup
MathWorks begin

0 cap

end
%%EndSetup

%%Page: 1 1
%%BeginPageSetup
%%PageBoundingBox:    17   211   576   631
MathWorks begin
bpage
%%EndPageSetup

%%BeginObject: obj1
bplot

/dpi2point 12 def
portraitMode 0204 7572 csm

    0     0  6712  5034 rc
85 dict begin %Colortable dictionary
/c0 { 0.000000 0.000000 0.000000 sr} bdef
/c1 { 1.000000 1.000000 1.000000 sr} bdef
/c2 { 0.900000 0.000000 0.000000 sr} bdef
/c3 { 0.000000 0.820000 0.000000 sr} bdef
/c4 { 0.000000 0.000000 0.800000 sr} bdef
/c5 { 0.910000 0.820000 0.320000 sr} bdef
/c6 { 1.000000 0.260000 0.820000 sr} bdef
/c7 { 0.000000 0.820000 0.820000 sr} bdef
c0
1 j
1 sg
   0    0 6713 5035 rf
6 w
0 4102 5201 0 0 -4102 873 4480 4 MP
PP
-5201 0 0 4102 5201 0 0 -4102 873 4480 5 MP stroke
4 w
DO
0 sg
 873 4480 mt  873  378 L
 873  378 mt  873  378 L
1739 4480 mt 1739  378 L
1739  378 mt 1739  378 L
2606 4480 mt 2606  378 L
2606  378 mt 2606  378 L
3473 4480 mt 3473  378 L
3473  378 mt 3473  378 L
4340 4480 mt 4340  378 L
4340  378 mt 4340  378 L
5207 4480 mt 5207  378 L
5207  378 mt 5207  378 L
6074 4480 mt 6074  378 L
6074  378 mt 6074  378 L
 873 4480 mt 6074 4480 L
6074 4480 mt 6074 4480 L
 873 3894 mt 6074 3894 L
6074 3894 mt 6074 3894 L
 873 3308 mt 6074 3308 L
6074 3308 mt 6074 3308 L
 873 2722 mt 6074 2722 L
6074 2722 mt 6074 2722 L
 873 2136 mt 6074 2136 L
6074 2136 mt 6074 2136 L
 873 1550 mt 6074 1550 L
6074 1550 mt 6074 1550 L
 873  964 mt 6074  964 L
6074  964 mt 6074  964 L
 873  378 mt 6074  378 L
6074  378 mt 6074  378 L
SO
6 w
 873 4480 mt 6074 4480 L
 873  378 mt 6074  378 L
 873 4480 mt  873  378 L
6074 4480 mt 6074  378 L
 873 4480 mt 6074 4480 L
 873 4480 mt  873  378 L
 873 4480 mt  873 4427 L
 873  378 mt  873  430 L
%%IncludeResource: font Helvetica
/Helvetica /ISOLatin1Encoding 120 FMSR

 737 4625 mt 
(-30) s
1739 4480 mt 1739 4427 L
1739  378 mt 1739  430 L
1603 4625 mt 
(-20) s
2606 4480 mt 2606 4427 L
2606  378 mt 2606  430 L
2470 4625 mt 
(-10) s
3473 4480 mt 3473 4427 L
3473  378 mt 3473  430 L
3440 4625 mt 
(0) s
4340 4480 mt 4340 4427 L
4340  378 mt 4340  430 L
4274 4625 mt 
(10) s
5207 4480 mt 5207 4427 L
5207  378 mt 5207  430 L
5141 4625 mt 
(20) s
6074 4480 mt 6074 4427 L
6074  378 mt 6074  430 L
6008 4625 mt 
(30) s
 873 4480 mt  925 4480 L
6074 4480 mt 6021 4480 L
 772 4524 mt 
(0) s
 873 3894 mt  925 3894 L
6074 3894 mt 6021 3894 L
 705 3938 mt 
(50) s
 873 3308 mt  925 3308 L
6074 3308 mt 6021 3308 L
 638 3352 mt 
(100) s
 873 2722 mt  925 2722 L
6074 2722 mt 6021 2722 L
 638 2766 mt 
(150) s
 873 2136 mt  925 2136 L
6074 2136 mt 6021 2136 L
 638 2180 mt 
(200) s
 873 1550 mt  925 1550 L
6074 1550 mt 6021 1550 L
 638 1594 mt 
(250) s
 873  964 mt  925  964 L
6074  964 mt 6021  964 L
 638 1008 mt 
(300) s
 873  378 mt  925  378 L
6074  378 mt 6021  378 L
 638  422 mt 
(350) s
 873 4480 mt 6074 4480 L
 873  378 mt 6074  378 L
 873 4480 mt  873  378 L
6074 4480 mt 6074  378 L
gs 873 378 5202 4103 rc
/c8 { 0.000000 0.000000 1.000000 sr} bdef
c8
87 -34 87 -169 87 -98 86 -111 87 -175 87 -28 86 -116 87 -91 
87 -90 86 -149 87 -44 87 -127 86 -38 87 -148 87 -79 86 -43 
87 -53 87 -169 86 -116 87 -139 87 -117 87 -145 86 -182 87 -158 
87 -180 86 -208 87 -197 87 -210 86 -191 87 -112 87 119 86 183 
87 160 87 157 86 147 87 130 87 163 86 94 87 120 87 91 
87 132 86 108 87 75 87 73 86 113 87 105 87 53 86 104 
87 80 87 88 86 87 87 126 87 58 86 104 87 88 87 92 
86 55 87 143 87 46 86 116 873 1106 61 MP stroke
/c9 { 0.000000 0.500000 0.000000 sr} bdef
c9
87 -58 87 8 87 -91 86 -14 87 -78 87 -22 86 -36 87 -111 
87 -12 86 -26 87 -92 87 -45 86 -35 87 -37 87 -90 86 24 
87 -100 87 -72 86 -70 87 -52 87 -121 87 -48 86 -146 87 -146 
87 -134 86 -210 87 -208 87 -246 86 -331 87 -267 87 88 86 259 
87 172 87 243 86 161 87 118 87 121 86 134 87 75 87 111 
87 143 86 61 87 114 87 103 86 39 87 35 87 92 86 74 
87 29 87 144 86 2 87 19 87 -30 86 44 87 65 87 0 
86 90 87 -15 87 36 86 -4 873 1793 61 MP stroke
/c10 { 1.000000 0.000000 0.000000 sr} bdef
c10
87 -105 87 50 87 -78 86 -59 87 -29 87 -88 86 -52 87 -50 
87 -62 86 -64 87 -58 87 -28 86 -75 87 -56 87 -47 86 -64 
87 -98 87 -68 86 -77 87 -55 87 -68 87 -64 86 -92 87 -58 
87 -80 86 -81 87 -83 87 -95 86 -47 87 3 87 104 86 114 
87 93 87 75 86 62 87 102 87 78 86 156 87 28 87 142 
87 40 86 139 87 -14 87 129 86 75 87 99 87 89 86 152 
87 50 87 69 86 32 87 46 87 81 86 47 87 79 87 37 
86 59 87 8 87 -6 86 22 873 2129 61 MP stroke
gr

c10
0 sg
3036 4768 mt 
(Rotation Degree) s
 556 2955 mt  -90 rotate
(Colour-consistency) s
90 rotate
 856 4523 mt 
( ) s
6058  420 mt 
( ) s
1 sg
0 564 1092 0 0 -564 1118 1091 4 MP
PP
-1092 0 0 564 1092 0 0 -564 1118 1091 5 MP stroke
4 w
DO
SO
6 w
0 sg
1118 1091 mt 2210 1091 L
1118  527 mt 2210  527 L
1118 1091 mt 1118  527 L
2210 1091 mt 2210  527 L
1118 1091 mt 2210 1091 L
1118 1091 mt 1118  527 L
1118 1091 mt 2210 1091 L
1118  527 mt 2210  527 L
1118 1091 mt 1118  527 L
2210 1091 mt 2210  527 L
1587  677 mt 
(RotationX) s
gs 1118 527 1093 565 rc
c8
360 0 1190 635 2 MP stroke
gr

c8
0 sg
1587  852 mt 
(RotationY) s
gs 1118 527 1093 565 rc
c9
360 0 1190 809 2 MP stroke
gr

c9
0 sg
1587 1026 mt 
(RotationZ) s
gs 1118 527 1093 565 rc
c10
360 0 1190 982 2 MP stroke
gr

c10

end %%Color Dict

eplot
%%EndObject

epage
end

showpage

%%Trailer
%%EOF
