%!PS-Adobe-3.0 EPSF-3.0
%%Creator: MATLAB, The MathWorks, Inc. Version 8.1.0.604 (R2013a). Operating System: Darwin 13.3.0 Darwin Kernel Version 13.3.0: Tue Jun  3 21:27:35 PDT 2014; root:xnu-2422.110.17~1/RELEASE_X86_64 x86_64.
%%Title: /Users/Pinglin/ICL/Thesis/materials/figs/ch3/2_frame_rotation.eps
%%CreationDate: 09/27/2014  05:12:44
%%DocumentNeededFonts: Helvetica
%%DocumentProcessColors: Cyan Magenta Yellow Black
%%LanguageLevel: 2
%%Pages: 1
%%BoundingBox:    17   214   576   628
%%EndComments

%%BeginProlog
% MathWorks dictionary
/MathWorks 160 dict begin
% definition operators
/bdef {bind def} bind def
/ldef {load def} bind def
/xdef {exch def} bdef
/xstore {exch store} bdef
% operator abbreviations
/c  /clip ldef
/cc /concat ldef
/cp /closepath ldef
/gr /grestore ldef
/gs /gsave ldef
/mt /moveto ldef
/np /newpath ldef
/cm /currentmatrix ldef
/sm /setmatrix ldef
/rm /rmoveto ldef
/rl /rlineto ldef
/s {show newpath} bdef
/sc {setcmykcolor} bdef
/sr /setrgbcolor ldef
/sg /setgray ldef
/w /setlinewidth ldef
/j /setlinejoin ldef
/cap /setlinecap ldef
/rc {rectclip} bdef
/rf {rectfill} bdef
% page state control
/pgsv () def
/bpage {/pgsv save def} bdef
/epage {pgsv restore} bdef
/bplot /gsave ldef
/eplot {stroke grestore} bdef
% orientation switch
/portraitMode 0 def /landscapeMode 1 def /rotateMode 2 def
% coordinate system mappings
/dpi2point 0 def
% font control
/FontSize 0 def
/FMS {/FontSize xstore findfont [FontSize 0 0 FontSize neg 0 0]
  makefont setfont} bdef
/reencode {exch dup where {pop load} {pop StandardEncoding} ifelse
  exch dup 3 1 roll findfont dup length dict begin
  { 1 index /FID ne {def}{pop pop} ifelse } forall
  /Encoding exch def currentdict end definefont pop} bdef
/isroman {findfont /CharStrings get /Agrave known} bdef
/FMSR {3 1 roll 1 index dup isroman {reencode} {pop pop} ifelse
  exch FMS} bdef
/csm {1 dpi2point div -1 dpi2point div scale neg translate
 dup landscapeMode eq {pop -90 rotate}
  {rotateMode eq {90 rotate} if} ifelse} bdef
% line types: solid, dotted, dashed, dotdash
/SO { [] 0 setdash } bdef
/DO { [.5 dpi2point mul 4 dpi2point mul] 0 setdash } bdef
/DA { [6 dpi2point mul] 0 setdash } bdef
/DD { [.5 dpi2point mul 4 dpi2point mul 6 dpi2point mul 4
  dpi2point mul] 0 setdash } bdef
% macros for lines and objects
/L {lineto stroke} bdef
/MP {3 1 roll moveto 1 sub {rlineto} repeat} bdef
/AP {{rlineto} repeat} bdef
/PDlw -1 def
/W {/PDlw currentlinewidth def setlinewidth} def
/PP {closepath eofill} bdef
/DP {closepath stroke} bdef
/MR {4 -2 roll moveto dup  0 exch rlineto exch 0 rlineto
  neg 0 exch rlineto closepath} bdef
/FR {MR stroke} bdef
/PR {MR fill} bdef
/L1i {{currentfile picstr readhexstring pop} image} bdef
/tMatrix matrix def
/MakeOval {newpath tMatrix currentmatrix pop translate scale
0 0 1 0 360 arc tMatrix setmatrix} bdef
/FO {MakeOval stroke} bdef
/PO {MakeOval fill} bdef
/PD {currentlinewidth 2 div 0 360 arc fill
   PDlw -1 eq not {PDlw w /PDlw -1 def} if} def
/FA {newpath tMatrix currentmatrix pop translate scale
  0 0 1 5 -2 roll arc tMatrix setmatrix stroke} bdef
/PA {newpath tMatrix currentmatrix pop	translate 0 0 moveto scale
  0 0 1 5 -2 roll arc closepath tMatrix setmatrix fill} bdef
/FAn {newpath tMatrix currentmatrix pop translate scale
  0 0 1 5 -2 roll arcn tMatrix setmatrix stroke} bdef
/PAn {newpath tMatrix currentmatrix pop translate 0 0 moveto scale
  0 0 1 5 -2 roll arcn closepath tMatrix setmatrix fill} bdef
/vradius 0 def /hradius 0 def /lry 0 def
/lrx 0 def /uly 0 def /ulx 0 def /rad 0 def
/MRR {/vradius xdef /hradius xdef /lry xdef /lrx xdef /uly xdef
  /ulx xdef newpath tMatrix currentmatrix pop ulx hradius add uly
  vradius add translate hradius vradius scale 0 0 1 180 270 arc 
  tMatrix setmatrix lrx hradius sub uly vradius add translate
  hradius vradius scale 0 0 1 270 360 arc tMatrix setmatrix
  lrx hradius sub lry vradius sub translate hradius vradius scale
  0 0 1 0 90 arc tMatrix setmatrix ulx hradius add lry vradius sub
  translate hradius vradius scale 0 0 1 90 180 arc tMatrix setmatrix
  closepath} bdef
/FRR {MRR stroke } bdef
/PRR {MRR fill } bdef
/MlrRR {/lry xdef /lrx xdef /uly xdef /ulx xdef /rad lry uly sub 2 div def
  newpath tMatrix currentmatrix pop ulx rad add uly rad add translate
  rad rad scale 0 0 1 90 270 arc tMatrix setmatrix lrx rad sub lry rad
  sub translate rad rad scale 0 0 1 270 90 arc tMatrix setmatrix
  closepath} bdef
/FlrRR {MlrRR stroke } bdef
/PlrRR {MlrRR fill } bdef
/MtbRR {/lry xdef /lrx xdef /uly xdef /ulx xdef /rad lrx ulx sub 2 div def
  newpath tMatrix currentmatrix pop ulx rad add uly rad add translate
  rad rad scale 0 0 1 180 360 arc tMatrix setmatrix lrx rad sub lry rad
  sub translate rad rad scale 0 0 1 0 180 arc tMatrix setmatrix
  closepath} bdef
/FtbRR {MtbRR stroke } bdef
/PtbRR {MtbRR fill } bdef
/stri 6 array def /dtri 6 array def
/smat 6 array def /dmat 6 array def
/tmat1 6 array def /tmat2 6 array def /dif 3 array def
/asub {/ind2 exch def /ind1 exch def dup dup
  ind1 get exch ind2 get sub exch } bdef
/tri_to_matrix {
  2 0 asub 3 1 asub 4 0 asub 5 1 asub
  dup 0 get exch 1 get 7 -1 roll astore } bdef
/compute_transform {
  dmat dtri tri_to_matrix tmat1 invertmatrix 
  smat stri tri_to_matrix tmat2 concatmatrix } bdef
/ds {stri astore pop} bdef
/dt {dtri astore pop} bdef
/db {2 copy /cols xdef /rows xdef mul dup 3 mul string
  currentfile 
  3 index 0 eq {/ASCIIHexDecode filter}
  {/ASCII85Decode filter 3 index 2 eq {/RunLengthDecode filter} if }
  ifelse exch readstring pop
  dup 0 3 index getinterval /rbmap xdef
  dup 2 index dup getinterval /gbmap xdef
  1 index dup 2 mul exch getinterval /bbmap xdef pop pop}bdef
/it {gs np dtri aload pop moveto lineto lineto cp c
  cols rows 8 compute_transform 
  rbmap gbmap bbmap true 3 colorimage gr}bdef
/il {newpath moveto lineto stroke}bdef
currentdict end def
%%EndProlog

%%BeginSetup
MathWorks begin

0 cap

end
%%EndSetup

%%Page: 1 1
%%BeginPageSetup
%%PageBoundingBox:    17   214   576   628
MathWorks begin
bpage
%%EndPageSetup

%%BeginObject: obj1
bplot

/dpi2point 12 def
portraitMode 0204 7536 csm

    0     0  6712  4962 rc
85 dict begin %Colortable dictionary
/c0 { 0.000000 0.000000 0.000000 sr} bdef
/c1 { 1.000000 1.000000 1.000000 sr} bdef
/c2 { 0.900000 0.000000 0.000000 sr} bdef
/c3 { 0.000000 0.820000 0.000000 sr} bdef
/c4 { 0.000000 0.000000 0.800000 sr} bdef
/c5 { 0.910000 0.820000 0.320000 sr} bdef
/c6 { 1.000000 0.260000 0.820000 sr} bdef
/c7 { 0.000000 0.820000 0.820000 sr} bdef
c0
1 j
1 sg
   0    0 6713 4963 rf
6 w
0 4044 5201 0 0 -4044 873 4416 4 MP
PP
-5201 0 0 4044 5201 0 0 -4044 873 4416 5 MP stroke
4 w
DO
0 sg
 873 4416 mt  873  372 L
 873  372 mt  873  372 L
1739 4416 mt 1739  372 L
1739  372 mt 1739  372 L
2606 4416 mt 2606  372 L
2606  372 mt 2606  372 L
3473 4416 mt 3473  372 L
3473  372 mt 3473  372 L
4340 4416 mt 4340  372 L
4340  372 mt 4340  372 L
5207 4416 mt 5207  372 L
5207  372 mt 5207  372 L
6074 4416 mt 6074  372 L
6074  372 mt 6074  372 L
 873 4416 mt 6074 4416 L
6074 4416 mt 6074 4416 L
 873 4011 mt 6074 4011 L
6074 4011 mt 6074 4011 L
 873 3607 mt 6074 3607 L
6074 3607 mt 6074 3607 L
 873 3202 mt 6074 3202 L
6074 3202 mt 6074 3202 L
 873 2798 mt 6074 2798 L
6074 2798 mt 6074 2798 L
 873 2394 mt 6074 2394 L
6074 2394 mt 6074 2394 L
 873 1989 mt 6074 1989 L
6074 1989 mt 6074 1989 L
 873 1585 mt 6074 1585 L
6074 1585 mt 6074 1585 L
 873 1180 mt 6074 1180 L
6074 1180 mt 6074 1180 L
 873  776 mt 6074  776 L
6074  776 mt 6074  776 L
 873  372 mt 6074  372 L
6074  372 mt 6074  372 L
SO
6 w
 873 4416 mt 6074 4416 L
 873  372 mt 6074  372 L
 873 4416 mt  873  372 L
6074 4416 mt 6074  372 L
 873 4416 mt 6074 4416 L
 873 4416 mt  873  372 L
 873 4416 mt  873 4363 L
 873  372 mt  873  424 L
%%IncludeResource: font Helvetica
/Helvetica /ISOLatin1Encoding 120 FMSR

 737 4561 mt 
(-30) s
1739 4416 mt 1739 4363 L
1739  372 mt 1739  424 L
1603 4561 mt 
(-20) s
2606 4416 mt 2606 4363 L
2606  372 mt 2606  424 L
2470 4561 mt 
(-10) s
3473 4416 mt 3473 4363 L
3473  372 mt 3473  424 L
3440 4561 mt 
(0) s
4340 4416 mt 4340 4363 L
4340  372 mt 4340  424 L
4274 4561 mt 
(10) s
5207 4416 mt 5207 4363 L
5207  372 mt 5207  424 L
5141 4561 mt 
(20) s
6074 4416 mt 6074 4363 L
6074  372 mt 6074  424 L
6008 4561 mt 
(30) s
 873 4416 mt  925 4416 L
6074 4416 mt 6021 4416 L
 772 4460 mt 
(0) s
 873 4011 mt  925 4011 L
6074 4011 mt 6021 4011 L
 705 4055 mt 
(20) s
 873 3607 mt  925 3607 L
6074 3607 mt 6021 3607 L
 705 3651 mt 
(40) s
 873 3202 mt  925 3202 L
6074 3202 mt 6021 3202 L
 705 3246 mt 
(60) s
 873 2798 mt  925 2798 L
6074 2798 mt 6021 2798 L
 705 2842 mt 
(80) s
 873 2394 mt  925 2394 L
6074 2394 mt 6021 2394 L
 638 2438 mt 
(100) s
 873 1989 mt  925 1989 L
6074 1989 mt 6021 1989 L
 638 2033 mt 
(120) s
 873 1585 mt  925 1585 L
6074 1585 mt 6021 1585 L
 638 1629 mt 
(140) s
 873 1180 mt  925 1180 L
6074 1180 mt 6021 1180 L
 638 1224 mt 
(160) s
 873  776 mt  925  776 L
6074  776 mt 6021  776 L
 638  820 mt 
(180) s
 873  372 mt  925  372 L
6074  372 mt 6021  372 L
 638  416 mt 
(200) s
 873 4416 mt 6074 4416 L
 873  372 mt 6074  372 L
 873 4416 mt  873  372 L
6074 4416 mt 6074  372 L
gs 873 372 5202 4045 rc
/c8 { 0.000000 0.000000 1.000000 sr} bdef
c8
87 -241 87 -193 87 -142 86 -210 87 -277 87 -22 86 43 87 -256 
87 -101 86 -15 87 43 87 -379 86 -105 87 -133 87 -37 86 -118 
87 -191 87 -60 86 -118 87 -189 87 -100 87 -154 86 -97 87 -113 
87 -120 86 -128 87 -181 87 -192 86 -104 87 -24 87 59 86 116 
87 114 87 198 86 26 87 99 87 109 86 97 87 127 87 103 
87 90 86 -21 87 72 87 53 86 7 87 126 87 13 86 90 
87 58 87 33 86 15 87 72 87 -89 86 51 87 71 87 5 
86 -33 87 70 87 93 86 -3 873 2465 61 MP stroke
/c9 { 0.000000 0.500000 0.000000 sr} bdef
c9
87 -91 87 -28 87 -27 86 67 87 -26 87 -135 86 -42 87 36 
87 -15 86 -112 87 -66 87 36 86 -104 87 -12 87 -62 86 -90 
87 -16 87 -78 86 4 87 -25 87 -103 87 -40 86 -104 87 -65 
87 -23 86 -53 87 -90 87 -121 86 -83 87 -52 87 30 86 96 
87 122 87 112 86 63 87 36 87 86 86 77 87 53 87 -17 
87 231 86 1 87 -15 87 114 86 -73 87 71 87 14 86 187 
87 4 87 134 86 -54 87 -59 87 128 86 -86 87 185 87 46 
86 49 87 120 87 -244 86 205 873 2670 61 MP stroke
/c10 { 1.000000 0.000000 0.000000 sr} bdef
c10
87 104 87 -88 87 13 86 -49 87 13 87 -81 86 66 87 -5 
87 -53 86 -24 87 -47 87 -34 86 -7 87 32 87 -41 86 -55 
87 46 87 -81 86 33 87 -62 87 -16 87 -76 86 -36 87 -16 
87 -15 86 -24 87 -37 87 -52 86 -31 87 18 87 17 86 60 
87 100 87 -15 86 82 87 30 87 81 86 -23 87 89 87 -15 
87 17 86 112 87 -23 87 -10 86 93 87 33 87 -41 86 -6 
87 85 87 45 86 26 87 -78 87 68 86 -86 87 29 87 -17 
86 153 87 -72 87 -5 86 48 873 3509 61 MP stroke
gr

c10
0 sg
3036 4704 mt 
(Rotation Degree) s
 556 2920 mt  -90 rotate
(Colour-consistency) s
90 rotate
 856 4459 mt 
( ) s
6058  414 mt 
( ) s
1 sg
0 564 1091 0 0 -564 1166 1174 4 MP
PP
-1091 0 0 564 1091 0 0 -564 1166 1174 5 MP stroke
4 w
DO
SO
6 w
0 sg
1166 1174 mt 2257 1174 L
1166  610 mt 2257  610 L
1166 1174 mt 1166  610 L
2257 1174 mt 2257  610 L
1166 1174 mt 2257 1174 L
1166 1174 mt 1166  610 L
1166 1174 mt 2257 1174 L
1166  610 mt 2257  610 L
1166 1174 mt 1166  610 L
2257 1174 mt 2257  610 L
1634  760 mt 
(RotationX) s
gs 1166 610 1092 565 rc
c8
360 0 1237 718 2 MP stroke
gr

c8
0 sg
1634  935 mt 
(RotationY) s
gs 1166 610 1092 565 rc
c9
360 0 1237 892 2 MP stroke
gr

c9
0 sg
1634 1109 mt 
(RotationZ) s
gs 1166 610 1092 565 rc
c10
360 0 1237 1065 2 MP stroke
gr

c10

end %%Color Dict

eplot
%%EndObject

epage
end

showpage

%%Trailer
%%EOF
