%!PS-Adobe-3.0 EPSF-3.0
%%Creator: MATLAB, The MathWorks, Inc. Version 8.1.0.604 (R2013a). Operating System: Darwin 13.3.0 Darwin Kernel Version 13.3.0: Tue Jun  3 21:27:35 PDT 2014; root:xnu-2422.110.17~1/RELEASE_X86_64 x86_64.
%%Title: /Users/Pinglin/ICL/Thesis/materials/figs/ch3/2_frame_translation.eps
%%CreationDate: 09/27/2014  05:13:40
%%DocumentNeededFonts: Helvetica
%%DocumentProcessColors: Cyan Magenta Yellow Black
%%LanguageLevel: 2
%%Pages: 1
%%BoundingBox:    17   214   576   628
%%EndComments

%%BeginProlog
% MathWorks dictionary
/MathWorks 160 dict begin
% definition operators
/bdef {bind def} bind def
/ldef {load def} bind def
/xdef {exch def} bdef
/xstore {exch store} bdef
% operator abbreviations
/c  /clip ldef
/cc /concat ldef
/cp /closepath ldef
/gr /grestore ldef
/gs /gsave ldef
/mt /moveto ldef
/np /newpath ldef
/cm /currentmatrix ldef
/sm /setmatrix ldef
/rm /rmoveto ldef
/rl /rlineto ldef
/s {show newpath} bdef
/sc {setcmykcolor} bdef
/sr /setrgbcolor ldef
/sg /setgray ldef
/w /setlinewidth ldef
/j /setlinejoin ldef
/cap /setlinecap ldef
/rc {rectclip} bdef
/rf {rectfill} bdef
% page state control
/pgsv () def
/bpage {/pgsv save def} bdef
/epage {pgsv restore} bdef
/bplot /gsave ldef
/eplot {stroke grestore} bdef
% orientation switch
/portraitMode 0 def /landscapeMode 1 def /rotateMode 2 def
% coordinate system mappings
/dpi2point 0 def
% font control
/FontSize 0 def
/FMS {/FontSize xstore findfont [FontSize 0 0 FontSize neg 0 0]
  makefont setfont} bdef
/reencode {exch dup where {pop load} {pop StandardEncoding} ifelse
  exch dup 3 1 roll findfont dup length dict begin
  { 1 index /FID ne {def}{pop pop} ifelse } forall
  /Encoding exch def currentdict end definefont pop} bdef
/isroman {findfont /CharStrings get /Agrave known} bdef
/FMSR {3 1 roll 1 index dup isroman {reencode} {pop pop} ifelse
  exch FMS} bdef
/csm {1 dpi2point div -1 dpi2point div scale neg translate
 dup landscapeMode eq {pop -90 rotate}
  {rotateMode eq {90 rotate} if} ifelse} bdef
% line types: solid, dotted, dashed, dotdash
/SO { [] 0 setdash } bdef
/DO { [.5 dpi2point mul 4 dpi2point mul] 0 setdash } bdef
/DA { [6 dpi2point mul] 0 setdash } bdef
/DD { [.5 dpi2point mul 4 dpi2point mul 6 dpi2point mul 4
  dpi2point mul] 0 setdash } bdef
% macros for lines and objects
/L {lineto stroke} bdef
/MP {3 1 roll moveto 1 sub {rlineto} repeat} bdef
/AP {{rlineto} repeat} bdef
/PDlw -1 def
/W {/PDlw currentlinewidth def setlinewidth} def
/PP {closepath eofill} bdef
/DP {closepath stroke} bdef
/MR {4 -2 roll moveto dup  0 exch rlineto exch 0 rlineto
  neg 0 exch rlineto closepath} bdef
/FR {MR stroke} bdef
/PR {MR fill} bdef
/L1i {{currentfile picstr readhexstring pop} image} bdef
/tMatrix matrix def
/MakeOval {newpath tMatrix currentmatrix pop translate scale
0 0 1 0 360 arc tMatrix setmatrix} bdef
/FO {MakeOval stroke} bdef
/PO {MakeOval fill} bdef
/PD {currentlinewidth 2 div 0 360 arc fill
   PDlw -1 eq not {PDlw w /PDlw -1 def} if} def
/FA {newpath tMatrix currentmatrix pop translate scale
  0 0 1 5 -2 roll arc tMatrix setmatrix stroke} bdef
/PA {newpath tMatrix currentmatrix pop	translate 0 0 moveto scale
  0 0 1 5 -2 roll arc closepath tMatrix setmatrix fill} bdef
/FAn {newpath tMatrix currentmatrix pop translate scale
  0 0 1 5 -2 roll arcn tMatrix setmatrix stroke} bdef
/PAn {newpath tMatrix currentmatrix pop translate 0 0 moveto scale
  0 0 1 5 -2 roll arcn closepath tMatrix setmatrix fill} bdef
/vradius 0 def /hradius 0 def /lry 0 def
/lrx 0 def /uly 0 def /ulx 0 def /rad 0 def
/MRR {/vradius xdef /hradius xdef /lry xdef /lrx xdef /uly xdef
  /ulx xdef newpath tMatrix currentmatrix pop ulx hradius add uly
  vradius add translate hradius vradius scale 0 0 1 180 270 arc 
  tMatrix setmatrix lrx hradius sub uly vradius add translate
  hradius vradius scale 0 0 1 270 360 arc tMatrix setmatrix
  lrx hradius sub lry vradius sub translate hradius vradius scale
  0 0 1 0 90 arc tMatrix setmatrix ulx hradius add lry vradius sub
  translate hradius vradius scale 0 0 1 90 180 arc tMatrix setmatrix
  closepath} bdef
/FRR {MRR stroke } bdef
/PRR {MRR fill } bdef
/MlrRR {/lry xdef /lrx xdef /uly xdef /ulx xdef /rad lry uly sub 2 div def
  newpath tMatrix currentmatrix pop ulx rad add uly rad add translate
  rad rad scale 0 0 1 90 270 arc tMatrix setmatrix lrx rad sub lry rad
  sub translate rad rad scale 0 0 1 270 90 arc tMatrix setmatrix
  closepath} bdef
/FlrRR {MlrRR stroke } bdef
/PlrRR {MlrRR fill } bdef
/MtbRR {/lry xdef /lrx xdef /uly xdef /ulx xdef /rad lrx ulx sub 2 div def
  newpath tMatrix currentmatrix pop ulx rad add uly rad add translate
  rad rad scale 0 0 1 180 360 arc tMatrix setmatrix lrx rad sub lry rad
  sub translate rad rad scale 0 0 1 0 180 arc tMatrix setmatrix
  closepath} bdef
/FtbRR {MtbRR stroke } bdef
/PtbRR {MtbRR fill } bdef
/stri 6 array def /dtri 6 array def
/smat 6 array def /dmat 6 array def
/tmat1 6 array def /tmat2 6 array def /dif 3 array def
/asub {/ind2 exch def /ind1 exch def dup dup
  ind1 get exch ind2 get sub exch } bdef
/tri_to_matrix {
  2 0 asub 3 1 asub 4 0 asub 5 1 asub
  dup 0 get exch 1 get 7 -1 roll astore } bdef
/compute_transform {
  dmat dtri tri_to_matrix tmat1 invertmatrix 
  smat stri tri_to_matrix tmat2 concatmatrix } bdef
/ds {stri astore pop} bdef
/dt {dtri astore pop} bdef
/db {2 copy /cols xdef /rows xdef mul dup 3 mul string
  currentfile 
  3 index 0 eq {/ASCIIHexDecode filter}
  {/ASCII85Decode filter 3 index 2 eq {/RunLengthDecode filter} if }
  ifelse exch readstring pop
  dup 0 3 index getinterval /rbmap xdef
  dup 2 index dup getinterval /gbmap xdef
  1 index dup 2 mul exch getinterval /bbmap xdef pop pop}bdef
/it {gs np dtri aload pop moveto lineto lineto cp c
  cols rows 8 compute_transform 
  rbmap gbmap bbmap true 3 colorimage gr}bdef
/il {newpath moveto lineto stroke}bdef
currentdict end def
%%EndProlog

%%BeginSetup
MathWorks begin

0 cap

end
%%EndSetup

%%Page: 1 1
%%BeginPageSetup
%%PageBoundingBox:    17   214   576   628
MathWorks begin
bpage
%%EndPageSetup

%%BeginObject: obj1
bplot

/dpi2point 12 def
portraitMode 0204 7536 csm

    0     0  6712  4962 rc
85 dict begin %Colortable dictionary
/c0 { 0.000000 0.000000 0.000000 sr} bdef
/c1 { 1.000000 1.000000 1.000000 sr} bdef
/c2 { 0.900000 0.000000 0.000000 sr} bdef
/c3 { 0.000000 0.820000 0.000000 sr} bdef
/c4 { 0.000000 0.000000 0.800000 sr} bdef
/c5 { 0.910000 0.820000 0.320000 sr} bdef
/c6 { 1.000000 0.260000 0.820000 sr} bdef
/c7 { 0.000000 0.820000 0.820000 sr} bdef
c0
1 j
1 sg
   0    0 6713 4963 rf
6 w
0 4045 5201 0 0 -4045 873 4416 4 MP
PP
-5201 0 0 4045 5201 0 0 -4045 873 4416 5 MP stroke
4 w
DO
0 sg
 873 4416 mt  873  372 L
 873  372 mt  873  372 L
1523 4416 mt 1523  372 L
1523  372 mt 1523  372 L
2173 4416 mt 2173  372 L
2173  372 mt 2173  372 L
2823 4416 mt 2823  372 L
2823  372 mt 2823  372 L
3473 4416 mt 3473  372 L
3473  372 mt 3473  372 L
4123 4416 mt 4123  372 L
4123  372 mt 4123  372 L
4773 4416 mt 4773  372 L
4773  372 mt 4773  372 L
5423 4416 mt 5423  372 L
5423  372 mt 5423  372 L
6074 4416 mt 6074  372 L
6074  372 mt 6074  372 L
 873 4416 mt 6074 4416 L
6074 4416 mt 6074 4416 L
 873 3607 mt 6074 3607 L
6074 3607 mt 6074 3607 L
 873 2798 mt 6074 2798 L
6074 2798 mt 6074 2798 L
 873 1989 mt 6074 1989 L
6074 1989 mt 6074 1989 L
 873 1180 mt 6074 1180 L
6074 1180 mt 6074 1180 L
 873  372 mt 6074  372 L
6074  372 mt 6074  372 L
SO
6 w
 873 4416 mt 6074 4416 L
 873  371 mt 6074  371 L
 873 4416 mt  873  371 L
6074 4416 mt 6074  371 L
 873 4416 mt 6074 4416 L
 873 4416 mt  873  371 L
 873 4416 mt  873 4363 L
 873  372 mt  873  424 L
%%IncludeResource: font Helvetica
/Helvetica /ISOLatin1Encoding 120 FMSR

 737 4561 mt 
(-20) s
1523 4416 mt 1523 4363 L
1523  372 mt 1523  424 L
1387 4561 mt 
(-15) s
2173 4416 mt 2173 4363 L
2173  372 mt 2173  424 L
2037 4561 mt 
(-10) s
2823 4416 mt 2823 4363 L
2823  372 mt 2823  424 L
2720 4561 mt 
(-5) s
3473 4416 mt 3473 4363 L
3473  372 mt 3473  424 L
3440 4561 mt 
(0) s
4123 4416 mt 4123 4363 L
4123  372 mt 4123  424 L
4090 4561 mt 
(5) s
4773 4416 mt 4773 4363 L
4773  372 mt 4773  424 L
4707 4561 mt 
(10) s
5423 4416 mt 5423 4363 L
5423  372 mt 5423  424 L
5357 4561 mt 
(15) s
6074 4416 mt 6074 4363 L
6074  372 mt 6074  424 L
6008 4561 mt 
(20) s
 873 4416 mt  925 4416 L
6074 4416 mt 6021 4416 L
 772 4460 mt 
(0) s
 873 3607 mt  925 3607 L
6074 3607 mt 6021 3607 L
 705 3651 mt 
(50) s
 873 2798 mt  925 2798 L
6074 2798 mt 6021 2798 L
 638 2842 mt 
(100) s
 873 1989 mt  925 1989 L
6074 1989 mt 6021 1989 L
 638 2033 mt 
(150) s
 873 1180 mt  925 1180 L
6074 1180 mt 6021 1180 L
 638 1224 mt 
(200) s
 873  372 mt  925  372 L
6074  372 mt 6021  372 L
 638  416 mt 
(250) s
 873 4416 mt 6074 4416 L
 873  371 mt 6074  371 L
 873 4416 mt  873  371 L
6074 4416 mt 6074  371 L
gs 873 372 5202 4045 rc
/c8 { 0.000000 0.000000 1.000000 sr} bdef
c8
131 -159 130 -65 130 -9 130 -133 130 -33 130 -79 130 -62 130 -32 
130 -58 130 -86 130 -34 130 -39 130 -51 130 -233 130 -165 130 -18 
130 -145 130 -223 130 -180 130 -194 130 80 130 141 130 189 130 82 
130 48 130 67 130 -3 130 90 130 90 130 -26 130 140 130 222 
130 -104 130 -14 130 158 130 280 130 111 130 -136 130 253 130 86 
873 2558 41 MP stroke
/c9 { 0.000000 0.500000 0.000000 sr} bdef
c9
131 -40 130 -100 130 -54 130 33 130 -53 130 31 130 -54 130 -21 
130 7 130 -71 130 -37 130 -57 130 -159 130 -66 130 -64 130 -113 
130 -236 130 -124 130 -123 130 -122 130 19 130 97 130 93 130 146 
130 165 130 94 130 179 130 117 130 71 130 293 130 164 130 339 
130 314 130 35 130 249 130 187 130 51 130 118 130 -71 130 384 
873 1268 41 MP stroke
/c10 { 1.000000 0.000000 0.000000 sr} bdef
c10
131 -151 130 -291 130 37 130 -146 130 -204 130 -233 130 33 130 -279 
130 -130 130 -53 130 -136 130 -101 130 -246 130 -206 130 -264 130 -218 
130 -311 130 -394 130 -272 130 -244 130 180 130 228 130 278 130 160 
130 194 130 36 130 124 130 172 130 52 130 74 130 21 130 119 
130 127 130 166 130 -192 130 35 130 98 130 -27 130 57 130 -7 
873 2417 41 MP stroke
gr

c10
0 sg
2955 4704 mt 
(Shift distance \(mm\)) s
 556 2920 mt  -90 rotate
(Colour-consistency) s
90 rotate
 856 4459 mt 
( ) s
6058  414 mt 
( ) s
1 sg
0 563 876 0 0 -563 1124 1132 4 MP
PP
-876 0 0 563 876 0 0 -563 1124 1132 5 MP stroke
4 w
DO
SO
6 w
0 sg
1124 1132 mt 2000 1132 L
1124  569 mt 2000  569 L
1124 1132 mt 1124  569 L
2000 1132 mt 2000  569 L
1124 1132 mt 2000 1132 L
1124 1132 mt 1124  569 L
1124 1132 mt 2000 1132 L
1124  569 mt 2000  569 L
1124 1132 mt 1124  569 L
2000 1132 mt 2000  569 L
1593  719 mt 
(ShiftX) s
gs 1124 569 877 564 rc
c8
360 0 1196 676 2 MP stroke
gr

c8
0 sg
1593  893 mt 
(ShiftY) s
gs 1124 569 877 564 rc
c9
360 0 1196 850 2 MP stroke
gr

c9
0 sg
1593 1067 mt 
(ShiftZ) s
gs 1124 569 877 564 rc
c10
360 0 1196 1024 2 MP stroke
gr

c10

end %%Color Dict

eplot
%%EndObject

epage
end

showpage

%%Trailer
%%EOF
