%!PS-Adobe-3.0 EPSF-3.0
%%Creator: MATLAB, The Mathworks, Inc. Version 7.10.0.499 (R2010a). Operating System: Microsoft Windows 7.
%%Title: .\convergence_rate.eps
%%CreationDate: 06/29/2011  04:31:21
%%DocumentNeededFonts: Helvetica
%%DocumentProcessColors: Cyan Magenta Yellow Black
%%LanguageLevel: 2
%%Pages: 1
%%BoundingBox:   103   269   477   566
%%EndComments

%%BeginProlog
% MathWorks dictionary
/MathWorks 160 dict begin
% definition operators
/bdef {bind def} bind def
/ldef {load def} bind def
/xdef {exch def} bdef
/xstore {exch store} bdef
% operator abbreviations
/c  /clip ldef
/cc /concat ldef
/cp /closepath ldef
/gr /grestore ldef
/gs /gsave ldef
/mt /moveto ldef
/np /newpath ldef
/cm /currentmatrix ldef
/sm /setmatrix ldef
/rm /rmoveto ldef
/rl /rlineto ldef
/s {show newpath} bdef
/sc {setcmykcolor} bdef
/sr /setrgbcolor ldef
/sg /setgray ldef
/w /setlinewidth ldef
/j /setlinejoin ldef
/cap /setlinecap ldef
/rc {rectclip} bdef
/rf {rectfill} bdef
% page state control
/pgsv () def
/bpage {/pgsv save def} bdef
/epage {pgsv restore} bdef
/bplot /gsave ldef
/eplot {stroke grestore} bdef
% orientation switch
/portraitMode 0 def /landscapeMode 1 def /rotateMode 2 def
% coordinate system mappings
/dpi2point 0 def
% font control
/FontSize 0 def
/FMS {/FontSize xstore findfont [FontSize 0 0 FontSize neg 0 0]
  makefont setfont} bdef
/ISOLatin1Encoding where {pop /WindowsLatin1Encoding 256 array bdef
ISOLatin1Encoding WindowsLatin1Encoding copy pop
/.notdef/.notdef/quotesinglbase/florin/quotedblbase/ellipsis/dagger
/daggerdbl/circumflex/perthousand/Scaron/guilsinglleft/OE/.notdef/.notdef
/.notdef/.notdef/quoteleft/quoteright/quotedblleft/quotedblright/bullet
/endash/emdash/tilde/trademark/scaron/guilsinglright/oe/.notdef/.notdef
/Ydieresis WindowsLatin1Encoding 128 32 getinterval astore pop}
{/WindowsLatin1Encoding StandardEncoding bdef} ifelse
/reencode {exch dup where {pop load} {pop StandardEncoding} ifelse
  exch dup 3 1 roll findfont dup length dict begin
  { 1 index /FID ne {def}{pop pop} ifelse } forall
  /Encoding exch def currentdict end definefont pop} bdef
/isroman {findfont /CharStrings get /Agrave known} bdef
/FMSR {3 1 roll 1 index dup isroman {reencode} {pop pop} ifelse
  exch FMS} bdef
/csm {1 dpi2point div -1 dpi2point div scale neg translate
 dup landscapeMode eq {pop -90 rotate}
  {rotateMode eq {90 rotate} if} ifelse} bdef
% line types: solid, dotted, dashed, dotdash
/SO { [] 0 setdash } bdef
/DO { [.5 dpi2point mul 4 dpi2point mul] 0 setdash } bdef
/DA { [6 dpi2point mul] 0 setdash } bdef
/DD { [.5 dpi2point mul 4 dpi2point mul 6 dpi2point mul 4
  dpi2point mul] 0 setdash } bdef
% macros for lines and objects
/L {lineto stroke} bdef
/MP {3 1 roll moveto 1 sub {rlineto} repeat} bdef
/AP {{rlineto} repeat} bdef
/PDlw -1 def
/W {/PDlw currentlinewidth def setlinewidth} def
/PP {closepath eofill} bdef
/DP {closepath stroke} bdef
/MR {4 -2 roll moveto dup  0 exch rlineto exch 0 rlineto
  neg 0 exch rlineto closepath} bdef
/FR {MR stroke} bdef
/PR {MR fill} bdef
/L1i {{currentfile picstr readhexstring pop} image} bdef
/tMatrix matrix def
/MakeOval {newpath tMatrix currentmatrix pop translate scale
0 0 1 0 360 arc tMatrix setmatrix} bdef
/FO {MakeOval stroke} bdef
/PO {MakeOval fill} bdef
/PD {currentlinewidth 2 div 0 360 arc fill
   PDlw -1 eq not {PDlw w /PDlw -1 def} if} def
/FA {newpath tMatrix currentmatrix pop translate scale
  0 0 1 5 -2 roll arc tMatrix setmatrix stroke} bdef
/PA {newpath tMatrix currentmatrix pop	translate 0 0 moveto scale
  0 0 1 5 -2 roll arc closepath tMatrix setmatrix fill} bdef
/FAn {newpath tMatrix currentmatrix pop translate scale
  0 0 1 5 -2 roll arcn tMatrix setmatrix stroke} bdef
/PAn {newpath tMatrix currentmatrix pop translate 0 0 moveto scale
  0 0 1 5 -2 roll arcn closepath tMatrix setmatrix fill} bdef
/vradius 0 def /hradius 0 def /lry 0 def
/lrx 0 def /uly 0 def /ulx 0 def /rad 0 def
/MRR {/vradius xdef /hradius xdef /lry xdef /lrx xdef /uly xdef
  /ulx xdef newpath tMatrix currentmatrix pop ulx hradius add uly
  vradius add translate hradius vradius scale 0 0 1 180 270 arc 
  tMatrix setmatrix lrx hradius sub uly vradius add translate
  hradius vradius scale 0 0 1 270 360 arc tMatrix setmatrix
  lrx hradius sub lry vradius sub translate hradius vradius scale
  0 0 1 0 90 arc tMatrix setmatrix ulx hradius add lry vradius sub
  translate hradius vradius scale 0 0 1 90 180 arc tMatrix setmatrix
  closepath} bdef
/FRR {MRR stroke } bdef
/PRR {MRR fill } bdef
/MlrRR {/lry xdef /lrx xdef /uly xdef /ulx xdef /rad lry uly sub 2 div def
  newpath tMatrix currentmatrix pop ulx rad add uly rad add translate
  rad rad scale 0 0 1 90 270 arc tMatrix setmatrix lrx rad sub lry rad
  sub translate rad rad scale 0 0 1 270 90 arc tMatrix setmatrix
  closepath} bdef
/FlrRR {MlrRR stroke } bdef
/PlrRR {MlrRR fill } bdef
/MtbRR {/lry xdef /lrx xdef /uly xdef /ulx xdef /rad lrx ulx sub 2 div def
  newpath tMatrix currentmatrix pop ulx rad add uly rad add translate
  rad rad scale 0 0 1 180 360 arc tMatrix setmatrix lrx rad sub lry rad
  sub translate rad rad scale 0 0 1 0 180 arc tMatrix setmatrix
  closepath} bdef
/FtbRR {MtbRR stroke } bdef
/PtbRR {MtbRR fill } bdef
/stri 6 array def /dtri 6 array def
/smat 6 array def /dmat 6 array def
/tmat1 6 array def /tmat2 6 array def /dif 3 array def
/asub {/ind2 exch def /ind1 exch def dup dup
  ind1 get exch ind2 get sub exch } bdef
/tri_to_matrix {
  2 0 asub 3 1 asub 4 0 asub 5 1 asub
  dup 0 get exch 1 get 7 -1 roll astore } bdef
/compute_transform {
  dmat dtri tri_to_matrix tmat1 invertmatrix 
  smat stri tri_to_matrix tmat2 concatmatrix } bdef
/ds {stri astore pop} bdef
/dt {dtri astore pop} bdef
/db {2 copy /cols xdef /rows xdef mul dup 3 mul string
  currentfile 
  3 index 0 eq {/ASCIIHexDecode filter}
  {/ASCII85Decode filter 3 index 2 eq {/RunLengthDecode filter} if }
  ifelse exch readstring pop
  dup 0 3 index getinterval /rbmap xdef
  dup 2 index dup getinterval /gbmap xdef
  1 index dup 2 mul exch getinterval /bbmap xdef pop pop}bdef
/it {gs np dtri aload pop moveto lineto lineto cp c
  cols rows 8 compute_transform 
  rbmap gbmap bbmap true 3 colorimage gr}bdef
/il {newpath moveto lineto stroke}bdef
currentdict end def
%%EndProlog

%%BeginSetup
MathWorks begin

0 cap

end
%%EndSetup

%%Page: 1 1
%%BeginPageSetup
%%PageBoundingBox:   103   269   477   566
MathWorks begin
bpage
%%EndPageSetup

%%BeginObject: obj1
bplot

/dpi2point 12 def
portraitMode 1044 6936 csm

  203   142  4485  3564 rc
87 dict begin %Colortable dictionary
/c0 { 0.000000 0.000000 0.000000 sr} bdef
/c1 { 1.000000 1.000000 1.000000 sr} bdef
/c2 { 0.900000 0.000000 0.000000 sr} bdef
/c3 { 0.000000 0.820000 0.000000 sr} bdef
/c4 { 0.000000 0.000000 0.800000 sr} bdef
/c5 { 0.910000 0.820000 0.320000 sr} bdef
/c6 { 1.000000 0.260000 0.820000 sr} bdef
/c7 { 0.000000 0.820000 0.820000 sr} bdef
c0
1 j
1 sg
   0    0 5046 3783 rf
6 w
0 3082 3910 0 0 -3082 656 3366 4 MP
PP
-3910 0 0 3082 3910 0 0 -3082 656 3366 5 MP stroke
4 w
DO
0 sg
 656 3366 mt  656  284 L
 656  284 mt  656  284 L
1633 3366 mt 1633  284 L
1633  284 mt 1633  284 L
2611 3366 mt 2611  284 L
2611  284 mt 2611  284 L
3588 3366 mt 3588  284 L
3588  284 mt 3588  284 L
4566 3366 mt 4566  284 L
4566  284 mt 4566  284 L
 656 3366 mt 4566 3366 L
4566 3366 mt 4566 3366 L
 656 3057 mt 4566 3057 L
4566 3057 mt 4566 3057 L
 656 2749 mt 4566 2749 L
4566 2749 mt 4566 2749 L
 656 2441 mt 4566 2441 L
4566 2441 mt 4566 2441 L
 656 2133 mt 4566 2133 L
4566 2133 mt 4566 2133 L
 656 1825 mt 4566 1825 L
4566 1825 mt 4566 1825 L
 656 1516 mt 4566 1516 L
4566 1516 mt 4566 1516 L
 656 1208 mt 4566 1208 L
4566 1208 mt 4566 1208 L
 656  900 mt 4566  900 L
4566  900 mt 4566  900 L
 656  592 mt 4566  592 L
4566  592 mt 4566  592 L
 656  284 mt 4566  284 L
4566  284 mt 4566  284 L
SO
6 w
 656  284 mt 4566  284 L
 656 3366 mt 4566 3366 L
4566 3366 mt 4566  284 L
 656 3366 mt  656  284 L
 656 3366 mt 4566 3366 L
 656 3366 mt  656  284 L
 656 3366 mt  656 3326 L
 656  284 mt  656  323 L
%%IncludeResource: font Helvetica
/Helvetica /WindowsLatin1Encoding 120 FMSR

 623 3511 mt 
(0) s
1633 3366 mt 1633 3326 L
1633  284 mt 1633  323 L
1600 3511 mt 
(5) s
2611 3366 mt 2611 3326 L
2611  284 mt 2611  323 L
2545 3511 mt 
(10) s
3588 3366 mt 3588 3326 L
3588  284 mt 3588  323 L
3522 3511 mt 
(15) s
4566 3366 mt 4566 3326 L
4566  284 mt 4566  323 L
4500 3511 mt 
(20) s
 656 3366 mt  695 3366 L
4566 3366 mt 4526 3366 L
 555 3410 mt 
(0) s
 656 3057 mt  695 3057 L
4566 3057 mt 4526 3057 L
 488 3101 mt 
(10) s
 656 2749 mt  695 2749 L
4566 2749 mt 4526 2749 L
 488 2793 mt 
(20) s
 656 2441 mt  695 2441 L
4566 2441 mt 4526 2441 L
 488 2485 mt 
(30) s
 656 2133 mt  695 2133 L
4566 2133 mt 4526 2133 L
 488 2177 mt 
(40) s
 656 1825 mt  695 1825 L
4566 1825 mt 4526 1825 L
 488 1869 mt 
(50) s
 656 1516 mt  695 1516 L
4566 1516 mt 4526 1516 L
 488 1560 mt 
(60) s
 656 1208 mt  695 1208 L
4566 1208 mt 4526 1208 L
 488 1252 mt 
(70) s
 656  900 mt  695  900 L
4566  900 mt 4526  900 L
 488  944 mt 
(80) s
 656  592 mt  695  592 L
4566  592 mt 4526  592 L
 488  636 mt 
(90) s
 656  284 mt  695  284 L
4566  284 mt 4526  284 L
 421  328 mt 
(100) s
 656  284 mt 4566  284 L
 656 3366 mt 4566 3366 L
4566 3366 mt 4566  284 L
 656 3366 mt  656  284 L
gs 656 284 3911 3083 rc
/c8 { 1.000000 0.000000 0.000000 sr} bdef
c8
196 -124 195 0 196 0 195 124 196 -124 195 62 196 0 195 62 
196 -62 195 0 196 247 195 185 196 -247 195 432 196 -124 195 617 
196 -124 195 370 196 617 195 863 656 468 21 MP stroke
gr

c8
0 j
0 -58 -58 0 0 58 58 0 627 439 5 MP
DP
0 -58 -58 0 0 58 58 0 822 1302 5 MP
DP
0 -58 -58 0 0 58 58 0 1018 1919 5 MP
DP
0 -58 -58 0 0 58 58 0 1213 2289 5 MP
DP
0 -58 -58 0 0 58 58 0 1409 2165 5 MP
DP
0 -58 -58 0 0 58 58 0 1604 2782 5 MP
DP
0 -58 -58 0 0 58 58 0 1800 2658 5 MP
DP
0 -58 -58 0 0 58 58 0 1995 3090 5 MP
DP
0 -58 -58 0 0 58 58 0 2191 2843 5 MP
DP
0 -58 -58 0 0 58 58 0 2386 3028 5 MP
DP
0 -58 -58 0 0 58 58 0 2582 3275 5 MP
DP
0 -58 -58 0 0 58 58 0 2777 3275 5 MP
DP
0 -58 -58 0 0 58 58 0 2973 3213 5 MP
DP
0 -58 -58 0 0 58 58 0 3168 3275 5 MP
DP
0 -58 -58 0 0 58 58 0 3364 3275 5 MP
DP
0 -58 -58 0 0 58 58 0 3559 3337 5 MP
DP
0 -58 -58 0 0 58 58 0 3755 3213 5 MP
DP
0 -58 -58 0 0 58 58 0 3950 3337 5 MP
DP
0 -58 -58 0 0 58 58 0 4146 3337 5 MP
DP
0 -58 -58 0 0 58 58 0 4341 3337 5 MP
DP
0 -58 -58 0 0 58 58 0 4537 3213 5 MP
DP
gs 656 284 3911 3083 rc
/c9 { 0.000000 1.000000 1.000000 sr} bdef
c9
196 -185 195 123 196 62 195 308 196 -246 195 123 196 123 195 -185 
196 740 195 0 196 -62 195 62 196 247 195 431 196 308 195 124 
196 308 195 123 196 247 195 184 656 284 21 MP stroke
gr

c9
  36   36  656  284 FO
  36   36  851  468 FO
  36   36 1047  715 FO
  36   36 1242  838 FO
  36   36 1438 1146 FO
  36   36 1633 1270 FO
  36   36 1829 1578 FO
  36   36 2024 2009 FO
  36   36 2220 2256 FO
  36   36 2415 2318 FO
  36   36 2611 2256 FO
  36   36 2806 2256 FO
  36   36 3002 2996 FO
  36   36 3197 2811 FO
  36   36 3393 2934 FO
  36   36 3588 3057 FO
  36   36 3784 2811 FO
  36   36 3979 3119 FO
  36   36 4175 3181 FO
  36   36 4370 3304 FO
  36   36 4566 3119 FO
gs 656 284 3911 3083 rc
/c10 { 0.000000 1.000000 0.000000 sr} bdef
c10
196 154 195 0 196 0 195 462 196 -154 195 0 196 308 195 308 
196 -154 195 154 196 463 195 462 196 0 195 154 196 154 195 308 
196 0 195 0 196 308 195 0 656 284 21 MP stroke
gr

c10
36 47 -36 47 -36 -47 36 -47 656 331 5 MP
DP
36 47 -36 47 -36 -47 36 -47 851 331 5 MP
DP
36 47 -36 47 -36 -47 36 -47 1047 639 5 MP
DP
36 47 -36 47 -36 -47 36 -47 1242 639 5 MP
DP
36 47 -36 47 -36 -47 36 -47 1438 639 5 MP
DP
36 47 -36 47 -36 -47 36 -47 1633 947 5 MP
DP
36 47 -36 47 -36 -47 36 -47 1829 1101 5 MP
DP
36 47 -36 47 -36 -47 36 -47 2024 1255 5 MP
DP
36 47 -36 47 -36 -47 36 -47 2220 1255 5 MP
DP
36 47 -36 47 -36 -47 36 -47 2415 1717 5 MP
DP
36 47 -36 47 -36 -47 36 -47 2611 2180 5 MP
DP
36 47 -36 47 -36 -47 36 -47 2806 2334 5 MP
DP
36 47 -36 47 -36 -47 36 -47 3002 2180 5 MP
DP
36 47 -36 47 -36 -47 36 -47 3197 2488 5 MP
DP
36 47 -36 47 -36 -47 36 -47 3393 2796 5 MP
DP
36 47 -36 47 -36 -47 36 -47 3588 2796 5 MP
DP
36 47 -36 47 -36 -47 36 -47 3784 2642 5 MP
DP
36 47 -36 47 -36 -47 36 -47 3979 3104 5 MP
DP
36 47 -36 47 -36 -47 36 -47 4175 3104 5 MP
DP
36 47 -36 47 -36 -47 36 -47 4370 3104 5 MP
DP
36 47 -36 47 -36 -47 36 -47 4566 3258 5 MP
DP
gs 656 284 3911 3083 rc
/c11 { 0.000000 0.000000 1.000000 sr} bdef
c11
196 247 195 -308 196 493 195 370 196 -247 195 0 196 185 195 431 
196 62 195 432 196 431 195 123 196 124 195 123 196 -123 195 246 
196 62 195 0 196 61 195 0 656 284 21 MP stroke
gr

c11
 631  259 mt  681  309 L
 681  259 mt  631  309 L
 826  259 mt  876  309 L
 876  259 mt  826  309 L
1022  320 mt 1072  370 L
1072  320 mt 1022  370 L
1217  320 mt 1267  370 L
1267  320 mt 1217  370 L
1413  382 mt 1463  432 L
1463  382 mt 1413  432 L
1608  628 mt 1658  678 L
1658  628 mt 1608  678 L
1804  505 mt 1854  555 L
1854  505 mt 1804  555 L
1999  628 mt 2049  678 L
2049  628 mt 1999  678 L
2195  752 mt 2245  802 L
2245  752 mt 2195  802 L
2390  875 mt 2440  925 L
2440  875 mt 2390  925 L
2586 1306 mt 2636 1356 L
2636 1306 mt 2586 1356 L
2781 1738 mt 2831 1788 L
2831 1738 mt 2781 1788 L
2977 1800 mt 3027 1850 L
3027 1800 mt 2977 1850 L
3172 2231 mt 3222 2281 L
3222 2231 mt 3172 2281 L
3368 2416 mt 3418 2466 L
3418 2416 mt 3368 2466 L
3563 2416 mt 3613 2466 L
3613 2416 mt 3563 2466 L
3759 2169 mt 3809 2219 L
3809 2169 mt 3759 2219 L
3954 2539 mt 4004 2589 L
4004 2539 mt 3954 2589 L
4150 3032 mt 4200 3082 L
4200 3032 mt 4150 3082 L
4345 2724 mt 4395 2774 L
4395 2724 mt 4345 2774 L
4541 2971 mt 4591 3021 L
4591 2971 mt 4541 3021 L
gs 656 284 3911 3083 rc
gr

0 sg
1688 3654 mt 
(Standard deviation of AWGN \(mm\)) s
 339 2187 mt  -90 rotate
(% Converged) s
90 rotate
 639 3409 mt 
( ) s
4550  326 mt 
( ) s
1 sg
0 626 1238 0 0 -626 3269 970 4 MP
PP
-1238 0 0 626 1238 0 0 -626 3269 970 5 MP stroke
4 w
DO
SO
6 w
0 sg
3269  344 mt 4507  344 L
3269  970 mt 4507  970 L
4507  970 mt 4507  344 L
3269  970 mt 3269  344 L
3269  970 mt 4507  970 L
3269  970 mt 3269  344 L
3269  344 mt 4507  344 L
3269  970 mt 4507  970 L
4507  970 mt 4507  344 L
3269  970 mt 3269  344 L
3736  478 mt 
(2 Keyframes) s
gs 3269 344 1239 627 rc
c8
359 0 3340 436 2 MP stroke
gs 3447 363 147 147 rc
0 -58 -58 0 0 58 58 0 3491 407 5 MP
DP
gr

gr

c8
0 sg
3736  626 mt 
(5 Keyframes) s
gs 3269 344 1239 627 rc
c9
359 0 3340 583 2 MP stroke
gs 3447 510 147 147 rc
  36   36 3520  583 FO
gr

gr

c9
0 sg
3736  773 mt 
(10 Keyframes) s
gs 3269 344 1239 627 rc
c10
359 0 3340 730 2 MP stroke
gs 3447 657 147 147 rc
36 47 -36 47 -36 -47 36 -47 3520 777 5 MP
DP
gr

gr

c10
0 sg
3736  921 mt 
(20 Keyframes) s
gs 3269 344 1239 627 rc
c11
359 0 3340 877 2 MP stroke
gs 3447 804 147 147 rc
3495  852 mt 3545  902 L
3545  852 mt 3495  902 L
gr

gr

c11

end %%Color Dict

eplot
%%EndObject

epage
end

showpage

%%Trailer
%%EOF
