%!PS-Adobe-3.0 EPSF-3.0
%%Creator: MATLAB, The Mathworks, Inc. Version 7.10.0.499 (R2010a). Operating System: Microsoft Windows 7.
%%Title: C:\Users\Pinglin\Documents\Imperial College London\Publicatoin\MICCAI2011\EXP0\Procrustes.eps
%%CreationDate: 06/30/2011  00:19:47
%%DocumentNeededFonts: Helvetica
%%DocumentProcessColors: Cyan Magenta Yellow Black
%%LanguageLevel: 2
%%Pages: 1
%%BoundingBox:    87   262   507   578
%%EndComments

%%BeginProlog
% MathWorks dictionary
/MathWorks 160 dict begin
% definition operators
/bdef {bind def} bind def
/ldef {load def} bind def
/xdef {exch def} bdef
/xstore {exch store} bdef
% operator abbreviations
/c  /clip ldef
/cc /concat ldef
/cp /closepath ldef
/gr /grestore ldef
/gs /gsave ldef
/mt /moveto ldef
/np /newpath ldef
/cm /currentmatrix ldef
/sm /setmatrix ldef
/rm /rmoveto ldef
/rl /rlineto ldef
/s {show newpath} bdef
/sc {setcmykcolor} bdef
/sr /setrgbcolor ldef
/sg /setgray ldef
/w /setlinewidth ldef
/j /setlinejoin ldef
/cap /setlinecap ldef
/rc {rectclip} bdef
/rf {rectfill} bdef
% page state control
/pgsv () def
/bpage {/pgsv save def} bdef
/epage {pgsv restore} bdef
/bplot /gsave ldef
/eplot {stroke grestore} bdef
% orientation switch
/portraitMode 0 def /landscapeMode 1 def /rotateMode 2 def
% coordinate system mappings
/dpi2point 0 def
% font control
/FontSize 0 def
/FMS {/FontSize xstore findfont [FontSize 0 0 FontSize neg 0 0]
  makefont setfont} bdef
/ISOLatin1Encoding where {pop /WindowsLatin1Encoding 256 array bdef
ISOLatin1Encoding WindowsLatin1Encoding copy pop
/.notdef/.notdef/quotesinglbase/florin/quotedblbase/ellipsis/dagger
/daggerdbl/circumflex/perthousand/Scaron/guilsinglleft/OE/.notdef/.notdef
/.notdef/.notdef/quoteleft/quoteright/quotedblleft/quotedblright/bullet
/endash/emdash/tilde/trademark/scaron/guilsinglright/oe/.notdef/.notdef
/Ydieresis WindowsLatin1Encoding 128 32 getinterval astore pop}
{/WindowsLatin1Encoding StandardEncoding bdef} ifelse
/reencode {exch dup where {pop load} {pop StandardEncoding} ifelse
  exch dup 3 1 roll findfont dup length dict begin
  { 1 index /FID ne {def}{pop pop} ifelse } forall
  /Encoding exch def currentdict end definefont pop} bdef
/isroman {findfont /CharStrings get /Agrave known} bdef
/FMSR {3 1 roll 1 index dup isroman {reencode} {pop pop} ifelse
  exch FMS} bdef
/csm {1 dpi2point div -1 dpi2point div scale neg translate
 dup landscapeMode eq {pop -90 rotate}
  {rotateMode eq {90 rotate} if} ifelse} bdef
% line types: solid, dotted, dashed, dotdash
/SO { [] 0 setdash } bdef
/DO { [.5 dpi2point mul 4 dpi2point mul] 0 setdash } bdef
/DA { [6 dpi2point mul] 0 setdash } bdef
/DD { [.5 dpi2point mul 4 dpi2point mul 6 dpi2point mul 4
  dpi2point mul] 0 setdash } bdef
% macros for lines and objects
/L {lineto stroke} bdef
/MP {3 1 roll moveto 1 sub {rlineto} repeat} bdef
/AP {{rlineto} repeat} bdef
/PDlw -1 def
/W {/PDlw currentlinewidth def setlinewidth} def
/PP {closepath eofill} bdef
/DP {closepath stroke} bdef
/MR {4 -2 roll moveto dup  0 exch rlineto exch 0 rlineto
  neg 0 exch rlineto closepath} bdef
/FR {MR stroke} bdef
/PR {MR fill} bdef
/L1i {{currentfile picstr readhexstring pop} image} bdef
/tMatrix matrix def
/MakeOval {newpath tMatrix currentmatrix pop translate scale
0 0 1 0 360 arc tMatrix setmatrix} bdef
/FO {MakeOval stroke} bdef
/PO {MakeOval fill} bdef
/PD {currentlinewidth 2 div 0 360 arc fill
   PDlw -1 eq not {PDlw w /PDlw -1 def} if} def
/FA {newpath tMatrix currentmatrix pop translate scale
  0 0 1 5 -2 roll arc tMatrix setmatrix stroke} bdef
/PA {newpath tMatrix currentmatrix pop	translate 0 0 moveto scale
  0 0 1 5 -2 roll arc closepath tMatrix setmatrix fill} bdef
/FAn {newpath tMatrix currentmatrix pop translate scale
  0 0 1 5 -2 roll arcn tMatrix setmatrix stroke} bdef
/PAn {newpath tMatrix currentmatrix pop translate 0 0 moveto scale
  0 0 1 5 -2 roll arcn closepath tMatrix setmatrix fill} bdef
/vradius 0 def /hradius 0 def /lry 0 def
/lrx 0 def /uly 0 def /ulx 0 def /rad 0 def
/MRR {/vradius xdef /hradius xdef /lry xdef /lrx xdef /uly xdef
  /ulx xdef newpath tMatrix currentmatrix pop ulx hradius add uly
  vradius add translate hradius vradius scale 0 0 1 180 270 arc 
  tMatrix setmatrix lrx hradius sub uly vradius add translate
  hradius vradius scale 0 0 1 270 360 arc tMatrix setmatrix
  lrx hradius sub lry vradius sub translate hradius vradius scale
  0 0 1 0 90 arc tMatrix setmatrix ulx hradius add lry vradius sub
  translate hradius vradius scale 0 0 1 90 180 arc tMatrix setmatrix
  closepath} bdef
/FRR {MRR stroke } bdef
/PRR {MRR fill } bdef
/MlrRR {/lry xdef /lrx xdef /uly xdef /ulx xdef /rad lry uly sub 2 div def
  newpath tMatrix currentmatrix pop ulx rad add uly rad add translate
  rad rad scale 0 0 1 90 270 arc tMatrix setmatrix lrx rad sub lry rad
  sub translate rad rad scale 0 0 1 270 90 arc tMatrix setmatrix
  closepath} bdef
/FlrRR {MlrRR stroke } bdef
/PlrRR {MlrRR fill } bdef
/MtbRR {/lry xdef /lrx xdef /uly xdef /ulx xdef /rad lrx ulx sub 2 div def
  newpath tMatrix currentmatrix pop ulx rad add uly rad add translate
  rad rad scale 0 0 1 180 360 arc tMatrix setmatrix lrx rad sub lry rad
  sub translate rad rad scale 0 0 1 0 180 arc tMatrix setmatrix
  closepath} bdef
/FtbRR {MtbRR stroke } bdef
/PtbRR {MtbRR fill } bdef
/stri 6 array def /dtri 6 array def
/smat 6 array def /dmat 6 array def
/tmat1 6 array def /tmat2 6 array def /dif 3 array def
/asub {/ind2 exch def /ind1 exch def dup dup
  ind1 get exch ind2 get sub exch } bdef
/tri_to_matrix {
  2 0 asub 3 1 asub 4 0 asub 5 1 asub
  dup 0 get exch 1 get 7 -1 roll astore } bdef
/compute_transform {
  dmat dtri tri_to_matrix tmat1 invertmatrix 
  smat stri tri_to_matrix tmat2 concatmatrix } bdef
/ds {stri astore pop} bdef
/dt {dtri astore pop} bdef
/db {2 copy /cols xdef /rows xdef mul dup 3 mul string
  currentfile 
  3 index 0 eq {/ASCIIHexDecode filter}
  {/ASCII85Decode filter 3 index 2 eq {/RunLengthDecode filter} if }
  ifelse exch readstring pop
  dup 0 3 index getinterval /rbmap xdef
  dup 2 index dup getinterval /gbmap xdef
  1 index dup 2 mul exch getinterval /bbmap xdef pop pop}bdef
/it {gs np dtri aload pop moveto lineto lineto cp c
  cols rows 8 compute_transform 
  rbmap gbmap bbmap true 3 colorimage gr}bdef
/il {newpath moveto lineto stroke}bdef
currentdict end def
%%EndProlog

%%BeginSetup
MathWorks begin

0 cap

end
%%EndSetup

%%Page: 1 1
%%BeginPageSetup
%%PageBoundingBox:    87   262   507   578
MathWorks begin
bpage
%%EndPageSetup

%%BeginObject: obj1
bplot

/dpi2point 12 def
portraitMode 1044 6936 csm

    0     0  5045  3782 rc
85 dict begin %Colortable dictionary
/c0 { 0.000000 0.000000 0.000000 sr} bdef
/c1 { 1.000000 1.000000 1.000000 sr} bdef
/c2 { 0.900000 0.000000 0.000000 sr} bdef
/c3 { 0.000000 0.820000 0.000000 sr} bdef
/c4 { 0.000000 0.000000 0.800000 sr} bdef
/c5 { 0.910000 0.820000 0.320000 sr} bdef
/c6 { 1.000000 0.260000 0.820000 sr} bdef
/c7 { 0.000000 0.820000 0.820000 sr} bdef
c0
1 j
1 sg
   0    0 5046 3783 rf
6 w
0 1531 -1628 -906 0 -1531 4566 2720 4 MP
PP
1628 906 0 1531 -1628 -906 0 -1531 4566 2720 5 MP stroke
1628 906 2283 -646 -1628 -905 2283 3365 4 MP
PP
-2283 645 1628 906 2283 -646 -1628 -905 2283 3365 5 MP stroke
0 1531 2283 -646 0 -1531 655 2460 4 MP
PP
-2283 646 0 1531 2283 -646 0 -1531 655 2460 5 MP stroke
4 w
DO
0 sg
2283 3365 mt  655 2460 L
 655 2460 mt  655  929 L
2854 3204 mt 1226 2299 L
1226 2299 mt 1226  768 L
3424 3043 mt 1797 2137 L
1797 2137 mt 1797  606 L
3995 2881 mt 2367 1976 L
2367 1976 mt 2367  445 L
4566 2720 mt 2938 1814 L
2938 1814 mt 2938  283 L
2283 3365 mt 4566 2720 L
4566 2720 mt 4566 1189 L
1958 3184 mt 4240 2539 L
4240 2539 mt 4240 1008 L
1632 3003 mt 3914 2358 L
3914 2358 mt 3914  827 L
1307 2822 mt 3589 2176 L
3589 2176 mt 3589  646 L
 981 2641 mt 3263 1995 L
3263 1995 mt 3263  465 L
 655 2460 mt 2938 1814 L
2938 1814 mt 2938  283 L
 655 2460 mt 2938 1814 L
2938 1814 mt 4566 2720 L
 655 2077 mt 2938 1432 L
2938 1432 mt 4566 2337 L
 655 1695 mt 2938 1049 L
2938 1049 mt 4566 1954 L
 655 1312 mt 2938  666 L
2938  666 mt 4566 1572 L
 655  929 mt 2938  283 L
2938  283 mt 4566 1189 L
SO
6 w
2283 3365 mt 4566 2720 L
2283 3365 mt  655 2460 L
 655 2460 mt  655  929 L
2283 3365 mt 2335 3394 L
%%IncludeResource: font Helvetica
/Helvetica /WindowsLatin1Encoding 120 FMSR

2365 3522 mt 
(-30) s
2854 3204 mt 2906 3233 L
2936 3361 mt 
(-20) s
3424 3043 mt 3476 3071 L
3506 3199 mt 
(-10) s
3995 2881 mt 4047 2910 L
4077 3038 mt 
(0) s
4566 2720 mt 4617 2748 L
4648 2876 mt 
(10) s
2283 3365 mt 2226 3382 L
1990 3502 mt 
(-80) s
1958 3184 mt 1901 3201 L
1664 3321 mt 
(-60) s
1632 3003 mt 1575 3019 L
1339 3140 mt 
(-40) s
1307 2822 mt 1250 2838 L
1013 2959 mt 
(-20) s
 981 2641 mt  924 2657 L
 825 2778 mt 
(0) s
 655 2460 mt  598 2476 L
 432 2597 mt 
(20) s
 655 2460 mt  604 2431 L
 507 2458 mt 
(0) s
 655 2077 mt  604 2049 L
 440 2076 mt 
(20) s
 655 1695 mt  604 1666 L
 440 1693 mt 
(40) s
 655 1312 mt  604 1283 L
 440 1310 mt 
(60) s
 655  929 mt  604  901 L
 440  928 mt 
(80) s
4550  325 mt 
( ) s
gs 655 283 3912 3083 rc
0 j
gr

0 j
32 42 -32 42 -32 -42 32 -42 3874 1706 5 MP
/c8 { 1.000000 0.000000 0.000000 sr} bdef
c8
DP
gs 655 283 3912 3083 rc
gr

/c9 { 0.000000 0.000000 1.000000 sr} bdef
c9
3838 1671 mt 3902 1671 L
3870 1639 mt 3870 1703 L
gs 655 283 3912 3083 rc
gr

32 42 -32 42 -32 -42 32 -42 3799 1664 5 MP
c8
DP
gs 655 283 3912 3083 rc
gr

c9
3757 1630 mt 3821 1630 L
3789 1598 mt 3789 1662 L
gs 655 283 3912 3083 rc
gr

32 42 -32 42 -32 -42 32 -42 3770 2268 5 MP
c8
DP
gs 655 283 3912 3083 rc
gr

c9
3733 2228 mt 3797 2228 L
3765 2196 mt 3765 2260 L
gs 655 283 3912 3083 rc
gr

32 42 -32 42 -32 -42 32 -42 3724 1623 5 MP
c8
DP
gs 655 283 3912 3083 rc
gr

c9
3680 1588 mt 3744 1588 L
3712 1556 mt 3712 1620 L
gs 655 283 3912 3083 rc
gr

32 42 -32 42 -32 -42 32 -42 3702 2230 5 MP
c8
DP
gs 655 283 3912 3083 rc
gr

c9
3658 2192 mt 3722 2192 L
3690 2160 mt 3690 2224 L
gs 655 283 3912 3083 rc
gr

32 42 -32 42 -32 -42 32 -42 3661 1788 5 MP
c8
DP
gs 655 283 3912 3083 rc
gr

32 42 -32 42 -32 -42 32 -42 3649 1581 5 MP
DP
gs 655 283 3912 3083 rc
gr

c9
3614 1755 mt 3678 1755 L
3646 1723 mt 3646 1787 L
gs 655 283 3912 3083 rc
gr

32 42 -32 42 -32 -42 32 -42 3633 2192 5 MP
c8
DP
gs 655 283 3912 3083 rc
gr

c9
3601 1547 mt 3665 1547 L
3633 1515 mt 3633 1579 L
gs 655 283 3912 3083 rc
gr

3586 2154 mt 3650 2154 L
3618 2122 mt 3618 2186 L
gs 655 283 3912 3083 rc
gr

32 42 -32 42 -32 -42 32 -42 3571 1538 5 MP
c8
DP
gs 655 283 3912 3083 rc
gr

32 42 -32 42 -32 -42 32 -42 3565 2154 5 MP
DP
gs 655 283 3912 3083 rc
gr

c9
3518 1505 mt 3582 1505 L
3550 1473 mt 3550 1537 L
gs 655 283 3912 3083 rc
gr

3515 2117 mt 3579 2117 L
3547 2085 mt 3547 2149 L
gs 655 283 3912 3083 rc
gr

32 42 -32 42 -32 -42 32 -42 3497 2116 5 MP
c8
DP
gs 655 283 3912 3083 rc
gr

32 42 -32 42 -32 -42 32 -42 3482 1489 5 MP
DP
gs 655 283 3912 3083 rc
gr

c9
3449 1458 mt 3513 1458 L
3481 1426 mt 3481 1490 L
gs 655 283 3912 3083 rc
gr

3444 2079 mt 3508 2079 L
3476 2047 mt 3476 2111 L
gs 655 283 3912 3083 rc
gr

32 42 -32 42 -32 -42 32 -42 3462 1431 5 MP
c8
DP
gs 655 283 3912 3083 rc
gr

c9
3426 1401 mt 3490 1401 L
3458 1369 mt 3458 1433 L
gs 655 283 3912 3083 rc
gr

32 42 -32 42 -32 -42 32 -42 3428 2078 5 MP
c8
DP
gs 655 283 3912 3083 rc
gr

c9
3372 2041 mt 3436 2041 L
3404 2009 mt 3404 2073 L
gs 655 283 3912 3083 rc
gr

32 42 -32 42 -32 -42 32 -42 3398 1863 5 MP
c8
DP
gs 655 283 3912 3083 rc
gr

c9
3357 1828 mt 3421 1828 L
3389 1796 mt 3389 1860 L
gs 655 283 3912 3083 rc
gr

32 42 -32 42 -32 -42 32 -42 3384 1388 5 MP
c8
DP
gs 655 283 3912 3083 rc
gr

c9
3341 1358 mt 3405 1358 L
3373 1326 mt 3373 1390 L
gs 655 283 3912 3083 rc
gr

32 42 -32 42 -32 -42 32 -42 3360 2040 5 MP
c8
DP
gs 655 283 3912 3083 rc
gr

c9
3303 2001 mt 3367 2001 L
3335 1969 mt 3335 2033 L
gs 655 283 3912 3083 rc
gr

32 42 -32 42 -32 -42 32 -42 3306 1344 5 MP
c8
DP
gs 655 283 3912 3083 rc
gr

0 sg
3305 3577 mt 
(X) s
gs 655 283 3912 3083 rc
gr

32 42 -32 42 -32 -42 32 -42 3292 2002 5 MP
c8
DP
gs 655 283 3912 3083 rc
gr

c9
3259 1314 mt 3323 1314 L
3291 1282 mt 3291 1346 L
gs 655 283 3912 3083 rc
gr

3232 1962 mt 3296 1962 L
3264 1930 mt 3264 1994 L
gs 655 283 3912 3083 rc
gr

32 42 -32 42 -32 -42 32 -42 3225 1299 5 MP
c8
DP
gs 655 283 3912 3083 rc
gr

32 42 -32 42 -32 -42 32 -42 3223 1964 5 MP
DP
gs 655 283 3912 3083 rc
gr

32 42 -32 42 -32 -42 32 -42 3212 928 5 MP
DP
gs 655 283 3912 3083 rc
gr

32 42 -32 42 -32 -42 32 -42 3212 1129 5 MP
DP
gs 655 283 3912 3083 rc
gr

c9
3170 1269 mt 3234 1269 L
3202 1237 mt 3202 1301 L
gs 655 283 3912 3083 rc
gr

3162 1922 mt 3226 1922 L
3194 1890 mt 3194 1954 L
gs 655 283 3912 3083 rc
gr

3153 1110 mt 3217 1110 L
3185 1078 mt 3185 1142 L
gs 655 283 3912 3083 rc
gr

3150  914 mt 3214  914 L
3182  882 mt 3182  946 L
gs 655 283 3912 3083 rc
gr

32 42 -32 42 -32 -42 32 -42 3155 1926 5 MP
c8
DP
gs 655 283 3912 3083 rc
gr

32 42 -32 42 -32 -42 32 -42 3136 1937 5 MP
DP
gs 655 283 3912 3083 rc
gr

c9
3101 1901 mt 3165 1901 L
3133 1869 mt 3133 1933 L
gs 655 283 3912 3083 rc
gr

3092 1882 mt 3156 1882 L
3124 1850 mt 3124 1914 L
gs 655 283 3912 3083 rc
gr

32 42 -32 42 -32 -42 32 -42 3087 1888 5 MP
c8
DP
gs 655 283 3912 3083 rc
gr

c9
3023 1843 mt 3087 1843 L
3055 1811 mt 3055 1875 L
gs 655 283 3912 3083 rc
gr

32 42 -32 42 -32 -42 32 -42 3018 1850 5 MP
c8
DP
gs 655 283 3912 3083 rc
gr

c9
2959 1804 mt 3023 1804 L
2991 1772 mt 2991 1836 L
gs 655 283 3912 3083 rc
gr

2846 1975 mt 2910 1975 L
2878 1943 mt 2878 2007 L
gs 655 283 3912 3083 rc
gr

32 42 -32 42 -32 -42 32 -42 2876 966 5 MP
c8
DP
gs 655 283 3912 3083 rc
gr

32 42 -32 42 -32 -42 32 -42 2873 2011 5 MP
DP
gs 655 283 3912 3083 rc
gr

c9
2838  938 mt 2902  938 L
2870  906 mt 2870  970 L
gs 655 283 3912 3083 rc
gr

32 42 -32 42 -32 -42 32 -42 2826 1877 5 MP
c8
DP
gs 655 283 3912 3083 rc
gr

c9
2779 1824 mt 2843 1824 L
2811 1792 mt 2811 1856 L
gs 655 283 3912 3083 rc
gr

2589 2047 mt 2653 2047 L
2621 2015 mt 2621 2079 L
gs 655 283 3912 3083 rc
gr

32 42 -32 42 -32 -42 32 -42 2613 2085 5 MP
c8
DP
gs 655 283 3912 3083 rc
gr

32 42 -32 42 -32 -42 32 -42 2586 1944 5 MP
DP
gs 655 283 3912 3083 rc
gr

c9
2544 1891 mt 2608 1891 L
2576 1859 mt 2576 1923 L
gs 655 283 3912 3083 rc
gr

2324 2121 mt 2388 2121 L
2356 2089 mt 2356 2153 L
gs 655 283 3912 3083 rc
gr

32 42 -32 42 -32 -42 32 -42 2347 2012 5 MP
c8
DP
gs 655 283 3912 3083 rc
gr

c9
2310 1957 mt 2374 1957 L
2342 1925 mt 2342 1989 L
gs 655 283 3912 3083 rc
gr

32 42 -32 42 -32 -42 32 -42 2339 2162 5 MP
c8
DP
gs 655 283 3912 3083 rc
gr

c9
2216 2089 mt 2280 2089 L
2248 2057 mt 2248 2121 L
gs 655 283 3912 3083 rc
gr

2206 2764 mt 2270 2764 L
2238 2732 mt 2238 2796 L
gs 655 283 3912 3083 rc
gr

32 42 -32 42 -32 -42 32 -42 2222 2135 5 MP
c8
DP
gs 655 283 3912 3083 rc
gr

32 42 -32 42 -32 -42 32 -42 2199 2812 5 MP
DP
gs 655 283 3912 3083 rc
gr

c9
2143 2739 mt 2207 2739 L
2175 2707 mt 2175 2771 L
gs 655 283 3912 3083 rc
gr

2138 2047 mt 2202 2047 L
2170 2015 mt 2170 2079 L
gs 655 283 3912 3083 rc
gr

32 42 -32 42 -32 -42 32 -42 2147 2094 5 MP
c8
DP
gs 655 283 3912 3083 rc
gr

32 42 -32 42 -32 -42 32 -42 2137 2783 5 MP
DP
gs 655 283 3912 3083 rc
gr

c9
2079 2022 mt 2143 2022 L
2111 1990 mt 2111 2054 L
gs 655 283 3912 3083 rc
gr

32 42 -32 42 -32 -42 32 -42 2107 2080 5 MP
c8
DP
gs 655 283 3912 3083 rc
gr

c9
2070 2701 mt 2134 2701 L
2102 2669 mt 2102 2733 L
gs 655 283 3912 3083 rc
gr

2060 2002 mt 2124 2002 L
2092 1970 mt 2092 2034 L
gs 655 283 3912 3083 rc
gr

32 42 -32 42 -32 -42 32 -42 2069 2745 5 MP
c8
DP
gs 655 283 3912 3083 rc
gr

32 42 -32 42 -32 -42 32 -42 2068 2050 5 MP
DP
gs 655 283 3912 3083 rc
gr

c9
2011 1999 mt 2075 1999 L
2043 1967 mt 2043 2031 L
gs 655 283 3912 3083 rc
gr

32 42 -32 42 -32 -42 32 -42 2033 2046 5 MP
c8
DP
gs 655 283 3912 3083 rc
gr

c9
1996 2664 mt 2060 2664 L
2028 2632 mt 2028 2696 L
gs 655 283 3912 3083 rc
gr

1978 1959 mt 2042 1959 L
2010 1927 mt 2010 1991 L
gs 655 283 3912 3083 rc
gr

32 42 -32 42 -32 -42 32 -42 2000 2707 5 MP
c8
DP
gs 655 283 3912 3083 rc
gr

32 42 -32 42 -32 -42 32 -42 1990 2007 5 MP
DP
gs 655 283 3912 3083 rc
gr

c9
1940 1960 mt 2004 1960 L
1972 1928 mt 1972 1992 L
gs 655 283 3912 3083 rc
gr

32 42 -32 42 -32 -42 32 -42 1965 2008 5 MP
c8
DP
gs 655 283 3912 3083 rc
gr

c9
1923 2627 mt 1987 2627 L
1955 2595 mt 1955 2659 L
gs 655 283 3912 3083 rc
gr

32 42 -32 42 -32 -42 32 -42 1933 2115 5 MP
c8
DP
gs 655 283 3912 3083 rc
gr

32 42 -32 42 -32 -42 32 -42 1932 2669 5 MP
DP
gs 655 283 3912 3083 rc
gr

c9
1895 1913 mt 1959 1913 L
1927 1881 mt 1927 1945 L
gs 655 283 3912 3083 rc
gr

1887 2067 mt 1951 2067 L
1919 2035 mt 1919 2099 L
gs 655 283 3912 3083 rc
gr

32 42 -32 42 -32 -42 32 -42 1909 1961 5 MP
c8
DP
gs 655 283 3912 3083 rc
gr

c9
1866 1921 mt 1930 1921 L
1898 1889 mt 1898 1953 L
gs 655 283 3912 3083 rc
gr

32 42 -32 42 -32 -42 32 -42 1896 1970 5 MP
c8
DP
gs 655 283 3912 3083 rc
gr

c9
1849 2592 mt 1913 2592 L
1881 2560 mt 1881 2624 L
gs 655 283 3912 3083 rc
gr

32 42 -32 42 -32 -42 32 -42 1864 2631 5 MP
c8
DP
gs 655 283 3912 3083 rc
gr

c9
1812 1867 mt 1876 1867 L
1844 1835 mt 1844 1899 L
gs 655 283 3912 3083 rc
gr

32 42 -32 42 -32 -42 32 -42 1828 1916 5 MP
c8
DP
gs 655 283 3912 3083 rc
gr

c9
1774 2555 mt 1838 2555 L
1806 2523 mt 1806 2587 L
gs 655 283 3912 3083 rc
gr

32 42 -32 42 -32 -42 32 -42 1795 2593 5 MP
c8
DP
gs 655 283 3912 3083 rc
gr

c9
1729 1821 mt 1793 1821 L
1761 1789 mt 1761 1853 L
gs 655 283 3912 3083 rc
gr

32 42 -32 42 -32 -42 32 -42 1746 1871 5 MP
c8
DP
gs 655 283 3912 3083 rc
gr

c9
1704 2514 mt 1768 2514 L
1736 2482 mt 1736 2546 L
gs 655 283 3912 3083 rc
gr

32 42 -32 42 -32 -42 32 -42 1727 2555 5 MP
c8
DP
gs 655 283 3912 3083 rc
gr

c9
1691 1926 mt 1755 1926 L
1723 1894 mt 1723 1958 L
gs 655 283 3912 3083 rc
gr

32 42 -32 42 -32 -42 32 -42 1722 1980 5 MP
c8
DP
gs 655 283 3912 3083 rc
gr

32 42 -32 42 -32 -42 32 -42 1693 2182 5 MP
DP
gs 655 283 3912 3083 rc
gr

c9
1654 2133 mt 1718 2133 L
1686 2101 mt 1686 2165 L
gs 655 283 3912 3083 rc
gr

1640 2470 mt 1704 2470 L
1672 2438 mt 1672 2502 L
gs 655 283 3912 3083 rc
gr

1640 1773 mt 1704 1773 L
1672 1741 mt 1672 1805 L
gs 655 283 3912 3083 rc
gr

32 42 -32 42 -32 -42 32 -42 1662 1824 5 MP
c8
DP
gs 655 283 3912 3083 rc
gr

32 42 -32 42 -32 -42 32 -42 1652 2514 5 MP
DP
gs 655 283 3912 3083 rc
gr

c9
1567 2432 mt 1631 2432 L
1599 2400 mt 1599 2464 L
gs 655 283 3912 3083 rc
gr

1555 1730 mt 1619 1730 L
1587 1698 mt 1587 1762 L
gs 655 283 3912 3083 rc
gr

32 42 -32 42 -32 -42 32 -42 1584 2476 5 MP
c8
DP
gs 655 283 3912 3083 rc
gr

32 42 -32 42 -32 -42 32 -42 1578 1777 5 MP
DP
gs 655 283 3912 3083 rc
gr

c9
1497 2394 mt 1561 2394 L
1529 2362 mt 1529 2426 L
gs 655 283 3912 3083 rc
gr

32 42 -32 42 -32 -42 32 -42 1515 2438 5 MP
c8
DP
gs 655 283 3912 3083 rc
gr

c9
1465 1683 mt 1529 1683 L
1497 1651 mt 1497 1715 L
gs 655 283 3912 3083 rc
gr

32 42 -32 42 -32 -42 32 -42 1493 1730 5 MP
c8
DP
gs 655 283 3912 3083 rc
gr

c9
1454 1993 mt 1518 1993 L
1486 1961 mt 1486 2025 L
gs 655 283 3912 3083 rc
gr

32 42 -32 42 -32 -42 32 -42 1482 2048 5 MP
c8
DP
gs 655 283 3912 3083 rc
gr

c9
1430 2353 mt 1494 2353 L
1462 2321 mt 1462 2385 L
gs 655 283 3912 3083 rc
gr

1427 2197 mt 1491 2197 L
1459 2165 mt 1459 2229 L
gs 655 283 3912 3083 rc
gr

32 42 -32 42 -32 -42 32 -42 1454 2250 5 MP
c8
DP
gs 655 283 3912 3083 rc
gr

32 42 -32 42 -32 -42 32 -42 1447 2400 5 MP
DP
gs 655 283 3912 3083 rc
gr

0 sg
1343 3512 mt 
(Y) s
gs 655 283 3912 3083 rc
gr

32 42 -32 42 -32 -42 32 -42 1405 1681 5 MP
c8
DP
gs 655 283 3912 3083 rc
gr

c9
1367 1637 mt 1431 1637 L
1399 1605 mt 1399 1669 L
gs 655 283 3912 3083 rc
gr

1367 2310 mt 1431 2310 L
1399 2278 mt 1399 2342 L
gs 655 283 3912 3083 rc
gr

32 42 -32 42 -32 -42 32 -42 1379 1761 5 MP
c8
DP
gs 655 283 3912 3083 rc
gr

32 42 -32 42 -32 -42 32 -42 1379 1962 5 MP
DP
gs 655 283 3912 3083 rc
gr

32 42 -32 42 -32 -42 32 -42 1379 2362 5 MP
DP
gs 655 283 3912 3083 rc
gr

c9
1346 1725 mt 1410 1725 L
1378 1693 mt 1378 1757 L
gs 655 283 3912 3083 rc
gr

1341 1923 mt 1405 1923 L
1373 1891 mt 1373 1955 L
gs 655 283 3912 3083 rc
gr

1304 2267 mt 1368 2267 L
1336 2235 mt 1336 2299 L
gs 655 283 3912 3083 rc
gr

32 42 -32 42 -32 -42 32 -42 1310 2324 5 MP
c8
DP
gs 655 283 3912 3083 rc
gr

0 sg
 638 3408 mt 
( ) s
 358 1733 mt  -90 rotate
(Z) s
90 rotate
1 sg
0 378 1181 0 0 -378 3636 608 4 MP
PP
-1181 0 0 378 1181 0 0 -378 3636 608 5 MP stroke
4 w
DO
SO
6 w
0 sg
3636  230 mt 4817  230 L
3636  608 mt 4817  608 L
4817  608 mt 4817  230 L
3636  608 mt 3636  230 L
3636  608 mt 4817  608 L
3636  608 mt 3636  230 L
3636  230 mt 4817  230 L
3636  608 mt 4817  608 L
4817  608 mt 4817  230 L
3636  608 mt 3636  230 L
4109  377 mt 
(PTAM) s
gs 3636 230 1182 379 rc
gs 3817 261 147 147 rc
c9
3854  334 mt 3926  334 L
3890  298 mt 3890  370 L
gr

c9
gr

c9
0 sg
4109  546 mt 
(Ground truth) s
gs 3636 230 1182 379 rc
gs 3817 429 147 148 rc
36 47 -36 47 -36 -47 36 -47 3890 549 5 MP
c8
DP
gr

c8
gr

c8

end %%Color Dict

eplot
%%EndObject

epage
end

showpage

%%Trailer
%%EOF
