%!PS-Adobe-3.0 EPSF-3.0
%%Creator: MATLAB, The Mathworks, Inc. Version 7.10.0.499 (R2010a). Operating System: Microsoft Windows 7.
%%Title: C:\Users\Pinglin\Documents\Imperial College London\Publicatoin\MICCAI2011\EXP0\Procrustes_XYView.eps
%%CreationDate: 06/30/2011  00:17:35
%%DocumentNeededFonts: Helvetica
%%DocumentProcessColors: Cyan Magenta Yellow Black
%%LanguageLevel: 2
%%Pages: 1
%%BoundingBox:    87   262   507   578
%%EndComments

%%BeginProlog
% MathWorks dictionary
/MathWorks 160 dict begin
% definition operators
/bdef {bind def} bind def
/ldef {load def} bind def
/xdef {exch def} bdef
/xstore {exch store} bdef
% operator abbreviations
/c  /clip ldef
/cc /concat ldef
/cp /closepath ldef
/gr /grestore ldef
/gs /gsave ldef
/mt /moveto ldef
/np /newpath ldef
/cm /currentmatrix ldef
/sm /setmatrix ldef
/rm /rmoveto ldef
/rl /rlineto ldef
/s {show newpath} bdef
/sc {setcmykcolor} bdef
/sr /setrgbcolor ldef
/sg /setgray ldef
/w /setlinewidth ldef
/j /setlinejoin ldef
/cap /setlinecap ldef
/rc {rectclip} bdef
/rf {rectfill} bdef
% page state control
/pgsv () def
/bpage {/pgsv save def} bdef
/epage {pgsv restore} bdef
/bplot /gsave ldef
/eplot {stroke grestore} bdef
% orientation switch
/portraitMode 0 def /landscapeMode 1 def /rotateMode 2 def
% coordinate system mappings
/dpi2point 0 def
% font control
/FontSize 0 def
/FMS {/FontSize xstore findfont [FontSize 0 0 FontSize neg 0 0]
  makefont setfont} bdef
/ISOLatin1Encoding where {pop /WindowsLatin1Encoding 256 array bdef
ISOLatin1Encoding WindowsLatin1Encoding copy pop
/.notdef/.notdef/quotesinglbase/florin/quotedblbase/ellipsis/dagger
/daggerdbl/circumflex/perthousand/Scaron/guilsinglleft/OE/.notdef/.notdef
/.notdef/.notdef/quoteleft/quoteright/quotedblleft/quotedblright/bullet
/endash/emdash/tilde/trademark/scaron/guilsinglright/oe/.notdef/.notdef
/Ydieresis WindowsLatin1Encoding 128 32 getinterval astore pop}
{/WindowsLatin1Encoding StandardEncoding bdef} ifelse
/reencode {exch dup where {pop load} {pop StandardEncoding} ifelse
  exch dup 3 1 roll findfont dup length dict begin
  { 1 index /FID ne {def}{pop pop} ifelse } forall
  /Encoding exch def currentdict end definefont pop} bdef
/isroman {findfont /CharStrings get /Agrave known} bdef
/FMSR {3 1 roll 1 index dup isroman {reencode} {pop pop} ifelse
  exch FMS} bdef
/csm {1 dpi2point div -1 dpi2point div scale neg translate
 dup landscapeMode eq {pop -90 rotate}
  {rotateMode eq {90 rotate} if} ifelse} bdef
% line types: solid, dotted, dashed, dotdash
/SO { [] 0 setdash } bdef
/DO { [.5 dpi2point mul 4 dpi2point mul] 0 setdash } bdef
/DA { [6 dpi2point mul] 0 setdash } bdef
/DD { [.5 dpi2point mul 4 dpi2point mul 6 dpi2point mul 4
  dpi2point mul] 0 setdash } bdef
% macros for lines and objects
/L {lineto stroke} bdef
/MP {3 1 roll moveto 1 sub {rlineto} repeat} bdef
/AP {{rlineto} repeat} bdef
/PDlw -1 def
/W {/PDlw currentlinewidth def setlinewidth} def
/PP {closepath eofill} bdef
/DP {closepath stroke} bdef
/MR {4 -2 roll moveto dup  0 exch rlineto exch 0 rlineto
  neg 0 exch rlineto closepath} bdef
/FR {MR stroke} bdef
/PR {MR fill} bdef
/L1i {{currentfile picstr readhexstring pop} image} bdef
/tMatrix matrix def
/MakeOval {newpath tMatrix currentmatrix pop translate scale
0 0 1 0 360 arc tMatrix setmatrix} bdef
/FO {MakeOval stroke} bdef
/PO {MakeOval fill} bdef
/PD {currentlinewidth 2 div 0 360 arc fill
   PDlw -1 eq not {PDlw w /PDlw -1 def} if} def
/FA {newpath tMatrix currentmatrix pop translate scale
  0 0 1 5 -2 roll arc tMatrix setmatrix stroke} bdef
/PA {newpath tMatrix currentmatrix pop	translate 0 0 moveto scale
  0 0 1 5 -2 roll arc closepath tMatrix setmatrix fill} bdef
/FAn {newpath tMatrix currentmatrix pop translate scale
  0 0 1 5 -2 roll arcn tMatrix setmatrix stroke} bdef
/PAn {newpath tMatrix currentmatrix pop translate 0 0 moveto scale
  0 0 1 5 -2 roll arcn closepath tMatrix setmatrix fill} bdef
/vradius 0 def /hradius 0 def /lry 0 def
/lrx 0 def /uly 0 def /ulx 0 def /rad 0 def
/MRR {/vradius xdef /hradius xdef /lry xdef /lrx xdef /uly xdef
  /ulx xdef newpath tMatrix currentmatrix pop ulx hradius add uly
  vradius add translate hradius vradius scale 0 0 1 180 270 arc 
  tMatrix setmatrix lrx hradius sub uly vradius add translate
  hradius vradius scale 0 0 1 270 360 arc tMatrix setmatrix
  lrx hradius sub lry vradius sub translate hradius vradius scale
  0 0 1 0 90 arc tMatrix setmatrix ulx hradius add lry vradius sub
  translate hradius vradius scale 0 0 1 90 180 arc tMatrix setmatrix
  closepath} bdef
/FRR {MRR stroke } bdef
/PRR {MRR fill } bdef
/MlrRR {/lry xdef /lrx xdef /uly xdef /ulx xdef /rad lry uly sub 2 div def
  newpath tMatrix currentmatrix pop ulx rad add uly rad add translate
  rad rad scale 0 0 1 90 270 arc tMatrix setmatrix lrx rad sub lry rad
  sub translate rad rad scale 0 0 1 270 90 arc tMatrix setmatrix
  closepath} bdef
/FlrRR {MlrRR stroke } bdef
/PlrRR {MlrRR fill } bdef
/MtbRR {/lry xdef /lrx xdef /uly xdef /ulx xdef /rad lrx ulx sub 2 div def
  newpath tMatrix currentmatrix pop ulx rad add uly rad add translate
  rad rad scale 0 0 1 180 360 arc tMatrix setmatrix lrx rad sub lry rad
  sub translate rad rad scale 0 0 1 0 180 arc tMatrix setmatrix
  closepath} bdef
/FtbRR {MtbRR stroke } bdef
/PtbRR {MtbRR fill } bdef
/stri 6 array def /dtri 6 array def
/smat 6 array def /dmat 6 array def
/tmat1 6 array def /tmat2 6 array def /dif 3 array def
/asub {/ind2 exch def /ind1 exch def dup dup
  ind1 get exch ind2 get sub exch } bdef
/tri_to_matrix {
  2 0 asub 3 1 asub 4 0 asub 5 1 asub
  dup 0 get exch 1 get 7 -1 roll astore } bdef
/compute_transform {
  dmat dtri tri_to_matrix tmat1 invertmatrix 
  smat stri tri_to_matrix tmat2 concatmatrix } bdef
/ds {stri astore pop} bdef
/dt {dtri astore pop} bdef
/db {2 copy /cols xdef /rows xdef mul dup 3 mul string
  currentfile 
  3 index 0 eq {/ASCIIHexDecode filter}
  {/ASCII85Decode filter 3 index 2 eq {/RunLengthDecode filter} if }
  ifelse exch readstring pop
  dup 0 3 index getinterval /rbmap xdef
  dup 2 index dup getinterval /gbmap xdef
  1 index dup 2 mul exch getinterval /bbmap xdef pop pop}bdef
/it {gs np dtri aload pop moveto lineto lineto cp c
  cols rows 8 compute_transform 
  rbmap gbmap bbmap true 3 colorimage gr}bdef
/il {newpath moveto lineto stroke}bdef
currentdict end def
%%EndProlog

%%BeginSetup
MathWorks begin

0 cap

end
%%EndSetup

%%Page: 1 1
%%BeginPageSetup
%%PageBoundingBox:    87   262   507   578
MathWorks begin
bpage
%%EndPageSetup

%%BeginObject: obj1
bplot

/dpi2point 12 def
portraitMode 1044 6936 csm

    0     0  5045  3782 rc
85 dict begin %Colortable dictionary
/c0 { 0.000000 0.000000 0.000000 sr} bdef
/c1 { 1.000000 1.000000 1.000000 sr} bdef
/c2 { 0.900000 0.000000 0.000000 sr} bdef
/c3 { 0.000000 0.820000 0.000000 sr} bdef
/c4 { 0.000000 0.000000 0.800000 sr} bdef
/c5 { 0.910000 0.820000 0.320000 sr} bdef
/c6 { 1.000000 0.260000 0.820000 sr} bdef
/c7 { 0.000000 0.820000 0.820000 sr} bdef
c0
1 j
1 sg
   0    0 5046 3783 rf
6 w
0 3083 3910 0 0 -3083 656 3366 4 MP
PP
-3910 0 0 3083 3910 0 0 -3083 656 3366 5 MP stroke
4 w
DO
0 sg
 656 3366 mt  656  284 L
 656  284 mt  656  284 L
1144 3366 mt 1144  284 L
1144  284 mt 1144  284 L
1633 3366 mt 1633  284 L
1633  284 mt 1633  284 L
2122 3366 mt 2122  284 L
2122  284 mt 2122  284 L
2611 3366 mt 2611  284 L
2611  284 mt 2611  284 L
3099 3366 mt 3099  284 L
3099  284 mt 3099  284 L
3588 3366 mt 3588  284 L
3588  284 mt 3588  284 L
4077 3366 mt 4077  284 L
4077  284 mt 4077  284 L
4566 3366 mt 4566  284 L
4566  284 mt 4566  284 L
 656 3366 mt 4566 3366 L
4566 3366 mt 4566 3366 L
 656 2980 mt 4566 2980 L
4566 2980 mt 4566 2980 L
 656 2595 mt 4566 2595 L
4566 2595 mt 4566 2595 L
 656 2210 mt 4566 2210 L
4566 2210 mt 4566 2210 L
 656 1825 mt 4566 1825 L
4566 1825 mt 4566 1825 L
 656 1439 mt 4566 1439 L
4566 1439 mt 4566 1439 L
 656 1054 mt 4566 1054 L
4566 1054 mt 4566 1054 L
 656  669 mt 4566  669 L
4566  669 mt 4566  669 L
 656  284 mt 4566  284 L
4566  284 mt 4566  284 L
SO
6 w
 656 3366 mt 4566 3366 L
 656 3366 mt  656  283 L
 656 3366 mt  656 3326 L
%%IncludeResource: font Helvetica
/Helvetica /WindowsLatin1Encoding 120 FMSR

 520 3511 mt 
(-30) s
1144 3366 mt 1144 3326 L
1008 3511 mt 
(-25) s
1633 3366 mt 1633 3326 L
1497 3511 mt 
(-20) s
2122 3366 mt 2122 3326 L
1986 3511 mt 
(-15) s
2611 3366 mt 2611 3326 L
2475 3511 mt 
(-10) s
3099 3366 mt 3099 3326 L
2996 3511 mt 
(-5) s
3588 3366 mt 3588 3326 L
3555 3511 mt 
(0) s
4077 3366 mt 4077 3326 L
4044 3511 mt 
(5) s
4566 3366 mt 4566 3326 L
4500 3511 mt 
(10) s
 656 3366 mt  695 3366 L
 418 3410 mt 
(-70) s
 656 2980 mt  695 2980 L
 418 3024 mt 
(-60) s
 656 2595 mt  695 2595 L
 418 2639 mt 
(-50) s
 656 2210 mt  695 2210 L
 418 2254 mt 
(-40) s
 656 1825 mt  695 1825 L
 418 1869 mt 
(-30) s
 656 1439 mt  695 1439 L
 418 1483 mt 
(-20) s
 656 1054 mt  695 1054 L
 418 1098 mt 
(-10) s
 656  669 mt  695  669 L
 555  713 mt 
(0) s
 656  284 mt  695  284 L
 488  328 mt 
(10) s
gs 656 284 3911 3083 rc
0 j
gs 928 2087 134 134 rc
/c8 { 0.000000 0.000000 1.000000 sr} bdef
c8
 963 2154 mt 1027 2154 L
 995 2122 mt  995 2186 L
gr

c8
gs 935 2253 134 135 rc
 969 2320 mt 1033 2320 L
1001 2288 mt 1001 2352 L
gr

gs 928 1920 134 134 rc
 962 1986 mt 1026 1986 L
 994 1954 mt  994 2018 L
gr

gs 941 2420 134 134 rc
 976 2487 mt 1040 2487 L
1008 2455 mt 1008 2519 L
gr

gs 931 1425 135 134 rc
 966 1491 mt 1030 1491 L
 998 1459 mt  998 1523 L
gr

gs 933 1589 135 135 rc
 968 1656 mt 1032 1656 L
1000 1624 mt 1000 1688 L
gr

gs 939 1755 134 134 rc
 973 1821 mt 1037 1821 L
1005 1789 mt 1005 1853 L
gr

gs 953 2750 135 135 rc
 988 2817 mt 1052 2817 L
1020 2785 mt 1020 2849 L
gr

gs 946 2586 135 134 rc
 981 2652 mt 1045 2652 L
1013 2620 mt 1013 2684 L
gr

gs 960 2915 135 134 rc
 995 2981 mt 1059 2981 L
1027 2949 mt 1027 3013 L
gr

gs 3779 1931 134 134 rc
3813 1998 mt 3877 1998 L
3845 1966 mt 3845 2030 L
gr

gs 3782 1762 134 134 rc
3816 1829 mt 3880 1829 L
3848 1797 mt 3848 1861 L
gr

gs 2318 725 135 134 rc
2353  792 mt 2417  792 L
2385  760 mt 2385  824 L
gr

gs 937 1260 134 134 rc
 971 1327 mt 1035 1327 L
1003 1295 mt 1003 1359 L
gr

gs 3781 1595 134 135 rc
3816 1662 mt 3880 1662 L
3848 1630 mt 3848 1694 L
gr

gs 2039 819 134 134 rc
2074  885 mt 2138  885 L
2106  853 mt 2106  917 L
gr

gs 2317 560 134 135 rc
2351  627 mt 2415  627 L
2383  595 mt 2383  659 L
gr

gs 977 3041 134 135 rc
1012 3108 mt 1076 3108 L
1044 3076 mt 1044 3140 L
gr

gs 3782 1430 134 134 rc
3816 1497 mt 3880 1497 L
3848 1465 mt 3848 1529 L
gr

gs 1637 822 134 135 rc
1672  889 mt 1736  889 L
1704  857 mt 1704  921 L
gr

gs 3779 2100 135 134 rc
3814 2167 mt 3878 2167 L
3846 2135 mt 3846 2199 L
gr

gs 2309 395 135 135 rc
2344  462 mt 2408  462 L
2376  430 mt 2376  494 L
gr

gs 947 1095 135 134 rc
 982 1162 mt 1046 1162 L
1014 1130 mt 1014 1194 L
gr

gs 3781 1265 134 134 rc
3816 1332 mt 3880 1332 L
3848 1300 mt 3848 1364 L
gr

gs 2342 855 135 134 rc
2377  922 mt 2441  922 L
2409  890 mt 2409  954 L
gr

gs 3780 2266 134 134 rc
3815 2333 mt 3879 2333 L
3847 2301 mt 3847 2365 L
gr

gs 2739 854 134 134 rc
2774  920 mt 2838  920 L
2806  888 mt 2806  952 L
gr

gs 3780 1102 134 134 rc
3815 1168 mt 3879 1168 L
3847 1136 mt 3847 1200 L
gr

gr

c8
gs 2097 275 135 134 rc
2132  342 mt 2196  342 L
2164  310 mt 2164  374 L
gr

gs 656 284 3911 3083 rc
0 j
gs 3138 855 134 134 rc
3172  922 mt 3236  922 L
3204  890 mt 3204  954 L
gr

gs 1245 827 134 134 rc
1280  893 mt 1344  893 L
1312  861 mt 1312  925 L
gr

gs 3787 2596 135 134 rc
3822 2663 mt 3886 2663 L
3854 2631 mt 3854 2695 L
gr

gs 3783 2431 135 134 rc
3818 2497 mt 3882 2497 L
3850 2465 mt 3850 2529 L
gr

gs 3786 942 135 134 rc
3821 1008 mt 3885 1008 L
3853  976 mt 3853 1040 L
gr

gr

gs 1690 277 134 134 rc
1725  344 mt 1789  344 L
1757  312 mt 1757  376 L
gr

gs 656 284 3911 3083 rc
0 j
gs 3539 857 134 134 rc
3573  924 mt 3637  924 L
3605  892 mt 3605  956 L
gr

gs 959 930 134 134 rc
 994  997 mt 1058  997 L
1026  965 mt 1026 1029 L
gr

gs 3796 2760 135 135 rc
3831 2827 mt 3895 2827 L
3863 2795 mt 3863 2859 L
gr

gr

gs 1493 281 135 135 rc
1528  348 mt 1592  348 L
1560  316 mt 1560  380 L
gr

gs 656 284 3911 3083 rc
0 j
gs 1497 287 135 134 rc
1532  354 mt 1596  354 L
1564  322 mt 1564  386 L
gr

gs 4341 1280 135 134 rc
4376 1347 mt 4440 1347 L
4408 1315 mt 4408 1379 L
gr

gs 4332 1092 134 134 rc
4367 1159 mt 4431 1159 L
4399 1127 mt 4399 1191 L
gr

gs 4249 1463 134 134 rc
4283 1529 mt 4347 1529 L
4315 1497 mt 4315 1561 L
gr

gs 4327 905 134 134 rc
4362  972 mt 4426  972 L
4394  940 mt 4394 1004 L
gr

gs 4315 712 134 134 rc
4349  778 mt 4413  778 L
4381  746 mt 4381  810 L
gr

gs 2063 2448 134 134 rc
2097 2514 mt 2161 2514 L
2129 2482 mt 2129 2546 L
gr

gs 2502 2449 135 135 rc
2537 2516 mt 2601 2516 L
2569 2484 mt 2569 2548 L
gr

gs 1550 2088 135 135 rc
1585 2155 mt 1649 2155 L
1617 2123 mt 1617 2187 L
gr

gs 1535 730 134 134 rc
1570  796 mt 1634  796 L
1602  764 mt 1602  828 L
gr

gs 1608 2447 135 135 rc
1643 2514 mt 1707 2514 L
1675 2482 mt 1675 2546 L
gr

gs 1553 2270 134 134 rc
1587 2336 mt 1651 2336 L
1619 2304 mt 1619 2368 L
gr

gs 2941 2446 134 135 rc
2976 2513 mt 3040 2513 L
3008 2481 mt 3008 2545 L
gr

gs 1552 1902 134 134 rc
1586 1969 mt 1650 1969 L
1618 1937 mt 1618 2001 L
gr

gs 3381 2445 134 135 rc
3415 2512 mt 3479 2512 L
3447 2480 mt 3447 2544 L
gr

gs 1547 1713 134 134 rc
1582 1779 mt 1646 1779 L
1614 1747 mt 1614 1811 L
gr

gs 1528 527 134 134 rc
1562  594 mt 1626  594 L
1594  562 mt 1594  626 L
gr

gs 1547 1518 135 134 rc
1582 1585 mt 1646 1585 L
1614 1553 mt 1614 1617 L
gr

gs 1545 1323 135 134 rc
1580 1390 mt 1644 1390 L
1612 1358 mt 1612 1422 L
gr

gs 3820 2446 135 134 rc
3855 2512 mt 3919 2512 L
3887 2480 mt 3887 2544 L
gr

gs 1545 1127 135 135 rc
1580 1194 mt 1644 1194 L
1612 1162 mt 1612 1226 L
gr

gs 1509 320 134 135 rc
1543  387 mt 1607  387 L
1575  355 mt 1575  419 L
gr

gs 4220 1665 134 135 rc
4255 1732 mt 4319 1732 L
4287 1700 mt 4287 1764 L
gr

gs 4244 2389 134 135 rc
4279 2456 mt 4343 2456 L
4311 2424 mt 4311 2488 L
gr

gs 4237 2209 134 135 rc
4271 2276 mt 4335 2276 L
4303 2244 mt 4303 2308 L
gr

gs 4234 2029 135 135 rc
4269 2096 mt 4333 2096 L
4301 2064 mt 4301 2128 L
gr

gs 1539 925 134 135 rc
1574  992 mt 1638  992 L
1606  960 mt 1606 1024 L
gr

gs 4228 1850 134 135 rc
4263 1917 mt 4327 1917 L
4295 1885 mt 4295 1949 L
gr

gs 4312 674 135 135 rc
4347  741 mt 4411  741 L
4379  709 mt 4379  773 L
gr

gs 4302 681 135 135 rc
4337  748 mt 4401  748 L
4369  716 mt 4369  780 L
gr

gs 915 1916 135 135 rc
32 42 -32 42 -32 -42 32 -42 982 2025 5 MP
/c9 { 1.000000 0.000000 0.000000 sr} bdef
c9
DP
gr

c9
gs 915 2078 135 134 rc
32 42 -32 42 -32 -42 32 -42 982 2187 5 MP
DP
gr

gs 915 2240 135 134 rc
32 42 -32 42 -32 -42 32 -42 982 2349 5 MP
DP
gr

gs 915 2402 135 134 rc
32 42 -32 42 -32 -42 32 -42 982 2510 5 MP
DP
gr

gs 915 2563 135 135 rc
32 42 -32 42 -32 -42 32 -42 982 2672 5 MP
DP
gr

gs 915 2725 135 135 rc
32 42 -32 42 -32 -42 32 -42 982 2834 5 MP
DP
gr

gs 915 2887 135 135 rc
32 42 -32 42 -32 -42 32 -42 982 2996 5 MP
DP
gr

gs 926 3018 134 134 rc
32 42 -32 42 -32 -42 32 -42 993 3127 5 MP
DP
gr

gs 913 1419 134 134 rc
32 42 -32 42 -32 -42 32 -42 980 1527 5 MP
DP
gr

gs 913 1580 134 135 rc
32 42 -32 42 -32 -42 32 -42 980 1689 5 MP
DP
gr

gs 913 1742 134 135 rc
32 42 -32 42 -32 -42 32 -42 980 1851 5 MP
DP
gr

gs 2314 883 135 134 rc
32 42 -32 42 -32 -42 32 -42 2381 992 5 MP
DP
gr

gs 2725 883 134 134 rc
32 42 -32 42 -32 -42 32 -42 2792 992 5 MP
DP
gr

gs 3136 883 134 134 rc
32 42 -32 42 -32 -42 32 -42 3202 992 5 MP
DP
gr

gs 3546 883 135 134 rc
32 42 -32 42 -32 -42 32 -42 3613 992 5 MP
DP
gr

gs 3820 960 134 134 rc
32 42 -32 42 -32 -42 32 -42 3886 1069 5 MP
DP
gr

gs 3820 1122 134 134 rc
32 42 -32 42 -32 -42 32 -42 3886 1231 5 MP
DP
gr

gs 3820 1284 134 134 rc
32 42 -32 42 -32 -42 32 -42 3886 1392 5 MP
DP
gr

gs 3820 1445 134 135 rc
32 42 -32 42 -32 -42 32 -42 3886 1554 5 MP
DP
gr

gs 3820 1607 134 135 rc
32 42 -32 42 -32 -42 32 -42 3886 1716 5 MP
DP
gr

gs 3820 1769 134 134 rc
32 42 -32 42 -32 -42 32 -42 3886 1878 5 MP
DP
gr

gs 3820 1931 134 134 rc
32 42 -32 42 -32 -42 32 -42 3886 2040 5 MP
DP
gr

gs 3820 2093 134 134 rc
32 42 -32 42 -32 -42 32 -42 3886 2201 5 MP
DP
gr

gs 3820 2254 134 135 rc
32 42 -32 42 -32 -42 32 -42 3886 2363 5 MP
DP
gr

gs 3820 2416 134 135 rc
32 42 -32 42 -32 -42 32 -42 3886 2525 5 MP
DP
gr

gs 3820 2578 134 135 rc
32 42 -32 42 -32 -42 32 -42 3886 2687 5 MP
DP
gr

gs 3820 2740 134 134 rc
32 42 -32 42 -32 -42 32 -42 3886 2849 5 MP
DP
gr

gr

c9
0 sg
 639 3409 mt 
( ) s
4550  326 mt 
( ) s
gs 656 284 3911 3083 rc
0 j
gs 2301 402 135 135 rc
32 42 -32 42 -32 -42 32 -42 2368 511 5 MP
c9
DP
gr

c9
gs 2301 564 135 135 rc
32 42 -32 42 -32 -42 32 -42 2368 673 5 MP
DP
gr

gs 2301 726 135 134 rc
32 42 -32 42 -32 -42 32 -42 2368 835 5 MP
DP
gr

gs 2047 841 134 134 rc
32 42 -32 42 -32 -42 32 -42 2114 949 5 MP
DP
gr

gs 1636 841 135 134 rc
32 42 -32 42 -32 -42 32 -42 1703 949 5 MP
DP
gr

gs 1226 841 134 134 rc
32 42 -32 42 -32 -42 32 -42 1292 949 5 MP
DP
gr

gs 913 933 134 135 rc
32 42 -32 42 -32 -42 32 -42 980 1042 5 MP
DP
gr

gs 913 1095 134 134 rc
32 42 -32 42 -32 -42 32 -42 980 1204 5 MP
DP
gr

gs 913 1257 134 134 rc
32 42 -32 42 -32 -42 32 -42 980 1366 5 MP
DP
gr

gs 1670 294 134 135 rc
32 42 -32 42 -32 -42 32 -42 1737 403 5 MP
DP
gr

gs 2081 294 134 135 rc
32 42 -32 42 -32 -42 32 -42 2147 403 5 MP
DP
gr

gs 1494 294 134 135 rc
32 42 -32 42 -32 -42 32 -42 1561 403 5 MP
DP
gr

gs 1494 294 134 135 rc
32 42 -32 42 -32 -42 32 -42 1561 403 5 MP
DP
gr

gs 4263 1446 135 134 rc
32 42 -32 42 -32 -42 32 -42 4330 1555 5 MP
DP
gr

gs 4357 706 135 135 rc
32 42 -32 42 -32 -42 32 -42 4424 815 5 MP
DP
gr

gs 4357 899 135 134 rc
32 42 -32 42 -32 -42 32 -42 4424 1008 5 MP
DP
gr

gs 4357 1084 135 134 rc
32 42 -32 42 -32 -42 32 -42 4424 1193 5 MP
DP
gr

gs 4357 1269 135 134 rc
32 42 -32 42 -32 -42 32 -42 4424 1377 5 MP
DP
gr

gs 1510 741 135 135 rc
32 42 -32 42 -32 -42 32 -42 1577 850 5 MP
DP
gr

gs 1510 541 135 135 rc
32 42 -32 42 -32 -42 32 -42 1577 650 5 MP
DP
gr

gs 1510 333 135 135 rc
32 42 -32 42 -32 -42 32 -42 1577 442 5 MP
DP
gr

gs 4263 1658 134 134 rc
32 42 -32 42 -32 -42 32 -42 4329 1766 5 MP
DP
gr

gs 4263 1842 134 135 rc
32 42 -32 42 -32 -42 32 -42 4329 1951 5 MP
DP
gr

gs 4263 2020 134 134 rc
32 42 -32 42 -32 -42 32 -42 4329 2128 5 MP
DP
gr

gs 4263 2197 134 134 rc
32 42 -32 42 -32 -42 32 -42 4329 2306 5 MP
DP
gr

gs 4263 2374 134 135 rc
32 42 -32 42 -32 -42 32 -42 4329 2483 5 MP
DP
gr

gs 3852 2436 134 134 rc
32 42 -32 42 -32 -42 32 -42 3919 2545 5 MP
DP
gr

gs 3402 2436 135 134 rc
32 42 -32 42 -32 -42 32 -42 3469 2545 5 MP
DP
gr

gs 2953 2436 134 134 rc
32 42 -32 42 -32 -42 32 -42 3019 2545 5 MP
DP
gr

gs 2503 2436 134 134 rc
32 42 -32 42 -32 -42 32 -42 2570 2545 5 MP
DP
gr

gs 2057 2436 134 134 rc
32 42 -32 42 -32 -42 32 -42 2123 2544 5 MP
DP
gr

gs 1588 2436 134 134 rc
32 42 -32 42 -32 -42 32 -42 1654 2544 5 MP
DP
gr

gs 1509 2266 135 134 rc
32 42 -32 42 -32 -42 32 -42 1576 2375 5 MP
DP
gr

gs 1509 2089 135 134 rc
32 42 -32 42 -32 -42 32 -42 1576 2198 5 MP
DP
gr

gs 1509 1904 135 134 rc
32 42 -32 42 -32 -42 32 -42 1576 2013 5 MP
DP
gr

gs 1509 1719 135 134 rc
32 42 -32 42 -32 -42 32 -42 1576 1828 5 MP
DP
gr

gs 1509 1526 135 135 rc
32 42 -32 42 -32 -42 32 -42 1576 1635 5 MP
DP
gr

gs 1509 1334 135 134 rc
32 42 -32 42 -32 -42 32 -42 1576 1442 5 MP
DP
gr

gs 1509 1141 135 135 rc
32 42 -32 42 -32 -42 32 -42 1576 1250 5 MP
DP
gr

gs 1509 941 135 134 rc
32 42 -32 42 -32 -42 32 -42 1576 1049 5 MP
DP
gr

gs 4357 675 135 135 rc
32 42 -32 42 -32 -42 32 -42 4424 784 5 MP
DP
gr

gs 4357 675 135 135 rc
32 42 -32 42 -32 -42 32 -42 4424 784 5 MP
DP
gr

gs 3766 683 135 135 rc
c8
3801  750 mt 3865  750 L
3833  718 mt 3833  782 L
gr

c8
gs 3782 675 134 135 rc
32 42 -32 42 -32 -42 32 -42 3849 784 5 MP
c9
DP
gr

c9
gr

c9
0 sg
2570 3654 mt 
(X) s
 336 1866 mt  -90 rotate
(Y) s
90 rotate
1 sg
0 378 1181 0 0 -378 2041 3273 4 MP
PP
-1181 0 0 378 1181 0 0 -378 2041 3273 5 MP stroke
4 w
DO
SO
6 w
0 sg
2041 2895 mt 3222 2895 L
2041 3273 mt 3222 3273 L
3222 3273 mt 3222 2895 L
2041 3273 mt 2041 2895 L
2041 3273 mt 3222 3273 L
2041 3273 mt 2041 2895 L
2041 2895 mt 3222 2895 L
2041 3273 mt 3222 3273 L
3222 3273 mt 3222 2895 L
2041 3273 mt 2041 2895 L
2514 3042 mt 
(PTAM) s
gs 2041 2895 1182 379 rc
0 j
gs 2222 2927 147 147 rc
c8
2259 3000 mt 2331 3000 L
2295 2964 mt 2295 3036 L
gr

c8
gr

c8
0 sg
2514 3211 mt 
(Ground truth) s
gs 2041 2895 1182 379 rc
0 j
gs 2222 3095 147 147 rc
36 47 -36 47 -36 -47 36 -47 2295 3215 5 MP
c9
DP
gr

c9
gr

c9

end %%Color Dict

eplot
%%EndObject

epage
end

showpage

%%Trailer
%%EOF
