%!PS-Adobe-3.0 EPSF-3.0
%%Creator: MATLAB, The Mathworks, Inc. Version 7.10.0.499 (R2010a). Operating System: Microsoft Windows 7.
%%Title: C:\Users\Pinglin\Documents\Imperial College London\Publication\MICCAI\2012\exp results\trajectory\trajectory_result.eps
%%CreationDate: 03/01/2012  19:02:44
%%DocumentNeededFonts: Helvetica
%%DocumentProcessColors: Cyan Magenta Yellow Black
%%LanguageLevel: 2
%%Pages: 1
%%BoundingBox:    87   262   507   578
%%EndComments

%%BeginProlog
% MathWorks dictionary
/MathWorks 160 dict begin
% definition operators
/bdef {bind def} bind def
/ldef {load def} bind def
/xdef {exch def} bdef
/xstore {exch store} bdef
% operator abbreviations
/c  /clip ldef
/cc /concat ldef
/cp /closepath ldef
/gr /grestore ldef
/gs /gsave ldef
/mt /moveto ldef
/np /newpath ldef
/cm /currentmatrix ldef
/sm /setmatrix ldef
/rm /rmoveto ldef
/rl /rlineto ldef
/s {show newpath} bdef
/sc {setcmykcolor} bdef
/sr /setrgbcolor ldef
/sg /setgray ldef
/w /setlinewidth ldef
/j /setlinejoin ldef
/cap /setlinecap ldef
/rc {rectclip} bdef
/rf {rectfill} bdef
% page state control
/pgsv () def
/bpage {/pgsv save def} bdef
/epage {pgsv restore} bdef
/bplot /gsave ldef
/eplot {stroke grestore} bdef
% orientation switch
/portraitMode 0 def /landscapeMode 1 def /rotateMode 2 def
% coordinate system mappings
/dpi2point 0 def
% font control
/FontSize 0 def
/FMS {/FontSize xstore findfont [FontSize 0 0 FontSize neg 0 0]
  makefont setfont} bdef
/ISOLatin1Encoding where {pop /WindowsLatin1Encoding 256 array bdef
ISOLatin1Encoding WindowsLatin1Encoding copy pop
/.notdef/.notdef/quotesinglbase/florin/quotedblbase/ellipsis/dagger
/daggerdbl/circumflex/perthousand/Scaron/guilsinglleft/OE/.notdef/.notdef
/.notdef/.notdef/quoteleft/quoteright/quotedblleft/quotedblright/bullet
/endash/emdash/tilde/trademark/scaron/guilsinglright/oe/.notdef/.notdef
/Ydieresis WindowsLatin1Encoding 128 32 getinterval astore pop}
{/WindowsLatin1Encoding StandardEncoding bdef} ifelse
/reencode {exch dup where {pop load} {pop StandardEncoding} ifelse
  exch dup 3 1 roll findfont dup length dict begin
  { 1 index /FID ne {def}{pop pop} ifelse } forall
  /Encoding exch def currentdict end definefont pop} bdef
/isroman {findfont /CharStrings get /Agrave known} bdef
/FMSR {3 1 roll 1 index dup isroman {reencode} {pop pop} ifelse
  exch FMS} bdef
/csm {1 dpi2point div -1 dpi2point div scale neg translate
 dup landscapeMode eq {pop -90 rotate}
  {rotateMode eq {90 rotate} if} ifelse} bdef
% line types: solid, dotted, dashed, dotdash
/SO { [] 0 setdash } bdef
/DO { [.5 dpi2point mul 4 dpi2point mul] 0 setdash } bdef
/DA { [6 dpi2point mul] 0 setdash } bdef
/DD { [.5 dpi2point mul 4 dpi2point mul 6 dpi2point mul 4
  dpi2point mul] 0 setdash } bdef
% macros for lines and objects
/L {lineto stroke} bdef
/MP {3 1 roll moveto 1 sub {rlineto} repeat} bdef
/AP {{rlineto} repeat} bdef
/PDlw -1 def
/W {/PDlw currentlinewidth def setlinewidth} def
/PP {closepath eofill} bdef
/DP {closepath stroke} bdef
/MR {4 -2 roll moveto dup  0 exch rlineto exch 0 rlineto
  neg 0 exch rlineto closepath} bdef
/FR {MR stroke} bdef
/PR {MR fill} bdef
/L1i {{currentfile picstr readhexstring pop} image} bdef
/tMatrix matrix def
/MakeOval {newpath tMatrix currentmatrix pop translate scale
0 0 1 0 360 arc tMatrix setmatrix} bdef
/FO {MakeOval stroke} bdef
/PO {MakeOval fill} bdef
/PD {currentlinewidth 2 div 0 360 arc fill
   PDlw -1 eq not {PDlw w /PDlw -1 def} if} def
/FA {newpath tMatrix currentmatrix pop translate scale
  0 0 1 5 -2 roll arc tMatrix setmatrix stroke} bdef
/PA {newpath tMatrix currentmatrix pop	translate 0 0 moveto scale
  0 0 1 5 -2 roll arc closepath tMatrix setmatrix fill} bdef
/FAn {newpath tMatrix currentmatrix pop translate scale
  0 0 1 5 -2 roll arcn tMatrix setmatrix stroke} bdef
/PAn {newpath tMatrix currentmatrix pop translate 0 0 moveto scale
  0 0 1 5 -2 roll arcn closepath tMatrix setmatrix fill} bdef
/vradius 0 def /hradius 0 def /lry 0 def
/lrx 0 def /uly 0 def /ulx 0 def /rad 0 def
/MRR {/vradius xdef /hradius xdef /lry xdef /lrx xdef /uly xdef
  /ulx xdef newpath tMatrix currentmatrix pop ulx hradius add uly
  vradius add translate hradius vradius scale 0 0 1 180 270 arc 
  tMatrix setmatrix lrx hradius sub uly vradius add translate
  hradius vradius scale 0 0 1 270 360 arc tMatrix setmatrix
  lrx hradius sub lry vradius sub translate hradius vradius scale
  0 0 1 0 90 arc tMatrix setmatrix ulx hradius add lry vradius sub
  translate hradius vradius scale 0 0 1 90 180 arc tMatrix setmatrix
  closepath} bdef
/FRR {MRR stroke } bdef
/PRR {MRR fill } bdef
/MlrRR {/lry xdef /lrx xdef /uly xdef /ulx xdef /rad lry uly sub 2 div def
  newpath tMatrix currentmatrix pop ulx rad add uly rad add translate
  rad rad scale 0 0 1 90 270 arc tMatrix setmatrix lrx rad sub lry rad
  sub translate rad rad scale 0 0 1 270 90 arc tMatrix setmatrix
  closepath} bdef
/FlrRR {MlrRR stroke } bdef
/PlrRR {MlrRR fill } bdef
/MtbRR {/lry xdef /lrx xdef /uly xdef /ulx xdef /rad lrx ulx sub 2 div def
  newpath tMatrix currentmatrix pop ulx rad add uly rad add translate
  rad rad scale 0 0 1 180 360 arc tMatrix setmatrix lrx rad sub lry rad
  sub translate rad rad scale 0 0 1 0 180 arc tMatrix setmatrix
  closepath} bdef
/FtbRR {MtbRR stroke } bdef
/PtbRR {MtbRR fill } bdef
/stri 6 array def /dtri 6 array def
/smat 6 array def /dmat 6 array def
/tmat1 6 array def /tmat2 6 array def /dif 3 array def
/asub {/ind2 exch def /ind1 exch def dup dup
  ind1 get exch ind2 get sub exch } bdef
/tri_to_matrix {
  2 0 asub 3 1 asub 4 0 asub 5 1 asub
  dup 0 get exch 1 get 7 -1 roll astore } bdef
/compute_transform {
  dmat dtri tri_to_matrix tmat1 invertmatrix 
  smat stri tri_to_matrix tmat2 concatmatrix } bdef
/ds {stri astore pop} bdef
/dt {dtri astore pop} bdef
/db {2 copy /cols xdef /rows xdef mul dup 3 mul string
  currentfile 
  3 index 0 eq {/ASCIIHexDecode filter}
  {/ASCII85Decode filter 3 index 2 eq {/RunLengthDecode filter} if }
  ifelse exch readstring pop
  dup 0 3 index getinterval /rbmap xdef
  dup 2 index dup getinterval /gbmap xdef
  1 index dup 2 mul exch getinterval /bbmap xdef pop pop}bdef
/it {gs np dtri aload pop moveto lineto lineto cp c
  cols rows 8 compute_transform 
  rbmap gbmap bbmap true 3 colorimage gr}bdef
/il {newpath moveto lineto stroke}bdef
currentdict end def
%%EndProlog

%%BeginSetup
MathWorks begin

0 cap

end
%%EndSetup

%%Page: 1 1
%%BeginPageSetup
%%PageBoundingBox:    87   262   507   578
MathWorks begin
bpage
%%EndPageSetup

%%BeginObject: obj1
bplot

/dpi2point 12 def
portraitMode 1044 6936 csm

    0     0  5045  3782 rc
85 dict begin %Colortable dictionary
/c0 { 0.000000 0.000000 0.000000 sr} bdef
/c1 { 1.000000 1.000000 1.000000 sr} bdef
/c2 { 0.900000 0.000000 0.000000 sr} bdef
/c3 { 0.000000 0.820000 0.000000 sr} bdef
/c4 { 0.000000 0.000000 0.800000 sr} bdef
/c5 { 0.910000 0.820000 0.320000 sr} bdef
/c6 { 1.000000 0.260000 0.820000 sr} bdef
/c7 { 0.000000 0.820000 0.820000 sr} bdef
c0
1 j
1 sg
   0    0 5046 3783 rf
6 w
0 2484 -1413 -381 0 -2485 4566 3150 4 MP
PP
1413 382 0 2484 -1413 -381 0 -2485 4566 3150 5 MP stroke
1413 382 2497 -216 -1412 -382 2068 3366 4 MP
PP
-2498 216 1413 382 2497 -216 -1412 -382 2068 3366 5 MP stroke
0 2484 2497 -215 0 -2485 656 2984 4 MP
PP
-2497 216 0 2484 2497 -215 0 -2485 656 2984 5 MP stroke
4 w
DO
0 sg
2068 3366 mt  656 2984 L
 656 2984 mt  656  499 L
2693 3312 mt 1280 2930 L
1280 2930 mt 1280  445 L
3317 3258 mt 1904 2876 L
1904 2876 mt 1904  391 L
3941 3204 mt 2528 2822 L
2528 2822 mt 2528  337 L
4566 3150 mt 3153 2768 L
3153 2768 mt 3153  284 L
2068 3366 mt 4566 3150 L
4566 3150 mt 4566  665 L
1597 3238 mt 4095 3023 L
4095 3023 mt 4095  538 L
1126 3111 mt 3624 2896 L
3624 2896 mt 3624  411 L
 656 2984 mt 3153 2768 L
3153 2768 mt 3153  284 L
 656 2984 mt 3153 2768 L
3153 2768 mt 4566 3150 L
 656 2629 mt 3153 2413 L
3153 2413 mt 4566 2795 L
 656 2274 mt 3153 2058 L
3153 2058 mt 4566 2440 L
 656 1919 mt 3153 1703 L
3153 1703 mt 4566 2085 L
 656 1564 mt 3153 1348 L
3153 1348 mt 4566 1730 L
 656 1209 mt 3153  993 L
3153  993 mt 4566 1375 L
 656  854 mt 3153  638 L
3153  638 mt 4566 1020 L
 656  499 mt 3153  284 L
3153  284 mt 4566  665 L
SO
6 w
2068 3366 mt 4566 3150 L
2068 3366 mt  656 2984 L
 656 2984 mt  656  499 L
2068 3366 mt 2129 3382 L
%%IncludeResource: font Helvetica
/Helvetica /WindowsLatin1Encoding 120 FMSR

2162 3502 mt 
(-60) s
2693 3312 mt 2753 3328 L
2787 3448 mt 
(-40) s
3317 3258 mt 3377 3274 L
3411 3394 mt 
(-20) s
3941 3204 mt 4002 3220 L
4035 3340 mt 
(0) s
4566 3150 mt 4626 3166 L
4659 3286 mt 
(20) s
2068 3366 mt 2006 3371 L
1701 3485 mt 
(-120) s
1597 3238 mt 1535 3244 L
1231 3358 mt 
(-100) s
1126 3111 mt 1064 3117 L
 827 3231 mt 
(-80) s
 656 2984 mt  593 2990 L
 356 3104 mt 
(-60) s
 656 2984 mt  595 2968 L
 362 3003 mt 
(105) s
 656 2629 mt  595 2613 L
 362 2648 mt 
(110) s
 656 2274 mt  595 2258 L
 362 2293 mt 
(115) s
 656 1919 mt  595 1903 L
 362 1938 mt 
(120) s
 656 1564 mt  595 1548 L
 362 1583 mt 
(125) s
 656 1209 mt  595 1193 L
 362 1228 mt 
(130) s
 656  854 mt  595  838 L
 362  873 mt 
(135) s
 656  499 mt  595  483 L
 362  518 mt 
(140) s
4550  326 mt 
( ) s
3363 3598 mt 
(x-axis \(mm\)) s
gs 656 284 3911 3083 rc
/c8 { 1.000000 0.000000 0.000000 sr} bdef
c8
3120 2104 mt 3115 2112 L
3115 2112 mt 3108 2117 L
/c9 { 0.000000 0.000000 1.000000 sr} bdef
c9
3114 2109 mt 3111 2114 L
3111 2114 mt 3105 2120 L
c8
3111 2098 mt 3120 2104 L
3108 2117 mt 3101 2107 L
c9
3108 2103 mt 3114 2109 L
3105 2120 mt 3094 2112 L
c8
3101 2107 mt 3089 2095 L
3097 2093 mt 3111 2098 L
c9
3095 2097 mt 3108 2103 L
3094 2112 mt 3078 2101 L
c8
3090 2059 mt 3083 2080 L
3089 2084 mt 3097 2093 L
3089 2095 mt 3089 2060 L
3084 2038 mt 3090 2059 L
3089 2060 mt 3083 2032 L
c9
3088 2087 mt 3095 2097 L
3085 2064 mt 3079 2085 L
3084 2040 mt 3085 2064 L
c8
3083 2080 mt 3089 2084 L
c9
3063 2010 mt 3084 2040 L
c8
3066 2008 mt 3084 2038 L
3083 2032 mt 3060 2024 L
c9
3079 2085 mt 3088 2087 L
3078 2066 mt 3058 2050 L
3078 2101 mt 3078 2066 L
c8
3061 2019 mt 3050 2011 L
3060 2024 mt 3051 2022 L
c9
3058 2050 mt 3050 2029 L
c8
3051 2022 mt 3061 2019 L
c9
3058 2021 mt 3042 2018 L
3050 2029 mt 3046 2024 L
c8
3050 2011 mt 3048 2001 L
3049 1974 mt 3045 1964 L
3048 2001 mt 3045 1999 L
c9
3046 2024 mt 3058 2021 L
c8
3045 1999 mt 3042 1988 L
3043 1963 mt 3066 2008 L
3045 1964 mt 3032 1965 L
c9
3043 2006 mt 3040 2002 L
3043 1966 mt 3063 2010 L
3042 2018 mt 3043 2006 L
c8
3042 1988 mt 3049 1974 L
c9
3040 2002 mt 3038 1991 L
3040 1969 mt 3023 1968 L
3038 1991 mt 3036 1982 L
3036 1982 mt 3040 1969 L
c8
3032 1965 mt 3022 1965 L
c9
3023 1968 mt 3014 1968 L
c8
3022 1965 mt 2990 1962 L
3019 1926 mt 3043 1963 L
c9
3015 1929 mt 3043 1966 L
3014 1968 mt 2972 1970 L
c8
2993 1880 mt 3019 1926 L
c9
2991 1882 mt 3015 1929 L
c8
2990 1962 mt 2946 1959 L
2979 2409 mt 2973 2422 L
2974 2393 mt 2979 2409 L
c9
2975 2395 mt 2970 2411 L
c8
2975 2598 mt 2970 2606 L
2973 2422 mt 2966 2436 L
c9
2972 1970 mt 2935 1965 L
c8
2972 1845 mt 2993 1880 L
c9
2972 2599 mt 2963 2608 L
2971 1848 mt 2991 1882 L
2970 2411 mt 2963 2423 L
c8
2970 2606 mt 2964 2595 L
2970 2589 mt 2975 2598 L
c9
2967 2589 mt 2972 2599 L
c8
2966 2436 mt 2960 2449 L
2965 1961 mt 2956 1971 L
c9
2961 2595 mt 2958 2589 L
c8
2965 2586 mt 2957 2595 L
2964 2595 mt 2965 2586 L
c9
2963 2423 mt 2962 2437 L
2963 2608 mt 2961 2595 L
2962 2437 mt 2955 2449 L
c8
2960 2449 mt 2955 2463 L
2960 2561 mt 2970 2589 L
c9
2960 1963 mt 2949 1973 L
2959 2377 mt 2975 2395 L
2958 2589 mt 2953 2596 L
c8
2958 1966 mt 2953 1958 L
c9
2958 2562 mt 2967 2589 L
c8
2957 1918 mt 2954 1942 L
2957 2595 mt 2936 2618 L
2956 1971 mt 2958 1966 L
2956 2478 mt 2927 2491 L
c9
2955 2449 mt 2948 2463 L
c8
2955 2375 mt 2974 2393 L
2955 2463 mt 2956 2478 L
2954 1942 mt 2965 1961 L
2953 1958 mt 2950 1940 L
c9
2953 2596 mt 2931 2618 L
2953 1967 mt 2946 1958 L
c8
2953 1939 mt 2943 1931 L
2918 1951 mt 2953 1939 L
c9
2949 1940 mt 2934 1933 L
2944 1933 mt 2947 1944 L
c8
2950 1940 mt 2916 1930 L
c9
2949 1973 mt 2953 1967 L
2948 2463 mt 2946 2480 L
2947 1805 mt 2971 1848 L
2947 1944 mt 2960 1963 L
2946 1958 mt 2941 1942 L
2946 2480 mt 2922 2490 L
c8
2946 1803 mt 2972 1845 L
2946 1959 mt 2918 1951 L
c9
2945 2351 mt 2959 2377 L
c8
2944 2528 mt 2960 2561 L
2943 1931 mt 2957 1918 L
c9
2942 2529 mt 2958 2562 L
2941 1942 mt 2909 1932 L
c8
2939 2350 mt 2955 2375 L
2936 2618 mt 2910 2639 L
c9
2935 1965 mt 2908 1954 L
2934 1933 mt 2944 1933 L
c8
2933 2507 mt 2944 2528 L
c9
2931 2618 mt 2906 2639 L
2928 2507 mt 2942 2529 L
c8
2927 2491 mt 2933 2507 L
c9
2927 2324 mt 2945 2351 L
2922 2490 mt 2928 2507 L
c8
2918 2321 mt 2939 2350 L
2916 1762 mt 2946 1803 L
c9
2917 1763 mt 2947 1805 L
c8
2916 1930 mt 2898 1932 L
2910 2639 mt 2894 2655 L
c9
2909 1932 mt 2880 1938 L
2908 1954 mt 2949 1940 L
2906 2639 mt 2890 2655 L
2903 2284 mt 2927 2324 L
c8
2901 2284 mt 2918 2321 L
2898 1932 mt 2870 1947 L
2894 2655 mt 2883 2645 L
c9
2890 2655 mt 2878 2645 L
2887 1714 mt 2917 1763 L
2885 2235 mt 2903 2284 L
c8
2885 1714 mt 2916 1762 L
2883 2235 mt 2901 2284 L
2883 2645 mt 2864 2635 L
c9
2880 1938 mt 2862 1949 L
2878 2188 mt 2885 2235 L
2878 2645 mt 2851 2635 L
c8
2872 2187 mt 2883 2235 L
2870 1947 mt 2845 1969 L
2864 2635 mt 2838 2616 L
c9
2862 2143 mt 2878 2188 L
2862 1949 mt 2835 1971 L
c8
2858 2142 mt 2872 2187 L
c9
2857 2103 mt 2862 2143 L
2855 1659 mt 2887 1714 L
c8
2852 2103 mt 2858 2142 L
c9
2851 2635 mt 2831 2615 L
c8
2850 1660 mt 2885 1714 L
2845 1969 mt 2811 1988 L
2838 2616 mt 2819 2600 L
c9
2836 2048 mt 2857 2103 L
2835 1971 mt 2803 1990 L
c8
2831 2048 mt 2852 2103 L
c9
2831 2615 mt 2809 2599 L
c8
2824 2235 mt 2820 2227 L
c9
2830 2236 mt 2819 2226 L
2825 2256 mt 2830 2236 L
2822 2278 mt 2825 2256 L
c8
2821 2255 mt 2824 2235 L
c9
2820 1602 mt 2855 1659 L
c8
2820 2227 mt 2806 2212 L
2819 2600 mt 2804 2581 L
c9
2819 2226 mt 2801 2211 L
c8
2817 1602 mt 2850 1660 L
2815 2276 mt 2821 2255 L
c9
2814 1995 mt 2836 2048 L
2814 2307 mt 2822 2278 L
c8
2811 1988 mt 2789 2005 L
2810 1994 mt 2831 2048 L
c9
2809 2599 mt 2786 2579 L
c8
2808 2306 mt 2815 2276 L
2806 2212 mt 2787 2203 L
c9
2805 2338 mt 2814 2307 L
c8
2804 2581 mt 2741 2552 L
c9
2803 1990 mt 2783 2007 L
2801 2211 mt 2781 2203 L
c8
2793 2336 mt 2808 2306 L
2789 2005 mt 2760 2018 L
c9
2789 1944 mt 2814 1995 L
c8
2787 2203 mt 2759 2185 L
c9
2786 2579 mt 2730 2551 L
c8
2785 1944 mt 2810 1994 L
c9
2783 2365 mt 2805 2338 L
c8
2754 1991 mt 2805 2029 L
c9
2760 1990 mt 2808 2030 L
2783 2007 mt 2753 2020 L
2781 2203 mt 2755 2185 L
2776 1549 mt 2820 1602 L
c8
2774 1549 mt 2817 1602 L
2772 2363 mt 2793 2336 L
c9
2765 1891 mt 2789 1944 L
c8
2760 2018 mt 2741 2023 L
2760 1891 mt 2785 1944 L
2759 2185 mt 2739 2166 L
c9
2758 2396 mt 2783 2365 L
2755 2185 mt 2737 2166 L
2753 2020 mt 2732 2026 L
c8
2746 2394 mt 2772 2363 L
2741 2552 mt 2684 2524 L
2741 2023 mt 2723 2023 L
2739 2166 mt 2701 2134 L
c9
2737 1506 mt 2776 1549 L
c8
2737 1506 mt 2774 1549 L
c9
2737 2166 mt 2696 2134 L
2734 1827 mt 2765 1891 L
2732 2026 mt 2715 2025 L
2730 2551 mt 2666 2522 L
2729 2423 mt 2758 2396 L
c8
2728 1827 mt 2760 1891 L
2723 2023 mt 2703 2017 L
2721 2422 mt 2746 2394 L
c9
2715 2025 mt 2694 2019 L
2705 1955 mt 2760 1990 L
c8
2703 2017 mt 2665 2012 L
c9
2703 1765 mt 2734 1827 L
c8
2701 2134 mt 2672 2099 L
c9
2700 2456 mt 2729 2423 L
2696 2134 mt 2666 2100 L
2694 2019 mt 2650 2014 L
c8
2692 1955 mt 2754 1991 L
2689 2456 mt 2721 2422 L
2684 2524 mt 2622 2507 L
2679 1762 mt 2728 1827 L
c9
2678 1706 mt 2703 1765 L
c8
2672 1706 mt 2679 1762 L
2672 2099 mt 2647 2072 L
c9
2669 2479 mt 2700 2456 L
2611 2519 mt 2641 2501 L
2666 2522 mt 2606 2505 L
2666 2100 mt 2641 2073 L
c8
2665 2012 mt 2623 2012 L
c9
2661 1650 mt 2678 1706 L
c8
2656 2478 mt 2689 2456 L
c9
2655 1924 mt 2705 1955 L
c8
2651 1649 mt 2672 1706 L
c9
2650 2014 mt 2605 2013 L
c8
2649 1924 mt 2692 1955 L
2647 2072 mt 2621 2044 L
c9
2641 2073 mt 2610 2046 L
2641 2501 mt 2669 2479 L
2628 1592 mt 2661 1650 L
c8
2623 2499 mt 2656 2478 L
2594 2024 mt 2567 2001 L
2623 2012 mt 2576 2012 L
2622 2507 mt 2610 2493 L
2621 2044 mt 2594 2024 L
2621 1592 mt 2651 1649 L
c9
2615 1902 mt 2655 1924 L
2610 2046 mt 2579 2026 L
c8
2610 2493 mt 2565 2483 L
c9
2606 2505 mt 2591 2493 L
2605 2013 mt 2565 2013 L
c8
2604 1904 mt 2649 1924 L
2600 2518 mt 2623 2499 L
c9
2598 1549 mt 2628 1592 L
2591 2493 mt 2529 2481 L
c8
2589 1548 mt 2621 1592 L
c9
2579 2534 mt 2611 2519 L
2579 2026 mt 2553 2004 L
2578 1885 mt 2615 1902 L
c8
2576 2012 mt 2538 2005 L
2572 2533 mt 2600 2518 L
2571 1887 mt 2604 1904 L
2567 2001 mt 2533 1980 L
c9
2565 2013 mt 2527 2006 L
c8
2565 2483 mt 2470 2455 L
c9
2561 2554 mt 2579 2534 L
2559 1517 mt 2598 1549 L
2555 1876 mt 2578 1885 L
2553 2004 mt 2523 1982 L
2553 1902 mt 2551 1889 L
c8
2551 2553 mt 2572 2533 L
c9
2551 1889 mt 2550 1879 L
2550 1879 mt 2555 1876 L
c8
2545 1904 mt 2542 1892 L
c9
2543 1906 mt 2553 1902 L
c8
2543 1881 mt 2541 1880 L
2542 1892 mt 2543 1881 L
2541 1880 mt 2571 1887 L
2540 1517 mt 2589 1548 L
2538 2005 mt 2496 1990 L
c9
2537 1910 mt 2543 1906 L
c8
2533 1980 mt 2509 1948 L
2533 1910 mt 2545 1904 L
2530 1912 mt 2533 1910 L
c9
2529 2481 mt 2459 2453 L
2528 2576 mt 2561 2554 L
2527 2006 mt 2482 1992 L
2527 1485 mt 2559 1517 L
2523 1982 mt 2492 1952 L
2519 1889 mt 2537 1910 L
c8
2518 2575 mt 2551 2553 L
2512 1892 mt 2530 1912 L
2509 1484 mt 2540 1517 L
2509 1948 mt 2466 1924 L
c9
2498 1863 mt 2519 1889 L
c8
2496 1990 mt 2483 1960 L
c9
2494 2598 mt 2528 2576 L
2492 1952 mt 2451 1928 L
2491 1798 mt 2460 1836 L
c8
2489 1865 mt 2512 1892 L
c9
2485 1441 mt 2527 1485 L
c8
2484 2598 mt 2518 2575 L
2483 1960 mt 2369 1965 L
c9
2482 1992 mt 2401 1983 L
c8
2478 1801 mt 2459 1836 L
c9
2471 1780 mt 2491 1798 L
c8
2470 2455 mt 2436 2425 L
2468 1440 mt 2509 1484 L
2466 1924 mt 2425 1911 L
c9
2461 2614 mt 2494 2598 L
2460 1836 mt 2498 1863 L
c8
2459 1836 mt 2489 1865 L
c9
2459 2453 mt 2415 2424 L
2456 1768 mt 2471 1780 L
c8
2452 2614 mt 2484 2598 L
c9
2451 1928 mt 2416 1913 L
c8
2449 1786 mt 2478 1801 L
c9
2445 1394 mt 2485 1441 L
c8
2439 1772 mt 2449 1786 L
2436 2425 mt 2406 2380 L
c9
2429 1759 mt 2456 1768 L
c8
2426 1394 mt 2468 1440 L
2425 1911 mt 2390 1910 L
2423 1761 mt 2439 1772 L
c9
2422 2622 mt 2461 2614 L
2416 1913 mt 2378 1914 L
2415 2424 mt 2375 2378 L
2414 1754 mt 2429 1759 L
c8
2410 2623 mt 2452 2614 L
2407 1756 mt 2423 1761 L
2406 2380 mt 2359 2333 L
c9
2402 1345 mt 2445 1394 L
2401 1983 mt 2330 1969 L
c8
2391 1345 mt 2426 1394 L
c9
2391 1745 mt 2414 1754 L
c8
2390 1910 mt 2346 1910 L
2384 1747 mt 2407 1756 L
c9
2383 2616 mt 2422 2622 L
2378 1914 mt 2333 1914 L
2375 2378 mt 2346 2332 L
c8
2369 1965 mt 2272 1951 L
c9
2366 1300 mt 2402 1345 L
2361 1741 mt 2391 1745 L
c8
2359 2333 mt 2287 2292 L
2352 1743 mt 2384 1747 L
2347 2621 mt 2410 2623 L
c9
2346 2332 mt 2275 2292 L
c8
2346 1910 mt 2333 1910 L
2339 1300 mt 2391 1345 L
2333 1910 mt 2322 1903 L
c9
2333 1914 mt 2325 1913 L
2330 1969 mt 2239 1956 L
2325 1740 mt 2361 1741 L
2325 1913 mt 2314 1906 L
2323 2607 mt 2383 2616 L
c8
2322 1903 mt 2299 1897 L
c9
2319 1244 mt 2366 1300 L
c8
2315 1744 mt 2352 1743 L
c9
2314 1906 mt 2290 1900 L
c8
2307 1244 mt 2339 1300 L
2299 1897 mt 2259 1877 L
2297 2612 mt 2347 2621 L
c9
2296 1766 mt 2325 1740 L
2290 1900 mt 2245 1882 L
c8
2289 1768 mt 2315 1744 L
2287 2292 mt 2241 2248 L
c9
2275 2292 mt 2231 2248 L
2273 1202 mt 2319 1244 L
c8
2272 1951 mt 2185 1932 L
c9
2266 1797 mt 2296 1766 L
2262 2604 mt 2323 2607 L
c8
2261 1203 mt 2307 1244 L
2259 1877 mt 2223 1862 L
2257 1800 mt 2289 1768 L
c9
2245 1882 mt 2214 1866 L
2243 1818 mt 2266 1797 L
c8
2241 2248 mt 2225 2227 L
c9
2239 1956 mt 2163 1938 L
c8
2238 2608 mt 2297 2612 L
2233 1821 mt 2257 1800 L
c9
2231 2248 mt 2216 2226 L
c8
2225 2227 mt 2187 2211 L
2223 1862 mt 2195 1836 L
c9
2220 1170 mt 2273 1202 L
2216 2226 mt 2175 2211 L
2214 1866 mt 2184 1840 L
2207 1828 mt 2243 1818 L
2199 2614 mt 2262 2604 L
c8
2199 1831 mt 2233 1821 L
2195 1836 mt 2174 1829 L
2187 2211 mt 2165 2207 L
c9
2185 1823 mt 2207 1828 L
c8
2185 1932 mt 2124 1915 L
c9
2184 1840 mt 2166 1832 L
c8
2177 2617 mt 2238 2608 L
2176 1827 mt 2199 1831 L
c9
2175 2211 mt 2145 2203 L
2174 1149 mt 2220 1170 L
c8
2174 1829 mt 2166 1823 L
2166 1823 mt 2176 1827 L
c9
2166 1832 mt 2163 1824 L
c8
2165 2207 mt 2115 2185 L
2164 1182 mt 2261 1203 L
c9
2163 1938 mt 2077 1926 L
2163 1824 mt 2185 1823 L
c8
2158 1151 mt 2164 1182 L
c9
2145 2203 mt 2107 2185 L
2131 1131 mt 2174 1149 L
2127 2629 mt 2199 2614 L
c8
2124 1915 mt 2061 1914 L
2119 1133 mt 2158 1151 L
2115 2185 mt 2083 2168 L
c9
2107 2185 mt 2077 2168 L
c8
2106 2632 mt 2177 2617 L
c9
2085 2636 mt 2127 2629 L
c8
2083 2168 mt 2072 2151 L
c9
2079 1114 mt 2131 1131 L
2077 2168 mt 2072 2151 L
2077 1926 mt 2023 1921 L
c8
2072 2151 mt 2055 2134 L
c9
2072 2151 mt 2045 2134 L
c8
2069 1115 mt 2119 1133 L
2062 2642 mt 2106 2632 L
2061 1914 mt 1974 1901 L
2055 2134 mt 2039 2114 L
c9
2045 2134 mt 2033 2114 L
c8
2039 2114 mt 2016 2095 L
c9
2034 2649 mt 2085 2636 L
2033 1092 mt 2079 1114 L
2033 2114 mt 2008 2095 L
2028 2638 mt 2034 2649 L
2023 1921 mt 1949 1906 L
c8
2021 1094 mt 2069 1115 L
2016 2095 mt 1984 2077 L
2013 2655 mt 2062 2642 L
2010 2643 mt 2013 2655 L
c9
2010 2622 mt 2028 2638 L
2008 2095 mt 1973 2078 L
2004 2596 mt 2010 2622 L
2003 2567 mt 2004 2596 L
c8
1993 2627 mt 2010 2643 L
c9
1987 2549 mt 2003 2567 L
c8
1984 2077 mt 1955 2068 L
c9
1984 1061 mt 2033 1092 L
c8
1981 2603 mt 1993 2627 L
1975 2550 mt 1975 2575 L
1975 2575 mt 1981 2603 L
1974 1901 mt 1918 1869 L
1974 1063 mt 2021 1094 L
c9
1973 2078 mt 1938 2070 L
1962 2528 mt 1987 2549 L
c8
1955 2068 mt 1926 2072 L
1951 2530 mt 1975 2550 L
c9
1950 2507 mt 1962 2528 L
1949 1906 mt 1901 1875 L
1940 1016 mt 1984 1061 L
c8
1926 2072 mt 1900 2084 L
c9
1938 2070 mt 1910 2074 L
1931 2487 mt 1950 2507 L
c8
1926 2512 mt 1951 2530 L
1926 1019 mt 1974 1063 L
c9
1920 2475 mt 1931 2487 L
c8
1918 1869 mt 1878 1811 L
c9
1910 2074 mt 1882 2086 L
c8
1909 2493 mt 1926 2512 L
c9
1903 2461 mt 1920 2475 L
1901 1875 mt 1847 1821 L
c8
1900 2084 mt 1872 2096 L
1895 2481 mt 1909 2493 L
1886 2465 mt 1895 2481 L
c9
1884  984 mt 1940 1016 L
1882 2086 mt 1858 2098 L
c8
1878 1811 mt 1795 1775 L
c9
1877 2454 mt 1903 2461 L
c8
1872 2096 mt 1861 2109 L
1872  988 mt 1926 1019 L
1861 2109 mt 1844 2124 L
c9
1858 2098 mt 1844 2112 L
1851 2451 mt 1877 2454 L
1847 1821 mt 1767 1784 L
c8
1844 2464 mt 1886 2465 L
c9
1844 2112 mt 1829 2127 L
c8
1844 2124 mt 1835 2137 L
c9
1841  955 mt 1884  984 L
c8
1835 2137 mt 1817 2147 L
c9
1829 2127 mt 1811 2140 L
c8
1820 2460 mt 1844 2464 L
c9
1819 2445 mt 1851 2451 L
c8
1817 2147 mt 1810 2158 L
c9
1811 2140 mt 1802 2150 L
c8
1810 2158 mt 1798 2177 L
1808  968 mt 1872  988 L
c9
1802 2150 mt 1790 2161 L
1799  934 mt 1841  955 L
1799 2425 mt 1819 2445 L
c8
1798 2177 mt 1791 2206 L
1795 1775 mt 1516 1811 L
1791 2206 mt 1778 2228 L
c9
1790 2161 mt 1777 2181 L
1790 2403 mt 1799 2425 L
c8
1790 2457 mt 1820 2460 L
1790 2427 mt 1790 2457 L
c9
1785 2342 mt 1780 2367 L
c8
1785 2343 mt 1779 2367 L
c9
1785 2322 mt 1785 2342 L
c8
1784 2323 mt 1785 2343 L
1782 2287 mt 1780 2308 L
1781  940 mt 1808  968 L
1781 2265 mt 1782 2287 L
1780 2308 mt 1784 2323 L
c9
1780 2367 mt 1776 2386 L
c8
1779 2246 mt 1781 2265 L
1779 2367 mt 1774 2387 L
1778 2228 mt 1779 2246 L
c9
1777 2265 mt 1772 2289 L
1777 2181 mt 1770 2209 L
c8
1776 2408 mt 1790 2427 L
c9
1776 2308 mt 1785 2322 L
1776 2386 mt 1790 2403 L
c8
1774 2387 mt 1776 2408 L
c9
1772 2247 mt 1777 2265 L
1772 2289 mt 1776 2308 L
1770 2209 mt 1761 2231 L
1767 1784 mt 1489 1825 L
1761 2231 mt 1772 2247 L
1737  916 mt 1799  934 L
c8
1721  921 mt 1781  940 L
c9
1677  899 mt 1737  916 L
c8
1668  903 mt 1721  921 L
c9
1622  890 mt 1677  899 L
c8
1603  898 mt 1668  903 L
c9
1576  892 mt 1622  890 L
c8
1563  898 mt 1603  898 L
c9
1540 1440 mt 1434 1450 L
1539 1482 mt 1540 1440 L
1530  908 mt 1576  892 L
1528 1515 mt 1539 1482 L
c8
1522  912 mt 1563  898 L
1522 1449 mt 1447 1442 L
1519 1491 mt 1522 1449 L
1516 1811 mt 1481 1768 L
1506 1523 mt 1519 1491 L
c9
1490 1566 mt 1528 1515 L
1489 1825 mt 1454 1788 L
c8
1481 1768 mt 1446 1750 L
c9
1481  944 mt 1530  908 L
c8
1472  948 mt 1522  912 L
c9
1465 1611 mt 1490 1566 L
1456 1747 mt 1427 1736 L
1454 1788 mt 1456 1747 L
c8
1453 1584 mt 1506 1523 L
1447 1442 mt 1408 1419 L
1446 1750 mt 1414 1742 L
c9
1439 1656 mt 1465 1611 L
1434 1450 mt 1396 1425 L
c8
1433 1626 mt 1453 1584 L
c9
1429  988 mt 1481  944 L
1427 1736 mt 1420 1730 L
c8
1425  990 mt 1472  948 L
c9
1420 1730 mt 1410 1722 L
c8
1418 1667 mt 1433 1626 L
c9
1417 1680 mt 1439 1656 L
c8
1414 1742 mt 1396 1743 L
c9
1414 1689 mt 1417 1680 L
1410 1722 mt 1408 1705 L
1396 1425 mt 1383 1385 L
c8
1408 1419 mt 1376 1388 L
c9
1408 1705 mt 1414 1689 L
c8
1402 1688 mt 1418 1667 L
1396 1743 mt 1384 1730 L
1392 1700 mt 1402 1688 L
c9
1387 1026 mt 1429  988 L
c8
1384 1730 mt 1380 1716 L
1383 1029 mt 1425  990 L
c9
1383 1385 mt 1349 1339 L
c8
1380 1716 mt 1392 1700 L
1376 1388 mt 1352 1338 L
c9
1364 1055 mt 1387 1026 L
c8
1357 1059 mt 1383 1029 L
c9
1349 1339 mt 1334 1271 L
c8
1352 1338 mt 1332 1272 L
c9
1342 1094 mt 1364 1055 L
c8
1334 1099 mt 1357 1059 L
c9
1334 1271 mt 1321 1203 L
c8
1332 1272 mt 1312 1210 L
c9
1329 1144 mt 1342 1094 L
1321 1203 mt 1329 1144 L
c8
1313 1154 mt 1334 1099 L
1312 1210 mt 1313 1154 L
gr

c8
0 sg
 463 3472 mt 
(y-axis \(mm\)) s
 639 3409 mt 
( ) s
 280 2071 mt  -90 rotate
(z-axis \(mm\)) s
90 rotate
1 sg
0 378 1642 0 0 -378 2829 1094 4 MP
PP
-1642 0 0 378 1642 0 0 -378 2829 1094 5 MP stroke
4 w
DO
SO
6 w
0 sg
2829  716 mt 4471  716 L
2829 1094 mt 4471 1094 L
4471 1094 mt 4471  716 L
2829 1094 mt 2829  716 L
2829 1094 mt 4471 1094 L
2829 1094 mt 2829  716 L
2829  716 mt 4471  716 L
2829 1094 mt 4471 1094 L
4471 1094 mt 4471  716 L
2829 1094 mt 2829  716 L
3301  863 mt 
(Ground truth) s
gs 2829 716 1643 379 rc
c9
363 0 2901 821 2 MP stroke
gr

c9
0 sg
3301 1032 mt 
(Dense visual tracking) s
gs 2829 716 1643 379 rc
c8
363 0 2901 989 2 MP stroke
gr

c8

end %%Color Dict

eplot
%%EndObject

epage
end

showpage

%%Trailer
%%EOF
