%!PS-Adobe-3.0 EPSF-3.0
%%Creator: MATLAB, The MathWorks, Inc. Version 8.1.0.604 (R2013a). Operating System: Darwin 13.3.0 Darwin Kernel Version 13.3.0: Tue Jun  3 21:27:35 PDT 2014; root:xnu-2422.110.17~1/RELEASE_X86_64 x86_64.
%%Title: /Users/Pinglin/ICL/Thesis/materials/figs/ch5/office_trajectory.eps
%%CreationDate: 09/24/2014  01:07:27
%%DocumentNeededFonts: Helvetica
%%DocumentProcessColors: Cyan Magenta Yellow Black
%%LanguageLevel: 2
%%Pages: 1
%%BoundingBox:    26   186   585   606
%%EndComments

%%BeginProlog
% MathWorks dictionary
/MathWorks 160 dict begin
% definition operators
/bdef {bind def} bind def
/ldef {load def} bind def
/xdef {exch def} bdef
/xstore {exch store} bdef
% operator abbreviations
/c  /clip ldef
/cc /concat ldef
/cp /closepath ldef
/gr /grestore ldef
/gs /gsave ldef
/mt /moveto ldef
/np /newpath ldef
/cm /currentmatrix ldef
/sm /setmatrix ldef
/rm /rmoveto ldef
/rl /rlineto ldef
/s {show newpath} bdef
/sc {setcmykcolor} bdef
/sr /setrgbcolor ldef
/sg /setgray ldef
/w /setlinewidth ldef
/j /setlinejoin ldef
/cap /setlinecap ldef
/rc {rectclip} bdef
/rf {rectfill} bdef
% page state control
/pgsv () def
/bpage {/pgsv save def} bdef
/epage {pgsv restore} bdef
/bplot /gsave ldef
/eplot {stroke grestore} bdef
% orientation switch
/portraitMode 0 def /landscapeMode 1 def /rotateMode 2 def
% coordinate system mappings
/dpi2point 0 def
% font control
/FontSize 0 def
/FMS {/FontSize xstore findfont [FontSize 0 0 FontSize neg 0 0]
  makefont setfont} bdef
/reencode {exch dup where {pop load} {pop StandardEncoding} ifelse
  exch dup 3 1 roll findfont dup length dict begin
  { 1 index /FID ne {def}{pop pop} ifelse } forall
  /Encoding exch def currentdict end definefont pop} bdef
/isroman {findfont /CharStrings get /Agrave known} bdef
/FMSR {3 1 roll 1 index dup isroman {reencode} {pop pop} ifelse
  exch FMS} bdef
/csm {1 dpi2point div -1 dpi2point div scale neg translate
 dup landscapeMode eq {pop -90 rotate}
  {rotateMode eq {90 rotate} if} ifelse} bdef
% line types: solid, dotted, dashed, dotdash
/SO { [] 0 setdash } bdef
/DO { [.5 dpi2point mul 4 dpi2point mul] 0 setdash } bdef
/DA { [6 dpi2point mul] 0 setdash } bdef
/DD { [.5 dpi2point mul 4 dpi2point mul 6 dpi2point mul 4
  dpi2point mul] 0 setdash } bdef
% macros for lines and objects
/L {lineto stroke} bdef
/MP {3 1 roll moveto 1 sub {rlineto} repeat} bdef
/AP {{rlineto} repeat} bdef
/PDlw -1 def
/W {/PDlw currentlinewidth def setlinewidth} def
/PP {closepath eofill} bdef
/DP {closepath stroke} bdef
/MR {4 -2 roll moveto dup  0 exch rlineto exch 0 rlineto
  neg 0 exch rlineto closepath} bdef
/FR {MR stroke} bdef
/PR {MR fill} bdef
/L1i {{currentfile picstr readhexstring pop} image} bdef
/tMatrix matrix def
/MakeOval {newpath tMatrix currentmatrix pop translate scale
0 0 1 0 360 arc tMatrix setmatrix} bdef
/FO {MakeOval stroke} bdef
/PO {MakeOval fill} bdef
/PD {currentlinewidth 2 div 0 360 arc fill
   PDlw -1 eq not {PDlw w /PDlw -1 def} if} def
/FA {newpath tMatrix currentmatrix pop translate scale
  0 0 1 5 -2 roll arc tMatrix setmatrix stroke} bdef
/PA {newpath tMatrix currentmatrix pop	translate 0 0 moveto scale
  0 0 1 5 -2 roll arc closepath tMatrix setmatrix fill} bdef
/FAn {newpath tMatrix currentmatrix pop translate scale
  0 0 1 5 -2 roll arcn tMatrix setmatrix stroke} bdef
/PAn {newpath tMatrix currentmatrix pop translate 0 0 moveto scale
  0 0 1 5 -2 roll arcn closepath tMatrix setmatrix fill} bdef
/vradius 0 def /hradius 0 def /lry 0 def
/lrx 0 def /uly 0 def /ulx 0 def /rad 0 def
/MRR {/vradius xdef /hradius xdef /lry xdef /lrx xdef /uly xdef
  /ulx xdef newpath tMatrix currentmatrix pop ulx hradius add uly
  vradius add translate hradius vradius scale 0 0 1 180 270 arc 
  tMatrix setmatrix lrx hradius sub uly vradius add translate
  hradius vradius scale 0 0 1 270 360 arc tMatrix setmatrix
  lrx hradius sub lry vradius sub translate hradius vradius scale
  0 0 1 0 90 arc tMatrix setmatrix ulx hradius add lry vradius sub
  translate hradius vradius scale 0 0 1 90 180 arc tMatrix setmatrix
  closepath} bdef
/FRR {MRR stroke } bdef
/PRR {MRR fill } bdef
/MlrRR {/lry xdef /lrx xdef /uly xdef /ulx xdef /rad lry uly sub 2 div def
  newpath tMatrix currentmatrix pop ulx rad add uly rad add translate
  rad rad scale 0 0 1 90 270 arc tMatrix setmatrix lrx rad sub lry rad
  sub translate rad rad scale 0 0 1 270 90 arc tMatrix setmatrix
  closepath} bdef
/FlrRR {MlrRR stroke } bdef
/PlrRR {MlrRR fill } bdef
/MtbRR {/lry xdef /lrx xdef /uly xdef /ulx xdef /rad lrx ulx sub 2 div def
  newpath tMatrix currentmatrix pop ulx rad add uly rad add translate
  rad rad scale 0 0 1 180 360 arc tMatrix setmatrix lrx rad sub lry rad
  sub translate rad rad scale 0 0 1 0 180 arc tMatrix setmatrix
  closepath} bdef
/FtbRR {MtbRR stroke } bdef
/PtbRR {MtbRR fill } bdef
/stri 6 array def /dtri 6 array def
/smat 6 array def /dmat 6 array def
/tmat1 6 array def /tmat2 6 array def /dif 3 array def
/asub {/ind2 exch def /ind1 exch def dup dup
  ind1 get exch ind2 get sub exch } bdef
/tri_to_matrix {
  2 0 asub 3 1 asub 4 0 asub 5 1 asub
  dup 0 get exch 1 get 7 -1 roll astore } bdef
/compute_transform {
  dmat dtri tri_to_matrix tmat1 invertmatrix 
  smat stri tri_to_matrix tmat2 concatmatrix } bdef
/ds {stri astore pop} bdef
/dt {dtri astore pop} bdef
/db {2 copy /cols xdef /rows xdef mul dup 3 mul string
  currentfile 
  3 index 0 eq {/ASCIIHexDecode filter}
  {/ASCII85Decode filter 3 index 2 eq {/RunLengthDecode filter} if }
  ifelse exch readstring pop
  dup 0 3 index getinterval /rbmap xdef
  dup 2 index dup getinterval /gbmap xdef
  1 index dup 2 mul exch getinterval /bbmap xdef pop pop}bdef
/it {gs np dtri aload pop moveto lineto lineto cp c
  cols rows 8 compute_transform 
  rbmap gbmap bbmap true 3 colorimage gr}bdef
/il {newpath moveto lineto stroke}bdef
currentdict end def
%%EndProlog

%%BeginSetup
MathWorks begin

0 cap

end
%%EndSetup

%%Page: 1 1
%%BeginPageSetup
%%PageBoundingBox:    26   186   585   606
MathWorks begin
bpage
%%EndPageSetup

%%BeginObject: obj1
bplot

/dpi2point 12 def
portraitMode 0312 7272 csm

    0     0  6719  5033 rc
85 dict begin %Colortable dictionary
/c0 { 0.000000 0.000000 0.000000 sr} bdef
/c1 { 1.000000 1.000000 1.000000 sr} bdef
/c2 { 0.900000 0.000000 0.000000 sr} bdef
/c3 { 0.000000 0.820000 0.000000 sr} bdef
/c4 { 0.000000 0.000000 0.800000 sr} bdef
/c5 { 0.910000 0.820000 0.320000 sr} bdef
/c6 { 1.000000 0.260000 0.820000 sr} bdef
/c7 { 0.000000 0.820000 0.820000 sr} bdef
c0
1 j
1 sg
   0    0 6720 5034 rf
6 w
0 3203 -3603 -276 0 -3204 6080 3857 4 MP
PP
3603 277 0 3203 -3603 -276 0 -3204 6080 3857 5 MP stroke
3603 277 1605 -622 -3604 -277 4476 4479 4 MP
PP
-1604 622 3603 277 1605 -622 -3604 -277 4476 4479 5 MP stroke
0 3203 1605 -621 0 -3204 872 4202 4 MP
PP
-1605 622 0 3203 1605 -621 0 -3204 872 4202 5 MP stroke
4 w
DO
0 sg
4476 4479 mt  872 4202 L
 872 4202 mt  872  998 L
5011 4271 mt 1407 3994 L
1407 3994 mt 1407  791 L
5546 4064 mt 1942 3787 L
1942 3787 mt 1942  584 L
6080 3857 mt 2477 3580 L
2477 3580 mt 2477  377 L
4476 4479 mt 6080 3857 L
6080 3857 mt 6080  653 L
3755 4423 mt 5360 3801 L
5360 3801 mt 5360  598 L
3035 4368 mt 4639 3746 L
4639 3746 mt 4639  543 L
2314 4312 mt 3918 3690 L
3918 3690 mt 3918  487 L
1593 4257 mt 3198 3635 L
3198 3635 mt 3198  432 L
 872 4202 mt 2477 3580 L
2477 3580 mt 2477  377 L
 872 4202 mt 2477 3580 L
2477 3580 mt 6080 3857 L
 872 3881 mt 2477 3259 L
2477 3259 mt 6080 3536 L
 872 3561 mt 2477 2939 L
2477 2939 mt 6080 3216 L
 872 3241 mt 2477 2619 L
2477 2619 mt 6080 2896 L
 872 2920 mt 2477 2298 L
2477 2298 mt 6080 2575 L
 872 2600 mt 2477 1978 L
2477 1978 mt 6080 2255 L
 872 2280 mt 2477 1658 L
2477 1658 mt 6080 1935 L
 872 1959 mt 2477 1337 L
2477 1337 mt 6080 1614 L
 872 1639 mt 2477 1017 L
2477 1017 mt 6080 1294 L
 872 1319 mt 2477  697 L
2477  697 mt 6080  974 L
 872  998 mt 2477  377 L
2477  377 mt 6080  653 L
SO
6 w
4476 4479 mt 6080 3857 L
4476 4479 mt  872 4202 L
 872 4202 mt  872  998 L
4476 4479 mt 4566 4485 L
%%IncludeResource: font Helvetica
/Helvetica /ISOLatin1Encoding 120 FMSR

4601 4599 mt 
(140) s
5011 4271 mt 5101 4278 L
5135 4392 mt 
(150) s
5546 4064 mt 5636 4071 L
5670 4184 mt 
(160) s
6080 3857 mt 6171 3863 L
6205 3977 mt 
(170) s
4476 4479 mt 4392 4511 L
4160 4635 mt 
(440) s
3755 4423 mt 3671 4456 L
3439 4579 mt 
(445) s
3035 4368 mt 2950 4400 L
2718 4524 mt 
(450) s
2314 4312 mt 2230 4345 L
1997 4469 mt 
(455) s
1593 4257 mt 1509 4290 L
1277 4413 mt 
(460) s
 872 4202 mt  788 4234 L
 556 4358 mt 
(465) s
 872 4202 mt  782 4195 L
 478 4236 mt 
(-294) s
 872 3881 mt  782 3874 L
 478 3916 mt 
(-292) s
 872 3561 mt  782 3554 L
 478 3595 mt 
(-290) s
 872 3241 mt  782 3234 L
 478 3275 mt 
(-288) s
 872 2920 mt  782 2913 L
 478 2955 mt 
(-286) s
 872 2600 mt  782 2593 L
 478 2634 mt 
(-284) s
 872 2280 mt  782 2273 L
 478 2314 mt 
(-282) s
 872 1959 mt  782 1952 L
 478 1994 mt 
(-280) s
 872 1639 mt  782 1632 L
 478 1674 mt 
(-278) s
 872 1319 mt  782 1312 L
 478 1353 mt 
(-276) s
 872  998 mt  782  992 L
 478 1033 mt 
(-274) s
6065  419 mt 
( ) s
5477 4782 mt 
(X) s
gs 872 377 5210 4103 rc
/c8 { 1.000000 0.000000 0.000000 sr} bdef
c8
4602 2443 mt 4576 2934 L
gs 2735 1092 1941 2578 rc
  36   36 4602 2443 FO
gr

/c9 { 0.000000 0.000000 1.000000 sr} bdef
c9
4599 2455 mt 4574 2935 L
gs 2744 1103 1929 2574 rc
4563 2455 mt 4635 2455 L
4599 2419 mt 4599 2491 L
gr

c8
4576 2934 mt 4459 3173 L
gs 2735 1092 1941 2578 rc
  36   36 4576 2934 FO
gr

c9
4574 2935 mt 4463 3161 L
gs 2744 1103 1929 2574 rc
4538 2935 mt 4610 2935 L
4574 2899 mt 4574 2971 L
gr

c8
4564 2035 mt 4602 2443 L
gs 2735 1092 1941 2578 rc
  36   36 4564 2035 FO
gr

c9
4559 2051 mt 4599 2455 L
gs 2744 1103 1929 2574 rc
4523 2051 mt 4595 2051 L
4559 2015 mt 4559 2087 L
gr

4463 3161 mt 4335 3339 L
gs 2744 1103 1929 2574 rc
4427 3161 mt 4499 3161 L
4463 3125 mt 4463 3197 L
gr

c8
4459 3173 mt 4333 3351 L
gs 2735 1092 1941 2578 rc
  36   36 4459 3173 FO
gr

4397 1939 mt 4564 2035 L
gs 2735 1092 1941 2578 rc
  36   36 4397 1939 FO
gr

c9
4391 1957 mt 4559 2051 L
gs 2744 1103 1929 2574 rc
4355 1957 mt 4427 1957 L
4391 1921 mt 4391 1993 L
gr

4335 3339 mt 4091 3494 L
gs 2744 1103 1929 2574 rc
4299 3339 mt 4371 3339 L
4335 3303 mt 4335 3375 L
gr

c8
4333 3351 mt 4086 3508 L
gs 2735 1092 1941 2578 rc
  36   36 4333 3351 FO
gr

4165 1401 mt 4157 1819 L
gs 2735 1092 1941 2578 rc
  36   36 4165 1401 FO
gr

4157 1819 mt 4068 2125 L
gs 2735 1092 1941 2578 rc
  36   36 4157 1819 FO
gr

c9
4162 1414 mt 4155 1830 L
gs 2744 1103 1929 2574 rc
4126 1414 mt 4198 1414 L
4162 1378 mt 4162 1450 L
gr

4155 1830 mt 4067 2127 L
gs 2744 1103 1929 2574 rc
4119 1830 mt 4191 1830 L
4155 1794 mt 4155 1866 L
gr

c8
4101 1384 mt 4165 1401 L
gs 2735 1092 1941 2578 rc
  36   36 4101 1384 FO
gr

c9
4097 1400 mt 4162 1414 L
gs 2744 1103 1929 2574 rc
4061 1400 mt 4133 1400 L
4097 1364 mt 4097 1436 L
gr

4091 3494 mt 3820 3582 L
gs 2744 1103 1929 2574 rc
4055 3494 mt 4127 3494 L
4091 3458 mt 4091 3530 L
gr

c8
4086 3508 mt 3814 3596 L
gs 2735 1092 1941 2578 rc
  36   36 4086 3508 FO
gr

4068 2125 mt 3964 2410 L
gs 2735 1092 1941 2578 rc
  36   36 4068 2125 FO
gr

c9
4067 2127 mt 3967 2398 L
gs 2744 1103 1929 2574 rc
4031 2127 mt 4103 2127 L
4067 2091 mt 4067 2163 L
gr

c8
4033 1984 mt 4397 1939 L
gs 2735 1092 1941 2578 rc
  36   36 4033 1984 FO
gr

c9
4028 2000 mt 4391 1957 L
gs 2744 1103 1929 2574 rc
3992 2000 mt 4064 2000 L
4028 1964 mt 4028 2036 L
gr

c8
3976 1827 mt 4101 1384 L
gs 2735 1092 1941 2578 rc
  36   36 3976 1827 FO
gr

c9
3973 1841 mt 4097 1400 L
gs 2744 1103 1929 2574 rc
3937 1841 mt 4009 1841 L
3973 1805 mt 3973 1877 L
gr

3967 2398 mt 3773 2691 L
gs 2744 1103 1929 2574 rc
3931 2398 mt 4003 2398 L
3967 2362 mt 3967 2434 L
gr

3773 2691 mt 3570 2892 L
gs 2744 1103 1929 2574 rc
3737 2691 mt 3809 2691 L
3773 2655 mt 3773 2727 L
gr

c8
3964 2410 mt 3764 2704 L
gs 2735 1092 1941 2578 rc
  36   36 3964 2410 FO
gr

3943 1303 mt 3905 1585 L
gs 2735 1092 1941 2578 rc
  36   36 3943 1303 FO
gr

c9
3943 1314 mt 3908 1591 L
gs 2744 1103 1929 2574 rc
3907 1314 mt 3979 1314 L
3943 1278 mt 3943 1350 L
gr

3932 1176 mt 3943 1314 L
gs 2744 1103 1929 2574 rc
3896 1176 mt 3968 1176 L
3932 1140 mt 3932 1212 L
gr

c8
3931 1165 mt 3943 1303 L
gs 2735 1092 1941 2578 rc
  36   36 3931 1165 FO
gr

c9
3908 1591 mt 3705 2054 L
gs 2744 1103 1929 2574 rc
3872 1591 mt 3944 1591 L
3908 1555 mt 3908 1627 L
gr

c8
3905 1585 mt 3697 2062 L
gs 2735 1092 1941 2578 rc
  36   36 3905 1585 FO
gr

3822 2053 mt 4033 1984 L
gs 2735 1092 1941 2578 rc
  36   36 3822 2053 FO
gr

c9
3820 3582 mt 3725 3481 L
gs 2744 1103 1929 2574 rc
3784 3582 mt 3856 3582 L
3820 3546 mt 3820 3618 L
gr

3816 2070 mt 4028 2000 L
gs 2744 1103 1929 2574 rc
3780 2070 mt 3852 2070 L
3816 2034 mt 3816 2106 L
gr

c8
3814 3596 mt 3719 3494 L
gs 2735 1092 1941 2578 rc
  36   36 3814 3596 FO
gr

3562 2309 mt 3637 1814 L
gs 2735 1092 1941 2578 rc
  36   36 3562 2309 FO
gr

3637 1814 mt 3770 1464 L
gs 2735 1092 1941 2578 rc
  36   36 3637 1814 FO
gr

c9
3795 1387 mt 3543 2093 L
gs 2744 1103 1929 2574 rc
3759 1387 mt 3831 1387 L
3795 1351 mt 3795 1423 L
gr

c8
3793 1377 mt 3531 2103 L
gs 2735 1092 1941 2578 rc
  36   36 3793 1377 FO
gr

c9
3792 2201 mt 3973 1841 L
gs 2744 1103 1929 2574 rc
3756 2201 mt 3828 2201 L
3792 2165 mt 3792 2237 L
gr

3787 1220 mt 3795 1387 L
gs 2744 1103 1929 2574 rc
3751 1220 mt 3823 1220 L
3787 1184 mt 3787 1256 L
gr

c8
3786 1208 mt 3793 1377 L
gs 2735 1092 1941 2578 rc
  36   36 3786 1208 FO
gr

3786 2204 mt 3976 1827 L
gs 2735 1092 1941 2578 rc
  36   36 3786 2204 FO
gr

c9
3772 1470 mt 3932 1176 L
gs 2744 1103 1929 2574 rc
3736 1470 mt 3808 1470 L
3772 1434 mt 3772 1506 L
gr

c8
3770 1464 mt 3931 1165 L
gs 2735 1092 1941 2578 rc
  36   36 3770 1464 FO
gr

3764 2704 mt 3560 2907 L
gs 2735 1092 1941 2578 rc
  36   36 3764 2704 FO
gr

c9
3739 1213 mt 3787 1220 L
gs 2744 1103 1929 2574 rc
3703 1213 mt 3775 1213 L
3739 1177 mt 3739 1249 L
gr

c8
3738 1202 mt 3786 1208 L
gs 2735 1092 1941 2578 rc
  36   36 3738 1202 FO
gr

c9
3725 3481 mt 3661 2997 L
gs 2744 1103 1929 2574 rc
3689 3481 mt 3761 3481 L
3725 3445 mt 3725 3517 L
gr

c8
3719 3494 mt 3651 3011 L
gs 2735 1092 1941 2578 rc
  36   36 3719 3494 FO
gr

c9
3571 2297 mt 3648 1807 L
gs 2744 1103 1929 2574 rc
3535 2297 mt 3607 2297 L
3571 2261 mt 3571 2333 L
gr

3705 2054 mt 3227 2845 L
gs 2744 1103 1929 2574 rc
3669 2054 mt 3741 2054 L
3705 2018 mt 3705 2090 L
gr

3227 2845 mt 3023 3127 L
gs 2744 1103 1929 2574 rc
3191 2845 mt 3263 2845 L
3227 2809 mt 3227 2881 L
gr

c8
3697 2062 mt 3219 2860 L
gs 2735 1092 1941 2578 rc
  36   36 3697 2062 FO
gr

c9
3667 2518 mt 3792 2201 L
gs 2744 1103 1929 2574 rc
3631 2518 mt 3703 2518 L
3667 2482 mt 3667 2554 L
gr

3661 2997 mt 3667 2518 L
gs 2744 1103 1929 2574 rc
3625 2997 mt 3697 2997 L
3661 2961 mt 3661 3033 L
gr

c8
3658 2527 mt 3786 2204 L
gs 2735 1092 1941 2578 rc
  36   36 3658 2527 FO
gr

3651 3011 mt 3658 2527 L
gs 2735 1092 1941 2578 rc
  36   36 3651 3011 FO
gr

c9
3648 1807 mt 3772 1470 L
gs 2744 1103 1929 2574 rc
3612 1807 mt 3684 1807 L
3648 1771 mt 3648 1843 L
gr

c8
3619 2417 mt 3822 2053 L
gs 2735 1092 1941 2578 rc
  36   36 3619 2417 FO
gr

c9
3611 2431 mt 3816 2070 L
gs 2744 1103 1929 2574 rc
3575 2431 mt 3647 2431 L
3611 2395 mt 3611 2467 L
gr

3570 2892 mt 3533 2811 L
gs 2744 1103 1929 2574 rc
3534 2892 mt 3606 2892 L
3570 2856 mt 3570 2928 L
gr

c8
3560 2907 mt 3525 2822 L
gs 2735 1092 1941 2578 rc
  36   36 3560 2907 FO
gr

c9
3543 2093 mt 3283 2634 L
gs 2744 1103 1929 2574 rc
3507 2093 mt 3579 2093 L
3543 2057 mt 3543 2129 L
gr

3542 1625 mt 3739 1213 L
gs 2744 1103 1929 2574 rc
3506 1625 mt 3578 1625 L
3542 1589 mt 3542 1661 L
gr

c8
3539 1622 mt 3738 1202 L
gs 2735 1092 1941 2578 rc
  36   36 3539 1622 FO
gr

c9
3533 2811 mt 3571 2297 L
gs 2744 1103 1929 2574 rc
3497 2811 mt 3569 2811 L
3533 2775 mt 3533 2847 L
gr

3283 2634 mt 3082 2792 L
gs 2744 1103 1929 2574 rc
3247 2634 mt 3319 2634 L
3283 2598 mt 3283 2670 L
gr

c8
3531 2103 mt 3272 2649 L
gs 2735 1092 1941 2578 rc
  36   36 3531 2103 FO
gr

3525 2822 mt 3562 2309 L
gs 2735 1092 1941 2578 rc
  36   36 3525 2822 FO
gr

3368 2948 mt 3619 2417 L
gs 2735 1092 1941 2578 rc
  36   36 3368 2948 FO
gr

c9
3368 2948 mt 3611 2431 L
gs 2744 1103 1929 2574 rc
3332 2948 mt 3404 2948 L
3368 2912 mt 3368 2984 L
gr

c8
3272 2649 mt 3072 2805 L
gs 2735 1092 1941 2578 rc
  36   36 3272 2649 FO
gr

c9
3237 2305 mt 3542 1625 L
gs 2744 1103 1929 2574 rc
3201 2305 mt 3273 2305 L
3237 2269 mt 3237 2341 L
gr

c8
3229 2317 mt 3539 1622 L
gs 2735 1092 1941 2578 rc
  36   36 3229 2317 FO
gr

3219 2860 mt 3013 3144 L
gs 2735 1092 1941 2578 rc
  36   36 3219 2860 FO
gr

3140 3084 mt 3067 3587 L
gs 2735 1092 1941 2578 rc
  36   36 3140 3084 FO
gr

c9
3136 3098 mt 3056 3603 L
gs 2744 1103 1929 2574 rc
3100 3098 mt 3172 3098 L
3136 3062 mt 3136 3134 L
gr

3103 2639 mt 3237 2305 L
gs 2744 1103 1929 2574 rc
3067 2639 mt 3139 2639 L
3103 2603 mt 3103 2675 L
gr

c8
3095 2653 mt 3229 2317 L
gs 2735 1092 1941 2578 rc
  36   36 3095 2653 FO
gr

c9
3082 2792 mt 2830 2940 L
gs 2744 1103 1929 2574 rc
3046 2792 mt 3118 2792 L
3082 2756 mt 3082 2828 L
gr

c8
3072 2805 mt 2821 2956 L
gs 2735 1092 1941 2578 rc
  36   36 3072 2805 FO
gr

gs 2735 1092 1941 2578 rc
  36   36 3067 3587 FO
gr

gs 2744 1103 1929 2574 rc
c9
3020 3603 mt 3092 3603 L
3056 3567 mt 3056 3639 L
gr

c9
c8
3025 2953 mt 3095 2653 L
gs 2735 1092 1941 2578 rc
  36   36 3025 2953 FO
gr

c9
3034 2938 mt 3103 2639 L
gs 2744 1103 1929 2574 rc
2998 2938 mt 3070 2938 L
3034 2902 mt 3034 2974 L
gr

c8
3045 2362 mt 3140 3084 L
gs 2735 1092 1941 2578 rc
  36   36 3045 2362 FO
gr

c9
3053 2350 mt 3136 3098 L
gs 2744 1103 1929 2574 rc
3017 2350 mt 3089 2350 L
3053 2314 mt 3053 2386 L
gr

3023 3127 mt 3034 2938 L
gs 2744 1103 1929 2574 rc
2987 3127 mt 3059 3127 L
3023 3091 mt 3023 3163 L
gr

c8
3013 3144 mt 3025 2953 L
gs 2735 1092 1941 2578 rc
  36   36 3013 3144 FO
gr

gr

c8
0 sg
2893 4868 mt 
(Y) s
gs 872 377 5210 4103 rc
c9
2934 2448 mt 3053 2350 L
gs 2744 1103 1929 2574 rc
2898 2448 mt 2970 2448 L
2934 2412 mt 2934 2484 L
gr

c8
2925 2464 mt 3045 2362 L
gs 2735 1092 1941 2578 rc
  36   36 2925 2464 FO
gr

c9
2830 2940 mt 2817 2859 L
gs 2744 1103 1929 2574 rc
2794 2940 mt 2866 2940 L
2830 2904 mt 2830 2976 L
gr

c8
2821 2956 mt 2808 2876 L
gs 2735 1092 1941 2578 rc
  36   36 2821 2956 FO
gr

c9
2817 2859 mt 2934 2448 L
gs 2744 1103 1929 2574 rc
2781 2859 mt 2853 2859 L
2817 2823 mt 2817 2895 L
gr

c8
2808 2876 mt 2925 2464 L
gs 2735 1092 1941 2578 rc
  36   36 2808 2876 FO
gr

gr

c8
0 sg
 855 4522 mt 
( ) s
 396 2638 mt  -90 rotate
(Z) s
90 rotate
1 sg
0 334 1567 0 0 -334 4455 770 4 MP
PP
-1567 0 0 334 1567 0 0 -334 4455 770 5 MP stroke
4 w
DO
SO
6 w
0 sg
4455  770 mt 6022  770 L
4455  436 mt 6022  436 L
4455  770 mt 4455  436 L
6022  770 mt 6022  436 L
4455  770 mt 6022  770 L
4455  770 mt 4455  436 L
4455  770 mt 6022  770 L
4455  436 mt 6022  436 L
4455  770 mt 4455  436 L
6022  770 mt 6022  436 L
4902  571 mt 
(Ground truth) s
gs 4455 436 1568 335 rc
c8
344 0 4523 528 2 MP stroke
gs 4622 455 147 147 rc
  36   36 4695  528 FO
gr

gr

c8
0 sg
4902  720 mt 
(Quadrifocal tracking) s
gs 4455 436 1568 335 rc
c9
344 0 4523 677 2 MP stroke
gs 4622 604 147 147 rc
4659  677 mt 4731  677 L
4695  641 mt 4695  713 L
gr

gr

c9
0 sg
3018 3743 mt 
(Start) s

end %%Color Dict

eplot
%%EndObject

epage
end

showpage

%%Trailer
%%EOF
