%!PS-Adobe-3.0 EPSF-3.0
%%Creator: MATLAB, The MathWorks, Inc. Version 8.1.0.604 (R2013a). Operating System: Darwin 13.3.0 Darwin Kernel Version 13.3.0: Tue Jun  3 21:27:35 PDT 2014; root:xnu-2422.110.17~1/RELEASE_X86_64 x86_64.
%%Title: /Users/Pinglin/ICL/Thesis/materials/figs/ch5/rubust_influence_func.eps
%%CreationDate: 09/22/2014  09:22:30
%%DocumentNeededFonts: Helvetica
%%DocumentProcessColors: Cyan Magenta Yellow Black
%%LanguageLevel: 2
%%Pages: 1
%%BoundingBox:    25   186   586   606
%%EndComments

%%BeginProlog
% MathWorks dictionary
/MathWorks 160 dict begin
% definition operators
/bdef {bind def} bind def
/ldef {load def} bind def
/xdef {exch def} bdef
/xstore {exch store} bdef
% operator abbreviations
/c  /clip ldef
/cc /concat ldef
/cp /closepath ldef
/gr /grestore ldef
/gs /gsave ldef
/mt /moveto ldef
/np /newpath ldef
/cm /currentmatrix ldef
/sm /setmatrix ldef
/rm /rmoveto ldef
/rl /rlineto ldef
/s {show newpath} bdef
/sc {setcmykcolor} bdef
/sr /setrgbcolor ldef
/sg /setgray ldef
/w /setlinewidth ldef
/j /setlinejoin ldef
/cap /setlinecap ldef
/rc {rectclip} bdef
/rf {rectfill} bdef
% page state control
/pgsv () def
/bpage {/pgsv save def} bdef
/epage {pgsv restore} bdef
/bplot /gsave ldef
/eplot {stroke grestore} bdef
% orientation switch
/portraitMode 0 def /landscapeMode 1 def /rotateMode 2 def
% coordinate system mappings
/dpi2point 0 def
% font control
/FontSize 0 def
/FMS {/FontSize xstore findfont [FontSize 0 0 FontSize neg 0 0]
  makefont setfont} bdef
/reencode {exch dup where {pop load} {pop StandardEncoding} ifelse
  exch dup 3 1 roll findfont dup length dict begin
  { 1 index /FID ne {def}{pop pop} ifelse } forall
  /Encoding exch def currentdict end definefont pop} bdef
/isroman {findfont /CharStrings get /Agrave known} bdef
/FMSR {3 1 roll 1 index dup isroman {reencode} {pop pop} ifelse
  exch FMS} bdef
/csm {1 dpi2point div -1 dpi2point div scale neg translate
 dup landscapeMode eq {pop -90 rotate}
  {rotateMode eq {90 rotate} if} ifelse} bdef
% line types: solid, dotted, dashed, dotdash
/SO { [] 0 setdash } bdef
/DO { [.5 dpi2point mul 4 dpi2point mul] 0 setdash } bdef
/DA { [6 dpi2point mul] 0 setdash } bdef
/DD { [.5 dpi2point mul 4 dpi2point mul 6 dpi2point mul 4
  dpi2point mul] 0 setdash } bdef
% macros for lines and objects
/L {lineto stroke} bdef
/MP {3 1 roll moveto 1 sub {rlineto} repeat} bdef
/AP {{rlineto} repeat} bdef
/PDlw -1 def
/W {/PDlw currentlinewidth def setlinewidth} def
/PP {closepath eofill} bdef
/DP {closepath stroke} bdef
/MR {4 -2 roll moveto dup  0 exch rlineto exch 0 rlineto
  neg 0 exch rlineto closepath} bdef
/FR {MR stroke} bdef
/PR {MR fill} bdef
/L1i {{currentfile picstr readhexstring pop} image} bdef
/tMatrix matrix def
/MakeOval {newpath tMatrix currentmatrix pop translate scale
0 0 1 0 360 arc tMatrix setmatrix} bdef
/FO {MakeOval stroke} bdef
/PO {MakeOval fill} bdef
/PD {currentlinewidth 2 div 0 360 arc fill
   PDlw -1 eq not {PDlw w /PDlw -1 def} if} def
/FA {newpath tMatrix currentmatrix pop translate scale
  0 0 1 5 -2 roll arc tMatrix setmatrix stroke} bdef
/PA {newpath tMatrix currentmatrix pop	translate 0 0 moveto scale
  0 0 1 5 -2 roll arc closepath tMatrix setmatrix fill} bdef
/FAn {newpath tMatrix currentmatrix pop translate scale
  0 0 1 5 -2 roll arcn tMatrix setmatrix stroke} bdef
/PAn {newpath tMatrix currentmatrix pop translate 0 0 moveto scale
  0 0 1 5 -2 roll arcn closepath tMatrix setmatrix fill} bdef
/vradius 0 def /hradius 0 def /lry 0 def
/lrx 0 def /uly 0 def /ulx 0 def /rad 0 def
/MRR {/vradius xdef /hradius xdef /lry xdef /lrx xdef /uly xdef
  /ulx xdef newpath tMatrix currentmatrix pop ulx hradius add uly
  vradius add translate hradius vradius scale 0 0 1 180 270 arc 
  tMatrix setmatrix lrx hradius sub uly vradius add translate
  hradius vradius scale 0 0 1 270 360 arc tMatrix setmatrix
  lrx hradius sub lry vradius sub translate hradius vradius scale
  0 0 1 0 90 arc tMatrix setmatrix ulx hradius add lry vradius sub
  translate hradius vradius scale 0 0 1 90 180 arc tMatrix setmatrix
  closepath} bdef
/FRR {MRR stroke } bdef
/PRR {MRR fill } bdef
/MlrRR {/lry xdef /lrx xdef /uly xdef /ulx xdef /rad lry uly sub 2 div def
  newpath tMatrix currentmatrix pop ulx rad add uly rad add translate
  rad rad scale 0 0 1 90 270 arc tMatrix setmatrix lrx rad sub lry rad
  sub translate rad rad scale 0 0 1 270 90 arc tMatrix setmatrix
  closepath} bdef
/FlrRR {MlrRR stroke } bdef
/PlrRR {MlrRR fill } bdef
/MtbRR {/lry xdef /lrx xdef /uly xdef /ulx xdef /rad lrx ulx sub 2 div def
  newpath tMatrix currentmatrix pop ulx rad add uly rad add translate
  rad rad scale 0 0 1 180 360 arc tMatrix setmatrix lrx rad sub lry rad
  sub translate rad rad scale 0 0 1 0 180 arc tMatrix setmatrix
  closepath} bdef
/FtbRR {MtbRR stroke } bdef
/PtbRR {MtbRR fill } bdef
/stri 6 array def /dtri 6 array def
/smat 6 array def /dmat 6 array def
/tmat1 6 array def /tmat2 6 array def /dif 3 array def
/asub {/ind2 exch def /ind1 exch def dup dup
  ind1 get exch ind2 get sub exch } bdef
/tri_to_matrix {
  2 0 asub 3 1 asub 4 0 asub 5 1 asub
  dup 0 get exch 1 get 7 -1 roll astore } bdef
/compute_transform {
  dmat dtri tri_to_matrix tmat1 invertmatrix 
  smat stri tri_to_matrix tmat2 concatmatrix } bdef
/ds {stri astore pop} bdef
/dt {dtri astore pop} bdef
/db {2 copy /cols xdef /rows xdef mul dup 3 mul string
  currentfile 
  3 index 0 eq {/ASCIIHexDecode filter}
  {/ASCII85Decode filter 3 index 2 eq {/RunLengthDecode filter} if }
  ifelse exch readstring pop
  dup 0 3 index getinterval /rbmap xdef
  dup 2 index dup getinterval /gbmap xdef
  1 index dup 2 mul exch getinterval /bbmap xdef pop pop}bdef
/it {gs np dtri aload pop moveto lineto lineto cp c
  cols rows 8 compute_transform 
  rbmap gbmap bbmap true 3 colorimage gr}bdef
/il {newpath moveto lineto stroke}bdef
currentdict end def
%%EndProlog

%%BeginSetup
MathWorks begin

0 cap

end
%%EndSetup

%%Page: 1 1
%%BeginPageSetup
%%PageBoundingBox:    25   186   586   606
MathWorks begin
bpage
%%EndPageSetup

%%BeginObject: obj1
bplot

/dpi2point 12 def
portraitMode 0300 7272 csm

    0     0  6732  5033 rc
87 dict begin %Colortable dictionary
/c0 { 0.000000 0.000000 0.000000 sr} bdef
/c1 { 1.000000 1.000000 1.000000 sr} bdef
/c2 { 0.900000 0.000000 0.000000 sr} bdef
/c3 { 0.000000 0.820000 0.000000 sr} bdef
/c4 { 0.000000 0.000000 0.800000 sr} bdef
/c5 { 0.910000 0.820000 0.320000 sr} bdef
/c6 { 1.000000 0.260000 0.820000 sr} bdef
/c7 { 0.000000 0.820000 0.820000 sr} bdef
c0
1 j
1 sg
   0    0 6733 5034 rf
6 w
0 4102 5217 0 0 -4102 875 4479 4 MP
PP
-5217 0 0 4102 5217 0 0 -4102 875 4479 5 MP stroke
4 w
DO
0 sg
 875 4479 mt  875  377 L
 875  377 mt  875  377 L
1396 4479 mt 1396  377 L
1396  377 mt 1396  377 L
1918 4479 mt 1918  377 L
1918  377 mt 1918  377 L
2440 4479 mt 2440  377 L
2440  377 mt 2440  377 L
2961 4479 mt 2961  377 L
2961  377 mt 2961  377 L
3483 4479 mt 3483  377 L
3483  377 mt 3483  377 L
4005 4479 mt 4005  377 L
4005  377 mt 4005  377 L
4526 4479 mt 4526  377 L
4526  377 mt 4526  377 L
5048 4479 mt 5048  377 L
5048  377 mt 5048  377 L
5570 4479 mt 5570  377 L
5570  377 mt 5570  377 L
6092 4479 mt 6092  377 L
6092  377 mt 6092  377 L
 875 4479 mt 6092 4479 L
6092 4479 mt 6092 4479 L
 875 3795 mt 6092 3795 L
6092 3795 mt 6092 3795 L
 875 3111 mt 6092 3111 L
6092 3111 mt 6092 3111 L
 875 2428 mt 6092 2428 L
6092 2428 mt 6092 2428 L
 875 1744 mt 6092 1744 L
6092 1744 mt 6092 1744 L
 875 1060 mt 6092 1060 L
6092 1060 mt 6092 1060 L
 875  377 mt 6092  377 L
6092  377 mt 6092  377 L
SO
6 w
 875 4479 mt 6092 4479 L
 875  377 mt 6092  377 L
 875 4479 mt  875  377 L
6092 4479 mt 6092  377 L
 875 4479 mt 6092 4479 L
 875 4479 mt  875  377 L
 875 4479 mt  875 4426 L
 875  377 mt  875  429 L
%%IncludeResource: font Helvetica
/Helvetica /ISOLatin1Encoding 120 FMSR

 772 4624 mt 
(-1) s
1396 4479 mt 1396 4426 L
1396  377 mt 1396  429 L
1243 4624 mt 
(-0.8) s
1918 4479 mt 1918 4426 L
1918  377 mt 1918  429 L
1765 4624 mt 
(-0.6) s
2440 4479 mt 2440 4426 L
2440  377 mt 2440  429 L
2287 4624 mt 
(-0.4) s
2961 4479 mt 2961 4426 L
2961  377 mt 2961  429 L
2808 4624 mt 
(-0.2) s
3483 4479 mt 3483 4426 L
3483  377 mt 3483  429 L
3450 4624 mt 
(0) s
4005 4479 mt 4005 4426 L
4005  377 mt 4005  429 L
3922 4624 mt 
(0.2) s
4526 4479 mt 4526 4426 L
4526  377 mt 4526  429 L
4443 4624 mt 
(0.4) s
5048 4479 mt 5048 4426 L
5048  377 mt 5048  429 L
4965 4624 mt 
(0.6) s
5570 4479 mt 5570 4426 L
5570  377 mt 5570  429 L
5487 4624 mt 
(0.8) s
6092 4479 mt 6092 4426 L
6092  377 mt 6092  429 L
6059 4624 mt 
(1) s
 875 4479 mt  927 4479 L
6092 4479 mt 6039 4479 L
 604 4523 mt 
(-1.5) s
 875 3795 mt  927 3795 L
6092 3795 mt 6039 3795 L
 704 3839 mt 
(-1) s
 875 3111 mt  927 3111 L
6092 3111 mt 6039 3111 L
 604 3155 mt 
(-0.5) s
 875 2428 mt  927 2428 L
6092 2428 mt 6039 2428 L
 774 2472 mt 
(0) s
 875 1744 mt  927 1744 L
6092 1744 mt 6039 1744 L
 674 1788 mt 
(0.5) s
 875 1060 mt  927 1060 L
6092 1060 mt 6039 1060 L
 774 1104 mt 
(1) s
 875  377 mt  927  377 L
6092  377 mt 6039  377 L
 674  421 mt 
(1.5) s
 875 4479 mt 6092 4479 L
 875  377 mt 6092  377 L
 875 4479 mt  875  377 L
6092 4479 mt 6092  377 L
gs 875 377 5218 4103 rc
14.4 w
/c8 { 1.000000 0.000000 0.000000 sr} bdef
c8
3 -2 3 -1 2 -1 3 -2 3 -1 2 -1 3 -2 2 -1 
3 -1 3 -2 2 -1 3 -2 2 -1 3 -1 3 -2 2 -1 
3 -1 2 -2 3 -1 3 -2 2 -1 3 -1 2 -2 3 -1 
3 -1 2 -2 3 -1 3 -1 2 -2 3 -1 2 -2 3 -1 
3 -1 2 -2 3 -1 2 -1 3 -2 3 -1 2 -1 3 -2 
2 -1 3 -2 3 -1 2 -1 3 -2 2 -1 3 -1 3 -2 
2 -1 3 -2 3 -1 2 -1 3 -2 2 -1 3 -1 3 -2 
2 -1 3 -1 2 -2 3 -1 3 -2 2 -1 3 -1 2 -2 
3 -1 3 -1 2 -2 3 -1 2 -2 3 -1 3 -1 2 -2 
3 -1 3 -1 2 -2 3 -1 2 -1 3 -2 3 -1 2 -2 
3 -1 2 -1 3 -2 3 -1 2 -1 3 -2 2 -1 3 -1 
3 -2 2 -1 3 -2 2 -1 3 -1 3 -2 2 -1 3 -1 
3 -2 2 -1 3 -2 2 -1 3 -1 3 -2 2 -1 3 -1 
2 -2 3 -1 3 -1 2 -2 3 -1 2 -2 3 -1 3 -1 
2 -2 3 -1 2 -1 3 -2 3 -1 2 -2 3 -1 3 -1 
2 -2 3 -1 2 -1 3 -2 3 -1 2 -1 3 -2 2 -1 
3 -2 3 -1 2 -1 3 -2 2 -1 3 -1 3 -2 2 -1 
3 -1 2 -2 3 -1 3 -2 2 -1 3 -1 3 -2 2 -1 
3 -1 2 -2 3 -1 3 -2 2 -1 3 -1 2 -2 3 -1 
3 -1 2 -2 3 -1 2 -1 3 -2 3 -1 2 -2 3 -1 
2 -1 3 -2 3 -1 2 -1 3 -2 3 -1 2 -2 3 -1 
2 -1 3 -2 3 -1 2 -1 3 -2 2 -1 3 -1 3 -2 
2 -1 3 -2 2 -1 3 -1 3 -2 2 -1 3 -1 2 -2 
3 -1 3 -1 2 -2 3 -1 3 -2 2 -1 3 -1 2 -2 
3 -1 3 -1 2 -2 3 -1 2 -2 3 -1 3 -1 2 -2 
3 -1 2 -1 3 -2 3 -1 2 -1 3 -2 2 -1 3 -2 
3 -1 2 -1 3 -2 3 -1 2 -1 3 -2 2 -1 3 -2 
3 -1 2 -1 3 -2 2 -1 3 -1 3 -2 2 -1 3 -1 
2 -2 3 -1 3 -2 2 -1 3 -1 2 -2 3 -1 3 -1 
2 -2 3 -1 2 -1 3 -2 3 -1 2 -2 3 -1 3 -1 
2 -2 3 -1 2 -1 3 -2 3 -1 2 -2 3 -1 2 -1 
3 -2 3 -1 2 -1 3 -2 2 -1 3 -1 3 -2 2 -1 
3 -2 2 -1 3 -1 3 -2 2 -1 3 -1 3 -2 2 -1 
3 -2 2 -1 3 -1 3 -2 2 -1 3 -1 2 -2 3 -1 
3 -1 2 -2 3 -1 2 -2 3 -1 3 -1 2 -2 3 -1 
2 -1 3 -2 3 -1 2 -1 3 -2 3 -1 2 -2 3 -1 
2 -1 3 -2 3 -1 2 -1 3 -2 2 -1 3 -2 3 -1 
2 -1 3 -2 2 -1 5312 1469 300 MP stroke
3 -1 3 -2 2 -1 3 -1 2 -2 3 -1 3 -2 2 -1 
3 -1 3 -2 2 -1 3 -1 2 -2 3 -1 3 -2 2 -1 
3 -1 2 -2 3 -1 3 -1 2 -2 3 -1 2 -1 3 -2 
3 -1 2 -2 3 -1 2 -1 3 -2 3 -1 2 -1 3 -2 
3 -1 2 -1 3 -2 2 -1 3 -2 3 -1 2 -1 3 -2 
2 -1 3 -1 3 -2 2 -1 3 -2 2 -1 3 -1 3 -2 
2 -1 3 -1 2 -2 3 -1 3 -1 2 -2 3 -1 3 -2 
2 -1 3 -1 2 -2 3 -1 3 -1 2 -2 3 -1 2 -2 
3 -1 3 -1 2 -2 3 -1 2 -1 3 -2 3 -1 2 -1 
3 -2 2 -1 3 -2 3 -1 2 -1 3 -2 3 -1 2 -1 
3 -2 2 -1 3 -1 3 -2 2 -1 3 -2 2 -1 3 -1 
3 -2 2 -1 3 -1 2 -2 3 -1 3 -2 2 -1 3 -1 
2 -2 3 -1 3 -1 2 -2 3 -1 3 -1 2 -2 3 -1 
2 -2 3 -1 3 -1 2 -2 3 -1 2 -1 3 -2 3 -1 
2 -2 3 -1 2 -1 3 -2 3 -1 2 -1 3 -2 2 -1 
3 -1 3 -2 2 -1 3 -2 3 -1 2 -1 3 -2 2 -1 
3 -1 3 -2 2 -1 3 -1 2 -2 3 -1 3 -2 2 -1 
3 -1 2 -2 3 -1 3 -1 2 -2 3 -1 2 -2 3 -1 
3 -1 2 -2 3 -1 2 -1 3 -2 3 -1 2 -1 3 -2 
3 -1 2 -2 3 -1 2 -1 3 -2 3 -1 2 -1 3 -2 
2 -1 3 -2 3 -1 2 -1 3 -2 2 -1 3 -1 3 -2 
2 -1 3 -1 2 -2 3 -1 3 -2 2 -1 3 -1 3 -2 
2 -1 3 -1 2 -2 3 -1 3 -1 2 -2 3 -1 2 -2 
3 -1 3 -1 2 -2 3 -1 2 -1 3 -2 3 -1 2 -2 
3 -1 2 -1 3 -2 3 -1 2 -1 3 -2 3 -1 2 -1 
3 -2 2 -1 3 -2 3 -1 2 -1 3 -2 2 -1 3 -1 
3 -2 2 -1 3 -2 2 -1 3 -1 3 -2 2 -1 3 -1 
2 -2 3 -1 3 -1 2 -2 3 -1 3 -2 2 -1 3 -1 
2 -2 3 -1 3 -1 2 -2 3 -1 2 -1 3 -2 3 -1 
2 -2 3 -1 2 -1 3 -2 3 -1 2 -1 3 -2 2 -1 
3 -2 3 -1 2 -1 3 -2 3 -1 2 -1 3 -2 2 -1 
3 -1 3 -2 2 -1 3 -2 2 -1 3 -1 3 -2 2 -1 
3 -1 2 -2 3 -1 3 -2 2 -1 3 -1 2 -2 3 -1 
3 -1 2 -2 3 -1 3 -1 2 -2 3 -1 2 -2 3 -1 
3 -1 2 -2 3 -1 2 -1 3 -2 3 -1 2 -1 3 -2 
2 -1 3 -2 3 -1 2 -1 3 -2 2 -1 3 -1 3 -2 
2 -1 3 -2 3 -1 2 -1 3 -2 2 -1 3 -1 3 -2 
2 -1 3 -1 2 -2 4532 1878 300 MP stroke
3 -1 3 -2 2 -1 3 -1 2 -2 3 -1 3 -1 2 -2 
3 -1 2 -2 3 -1 3 -1 2 -2 3 -1 3 -1 2 -2 
3 -1 2 -1 3 -2 3 -1 2 -2 3 -1 2 -1 3 -2 
3 -1 2 -1 3 -2 2 -1 3 -1 3 -2 2 -1 3 -2 
2 -1 3 -1 3 -2 2 -1 3 -1 3 -2 2 -1 3 -2 
2 -1 3 -1 3 -2 2 -1 3 -1 2 -2 3 -1 3 -1 
2 -2 3 -1 2 -2 3 -1 3 -1 2 -2 3 -1 2 -1 
3 -2 3 -1 2 -2 3 -1 3 -1 2 -2 3 -1 2 -1 
3 -2 3 -1 2 -1 3 -2 2 -1 3 -2 3 -1 2 -1 
3 -2 2 -1 3 -1 3 -2 2 -1 3 -1 2 -2 3 -1 
3 -2 2 -1 3 -1 2 -2 3 -1 3 -1 2 -2 3 -1 
3 -2 2 -1 3 -1 2 -2 3 -1 3 -1 2 -2 3 -1 
2 -1 3 -2 3 -1 2 -2 3 -1 2 -1 3 -2 3 -1 
2 -1 3 -2 2 -1 3 -2 3 -1 2 -1 3 -2 3 -1 
2 -1 3 -2 2 -1 3 -1 3 -2 2 -1 3 -2 2 -1 
3 -1 3 -2 2 -1 3 -1 2 -2 3 -1 3 -1 2 -2 
3 -1 2 -2 3 -1 3 -1 2 -2 3 -1 3 -1 2 -2 
3 -1 2 -2 3 -1 3 -1 2 -2 3 -1 2 -1 3 -2 
3 -1 2 -1 3 -2 2 -1 3 -2 3 -1 2 -1 3 -2 
2 -1 3 -1 3 -2 2 -1 3 -2 3 -1 2 -1 3 -2 
2 -1 3 -1 3 -2 2 -1 3 -1 2 -2 3 -1 3 -2 
2 -1 3 -1 2 -2 3 -1 3 -1 2 -2 3 -1 2 -1 
3 -2 3 -1 2 -2 3 -1 3 -1 2 -2 3 -1 2 -1 
3 -2 3 -1 2 -2 3 -1 2 -1 3 -2 3 -1 2 -1 
3 -2 2 -1 3 -1 3 -2 2 -1 3 -2 2 -1 3 -1 
3 -2 2 -1 3 -1 3 -2 2 -1 3 -2 2 -1 3 -1 
3 -2 2 -1 3 -1 2 -2 3 -1 3 -1 2 -2 3 -1 
2 -2 3 -1 3 -1 2 -2 3 -1 2 -1 3 -2 3 -1 
2 -1 3 -2 3 -1 2 -2 3 -1 2 -1 3 -2 3 -1 
2 -1 3 -2 2 -1 3 -2 3 -1 2 -1 3 -2 2 -1 
3 -1 3 -2 2 -1 3 -1 2 -2 3 -1 3 -2 2 -1 
3 -1 3 -2 2 -1 3 -1 2 -2 3 -1 3 -2 2 -1 
3 -1 2 -2 3 -1 3 -1 2 -2 3 -1 2 -1 3 -2 
3 -1 2 -2 3 -1 2 -1 3 -2 3 -1 2 -1 3 -2 
3 -1 2 -1 3 -2 2 -1 3 -2 3 -1 2 -1 3 -2 
2 -1 3 -1 3 -2 2 -1 3 -2 2 -1 3 -1 3 -2 
2 -1 3 -1 2 -2 3 -1 3 -1 2 -2 3 -1 2 -2 
3 -1 3 -1 2 -2 3752 2287 300 MP stroke
3 -1 3 -1 2 -2 3 -1 2 -2 3 -1 3 -1 2 -2 
3 -1 2 -1 3 -2 3 -1 2 -1 3 -2 2 -1 3 -2 
3 -1 2 -1 3 -2 2 -1 3 -1 3 -2 2 -1 3 -1 
3 -2 2 -1 3 -2 2 -1 3 -1 3 -2 2 -1 3 -1 
2 -2 3 -1 3 -2 2 -1 3 -1 2 -2 3 -1 3 -1 
2 -2 3 -1 2 -1 3 -2 3 -1 2 -2 3 -1 3 -1 
2 -2 3 -1 2 -1 3 -2 3 -1 2 -2 3 -1 2 -1 
3 -2 3 -1 2 -1 3 -2 2 -1 3 -1 3 -2 2 -1 
3 -2 2 -1 3 -1 3 -2 2 -1 3 -1 3 -2 2 -1 
3 -1 2 -2 3 -1 3 -2 2 -1 3 -1 2 -2 3 -1 
3 -1 2 -2 3 -1 2 -2 3 -1 3 -1 2 -2 3 -1 
2 -1 3 -2 3 -1 2 -1 3 -2 3 -1 2 -2 3 -1 
2 -1 3 -2 3 -1 2 -1 3 -2 2 -1 3 -2 3 -1 
2 -1 3 -2 2 -1 3 -1 3 -2 2 -1 3 -1 2 -2 
3 -1 3 -2 2 -1 3 -1 3 -2 2 -1 3 -1 2 -2 
3 -1 3 -1 2 -2 3 -1 2 -2 3 -1 3 -1 2 -2 
3 -1 2 -1 3 -2 3 -1 2 -2 3 -1 2 -1 3 -2 
3 -1 2 -1 3 -2 3 -1 2 -1 3 -2 2 -1 3 -2 
3 -1 2 -1 3 -2 2 -1 3 -1 3 -2 2 -1 3 -1 
2 -2 3 -1 3 -2 2 -1 3 -1 2 -2 3 -1 3 -1 
2 -2 3 -1 3 -2 2 -1 3 -1 2 -2 3 -1 3 -1 
2 -2 3 -1 2 -1 3 -2 3 -1 2 -2 3 -1 2 -1 
3 -2 3 -1 2 -1 3 -2 2 -1 3 -2 3 -1 2 -1 
3 -2 3 -1 2 -1 3 -2 2 -1 3 -1 3 -2 2 -1 
3 -2 2 -1 3 -1 3 -2 2 -1 3 -1 2 -2 3 -1 
3 -1 2 -2 3 -1 2 -2 3 -1 3 -1 2 -2 3 -1 
3 -1 2 -2 3 -1 2 -2 3 -1 3 -1 2 -2 3 -1 
2 -1 3 -2 3 -1 2 -1 3 -2 2 -1 3 -2 3 -1 
2 -1 3 -2 2 -1 3 -1 3 -2 2 -1 3 -2 2 -1 
3 -1 3 -2 2 -1 3 -1 3 -2 2 -1 3 -1 2 -2 
3 -1 3 -2 2 -1 3 -1 2 -2 3 -1 3 -1 2 -2 
3 -1 2 -1 3 -2 3 -1 2 -2 3 -1 2 -1 3 -2 
3 -1 2 -1 3 -2 3 -1 2 -2 3 -1 2 -1 3 -2 
3 -1 2 -1 3 -2 2 -1 3 -1 3 -2 2 -1 3 -2 
2 -1 3 -1 3 -2 2 -1 3 -1 2 -2 3 -1 3 -2 
2 -1 3 -1 3 -2 2 -1 3 -1 2 -2 3 -1 3 -1 
2 -2 3 -1 2 -2 3 -1 3 -1 2 -2 3 -1 2 -1 
3 -2 3 -1 2 -1 2972 2695 300 MP stroke
3 -2 2 -1 3 -2 3 -1 2 -1 3 -2 3 -1 2 -1 
3 -2 2 -1 3 -2 3 -1 2 -1 3 -2 2 -1 3 -1 
3 -2 2 -1 3 -1 2 -2 3 -1 3 -2 2 -1 3 -1 
2 -2 3 -1 3 -1 2 -2 3 -1 3 -2 2 -1 3 -1 
2 -2 3 -1 3 -1 2 -2 3 -1 2 -1 3 -2 3 -1 
2 -2 3 -1 2 -1 3 -2 3 -1 2 -1 3 -2 2 -1 
3 -1 3 -2 2 -1 3 -2 3 -1 2 -1 3 -2 2 -1 
3 -1 3 -2 2 -1 3 -2 2 -1 3 -1 3 -2 2 -1 
3 -1 2 -2 3 -1 3 -1 2 -2 3 -1 2 -2 3 -1 
3 -1 2 -2 3 -1 3 -1 2 -2 3 -1 2 -2 3 -1 
3 -1 2 -2 3 -1 2 -1 3 -2 3 -1 2 -1 3 -2 
2 -1 3 -2 3 -1 2 -1 3 -2 2 -1 3 -1 3 -2 
2 -1 3 -1 3 -2 2 -1 3 -2 2 -1 3 -1 3 -2 
2 -1 3 -1 2 -2 3 -1 3 -2 2 -1 3 -1 2 -2 
3 -1 3 -1 2 -2 3 -1 2 -1 3 -2 3 -1 2 -2 
3 -1 3 -1 2 -2 3 -1 2 -1 3 -2 3 -1 2 -2 
3 -1 2 -1 3 -2 3 -1 2 -1 3 -2 2 -1 3 -1 
3 -2 2 -1 3 -2 2 -1 3 -1 3 -2 2 -1 3 -1 
2 -2 3 -1 3 -1 2 -2 3 -1 3 -2 2 -1 3 -1 
2 -2 3 -1 3 -1 2 -2 3 -1 2 -2 3 -1 3 -1 
2 -2 3 -1 2 -1 3 -2 3 -1 2 -1 3 -2 2 -1 
3 -2 3 -1 2 -1 3 -2 3 -1 2 -1 3 -2 2 -1 
3 -2 3 -1 2 -1 3 -2 2 -1 3 -1 3 -2 2 -1 
3 -1 2 -2 3 -1 3 -2 2 -1 3 -1 2 -2 3 -1 
3 -1 2 -2 3 -1 3 -1 2 -2 3 -1 2 -2 3 -1 
3 -1 2 -2 3 -1 2 -1 3 -2 3 -1 2 -2 3 -1 
2 -1 3 -2 3 -1 2 -1 3 -2 2 -1 3 -1 3 -2 
2 -1 3 -2 3 -1 2 -1 3 -2 2 -1 3 -1 3 -2 
2 -1 3 -2 2 -1 3 -1 3 -2 2 -1 3 -1 2 -2 
3 -1 3 -1 2 -2 3 -1 2 -2 3 -1 3 -1 2 -2 
3 -1 3 -1 2 -2 3 -1 2 -1 3 -2 3 -1 2 -2 
3 -1 2 -1 3 -2 3 -1 2 -1 3 -2 2 -1 3 -2 
3 -1 2 -1 3 -2 2 -1 3 -1 3 -2 2 -1 3 -1 
3 -2 2 -1 3 -2 2 -1 3 -1 3 -2 2 -1 3 -1 
2 -2 3 -1 3 -2 2 -1 3 -1 2 -2 3 -1 3 -1 
2 -2 3 -1 2 -1 3 -2 3 -1 2 -2 3 -1 3 -1 
2 -2 3 -1 2 -1 3 -2 3 -1 2 -1 3 -2 2 -1 
3 -2 3 -1 2 -1 2192 3104 300 MP stroke
3 -2 2 -1 3 -1 3 -2 2 -1 3 -2 2 -1 3 -1 
3 -2 2 -1 3 -1 3 -2 2 -1 3 -1 2 -2 3 -1 
3 -2 2 -1 3 -1 2 -2 3 -1 3 -1 2 -2 3 -1 
2 -2 3 -1 3 -1 2 -2 3 -1 2 -1 3 -2 3 -1 
2 -1 3 -2 3 -1 2 -2 3 -1 2 -1 3 -2 3 -1 
2 -1 3 -2 2 -1 3 -1 3 -2 2 -1 3 -2 2 -1 
3 -1 3 -2 2 -1 3 -1 2 -2 3 -1 3 -2 2 -1 
3 -1 3 -2 2 -1 3 -1 2 -2 3 -1 3 -1 2 -2 
3 -1 2 -2 3 -1 3 -1 2 -2 3 -1 2 -1 3 -2 
3 -1 2 -2 3 -1 2 -1 3 -2 3 -1 2 -1 3 -2 
2 -1 3 -1 3 -2 2 -1 3 -2 3 -1 2 -1 3 -2 
2 -1 3 -1 3 -2 2 -1 3 -1 2 -2 3 -1 3 -2 
2 -1 3 -1 2 -2 3 -1 3 -1 2 -2 3 -1 2 -2 
3 -1 3 -1 2 -2 3 -1 3 -1 2 -2 3 -1 2 -1 
3 -2 3 -1 2 -2 3 -1 2 -1 3 -2 3 -1 2 -1 
3 -2 2 -1 3 -2 3 -1 2 -1 3 -2 2 -1 3 -1 
3 -2 2 -1 3 -1 3 -2 2 -1 3 -2 2 -1 3 -1 
3 -2 2 -1 3 -1 2 -2 3 -1 3 -1 2 -2 3 -1 
2 -2 3 -1 3 -1 2 -2 3 -1 2 -1 3 -2 3 -1 
2 -2 3 -1 3 -1 2 -2 3 -1 2 -1 3 -2 3 -1 
2 -1 3 -2 2 -1 3 -2 3 -1 2 -1 3 -2 2 -1 
3 -1 3 -2 2 -1 3 -2 2 -1 3 -1 3 -2 2 -1 
3 -1 3 -2 2 -1 3 -1 2 -2 3 -1 3 -2 2 -1 
3 -1 2 -2 3 -1 3 -1 2 -2 3 -1 2 -1 3 -2 
3 -1 2 -2 3 -1 2 -1 3 -2 3 -1 2 -1 3 -2 
3 -1 2 -2 3 -1 2 -1 3 -2 3 -1 2 -1 3 -2 
2 -1 3 -1 3 -2 2 -1 3 -2 2 -1 3 -1 3 -2 
2 -1 3 -1 2 -2 3 -1 3 -2 2 -1 3 -1 3 -2 
2 -1 3 -1 2 -2 3 -1 3 -1 2 -2 3 -1 2 -2 
3 -1 3 -1 2 -2 3 -1 2 -1 3 -2 3 -1 2 -1 
3 -2 2 -1 3 -2 3 -1 2 -1 3 -2 3 -1 2 -1 
3 -2 2 -1 3 -2 3 -1 2 -1 3 -2 2 -1 3 -1 
3 -2 2 -1 3 -1 2 -2 3 -1 3 -2 2 -1 3 -1 
2 -2 3 -1 3 -1 2 -2 3 -1 3 -2 2 -1 3 -1 
2 -2 3 -1 3 -1 2 -2 3 -1 2 -1 3 -2 3 -1 
2 -2 3 -1 2 -1 3 -2 3 -1 2 -1 3 -2 2 -1 
3 -1 3 -2 2 -1 3 -2 2 -1 3 -1 3 -2 2 -1 
3 -1 3 -2 2 -1 1412 3513 300 MP stroke
3 -2 2 -1 3 -1 3 -2 2 -1 3 -1 2 -2 3 -1 
3 -1 2 -2 3 -1 2 -2 3 -1 3 -1 2 -2 3 -1 
2 -1 3 -2 3 -1 2 -2 3 -1 3 -1 2 -2 3 -1 
2 -1 3 -2 3 -1 2 -1 3 -2 2 -1 3 -2 3 -1 
2 -1 3 -2 2 -1 3 -1 3 -2 2 -1 3 -1 2 -2 
3 -1 3 -2 2 -1 3 -1 3 -2 2 -1 3 -1 2 -2 
3 -1 3 -2 2 -1 3 -1 2 -2 3 -1 3 -1 2 -2 
3 -1 2 -1 3 -2 3 -1 2 -2 3 -1 2 -1 3 -2 
3 -1 2 -1 3 -2 3 -1 2 -2 3 -1 2 -1 3 -2 
3 -1 2 -1 3 -2 2 -1 3 -1 3 -2 2 -1 3 -2 
2 -1 3 -1 3 -2 2 -1 3 -1 2 -2 3 -1 3 -1 
2 -2 3 -1 3 -2 2 -1 3 -1 2 -2 3 -1 3 -1 
2 -2 3 -1 2 -2 3 -1 3 -1 2 -2 3 -1 2 -1 
3 -2 3 -1 2 -1 3 -2 2 -1 3 -2 3 -1 2 -1 
3 -2 3 -1 2 -1 3 -2 2 -1 3 -2 3 -1 2 -1 
3 -2 2 -1 3 -1 3 -2 2 -1 3 -1 2 -2 3 -1 
3 -2 2 -1 3 -1 2 -2 3 -1 3 -1 2 -2 3 -1 
3 -1 2 -2 3 -1 2 -2 3 -1 3 -1 2 -2 3 -1 
2 -1 3 -2 3 -1 2 -2 3 -1 2 -1 3 -2 3 -1 
2 -1 3 -2 2 -1 3 -1 3 -2 2 -1 3 -2 3 -1 
2 -1 3 -2 2 -1 3 -1 3 -2 2 -1 3 -2 2 -1 
3 -1 3 -2 2 -1 3 -1 2 -2 3 -1 3 -1 2 -2 
3 -1 2 -2 3 -1 3 -1 2 -2 3 -1 3 -1 2 -2 
3 -1 2 -1 3 -2 3 -1 2 -2 3 -1 2 -1 3 -2 
3 -1 2 -1 3 -2 2 -1 3 -2 3 -1 2 -1 3 -2 
2 -1 3 -1 3 -2 2 -1 3 -1 2 -2 875 3795 207 MP stroke
/c9 { 0.000000 1.000000 0.000000 sr} bdef
c9
3 0 3 0 2 0 3 0 3 0 2 0 3 0 2 0 
3 0 3 0 2 0 3 0 2 0 3 0 3 0 2 0 
3 0 2 0 3 0 3 0 2 0 3 0 2 0 3 0 
3 0 2 0 3 0 3 0 2 0 3 0 2 0 3 0 
3 0 2 0 3 0 2 0 3 0 3 0 2 0 3 0 
2 0 3 0 3 0 2 0 3 0 2 0 3 0 3 0 
2 0 3 0 3 0 2 0 3 0 2 0 3 0 3 0 
2 0 3 0 2 0 3 0 3 0 2 0 3 0 2 0 
3 0 3 0 2 0 3 0 2 0 3 0 3 0 2 0 
3 0 3 0 2 0 3 0 2 0 3 0 3 0 2 0 
3 0 2 0 3 0 3 0 2 0 3 0 2 0 3 0 
3 0 2 0 3 0 2 0 3 0 3 0 2 0 3 0 
3 0 2 0 3 0 2 0 3 0 3 0 2 0 3 0 
2 0 3 0 3 0 2 0 3 0 2 0 3 0 3 0 
2 0 3 0 2 0 3 0 3 0 2 0 3 0 3 0 
2 0 3 0 2 0 3 0 3 0 2 0 3 0 2 0 
3 0 3 0 2 0 3 0 2 0 3 0 3 0 2 0 
3 0 2 0 3 0 3 0 2 0 3 0 3 0 2 0 
3 0 2 0 3 0 3 0 2 0 3 0 2 0 3 0 
3 0 2 0 3 0 2 0 3 0 3 0 2 0 3 0 
2 0 3 0 3 0 2 0 3 0 3 0 2 0 3 0 
2 0 3 0 3 0 2 0 3 0 2 0 3 0 3 0 
2 0 3 0 2 0 3 0 3 0 2 0 3 0 2 0 
3 0 3 0 2 0 3 0 3 0 2 0 3 0 2 0 
3 0 3 0 2 0 3 0 2 0 3 0 3 0 2 0 
3 0 2 0 3 0 3 0 2 0 3 0 2 0 3 0 
3 0 2 0 3 0 3 0 2 0 3 0 2 0 3 0 
3 0 2 0 3 0 2 0 3 0 3 0 2 0 3 0 
2 0 3 0 3 0 2 0 3 0 2 0 3 0 3 0 
2 0 3 0 2 0 3 0 3 0 2 0 3 0 3 0 
2 0 3 0 2 0 3 0 3 0 2 0 3 0 2 0 
3 0 3 0 2 0 3 0 2 0 3 0 3 0 2 0 
3 0 2 0 3 0 3 0 2 0 3 0 3 0 2 0 
3 0 2 0 3 0 3 0 2 0 3 0 2 0 3 0 
3 0 2 0 3 0 2 0 3 0 3 0 2 0 3 0 
2 0 3 0 3 0 2 0 3 0 3 0 2 0 3 0 
2 0 3 0 3 0 2 0 3 0 2 0 3 0 3 0 
2 0 3 0 2 0 5312 1060 300 MP stroke
3 0 3 0 2 0 3 0 2 0 3 0 3 0 2 0 
3 0 3 0 2 0 3 0 2 0 3 0 3 0 2 0 
3 0 2 0 3 0 3 0 2 0 3 0 2 0 3 0 
3 0 2 0 3 0 2 0 3 0 3 0 2 0 3 0 
3 0 2 0 3 0 2 0 3 0 3 0 2 0 3 0 
2 0 3 0 3 0 2 0 3 0 2 0 3 0 3 0 
2 0 3 0 2 0 3 0 3 0 2 0 3 0 3 0 
2 0 3 0 2 0 3 0 3 0 2 0 3 0 2 0 
3 0 3 0 2 0 3 0 2 0 3 0 3 0 2 0 
3 0 2 0 3 0 3 0 2 0 3 0 3 0 2 0 
3 0 2 0 3 0 3 0 2 0 3 0 2 0 3 0 
3 0 2 0 3 0 2 0 3 0 3 0 2 0 3 0 
2 0 3 0 3 0 2 0 3 0 3 0 2 0 3 0 
2 0 3 0 3 0 2 0 3 0 2 0 3 0 3 0 
2 0 3 0 2 0 3 0 3 0 2 0 3 0 2 0 
3 0 3 0 2 0 3 0 3 0 2 0 3 0 2 0 
3 0 3 0 2 0 3 0 2 0 3 0 3 0 2 0 
3 0 2 0 3 0 3 0 2 0 3 0 2 0 3 0 
3 0 2 0 3 0 2 0 3 0 3 0 2 0 3 0 
3 0 2 0 3 0 2 0 3 0 3 0 2 0 3 0 
2 0 3 0 3 0 2 0 3 0 2 0 3 0 3 0 
2 0 3 0 2 0 3 0 3 0 2 0 3 0 3 0 
2 0 3 0 2 0 3 0 3 0 2 0 3 0 2 0 
3 0 3 0 2 0 3 0 2 0 3 0 3 0 2 0 
3 0 2 0 3 0 3 0 2 0 3 0 3 0 2 0 
3 0 2 0 3 0 3 0 2 0 3 0 2 0 3 0 
3 0 2 0 3 0 2 0 3 0 3 0 2 0 3 0 
2 0 3 0 3 0 2 0 3 0 3 0 2 0 3 0 
2 0 3 0 3 0 2 0 3 0 2 0 3 0 3 0 
2 0 3 0 2 0 3 0 3 0 2 0 3 0 2 0 
3 0 3 0 2 0 3 0 3 0 2 0 3 0 2 0 
3 0 3 0 2 0 3 0 2 0 3 0 3 0 2 0 
3 0 2 0 3 0 3 0 2 0 3 0 2 0 3 0 
3 0 2 0 3 0 3 0 2 0 3 0 2 0 3 0 
3 0 2 0 3 0 2 0 3 0 3 0 2 0 3 0 
2 0 3 0 3 0 2 0 3 0 2 0 3 0 3 0 
2 0 3 0 3 0 2 0 3 0 2 0 3 0 3 0 
2 0 3 0 2 0 4532 1060 300 MP stroke
3 0 3 0 2 0 3 0 2 0 3 0 3 0 2 0 
3 0 2 0 3 0 3 0 2 0 3 0 3 0 2 0 
3 0 2 0 3 0 3 0 2 0 3 0 2 0 3 0 
3 0 2 0 3 0 2 0 3 0 3 0 2 0 3 0 
2 0 3 0 3 0 2 0 3 0 3 0 2 0 3 0 
2 0 3 0 3 0 2 0 3 0 2 0 3 0 3 0 
2 0 3 0 2 0 3 0 3 0 2 0 3 0 2 0 
3 0 3 0 2 0 3 0 3 0 2 0 3 0 2 0 
3 0 3 0 2 0 3 0 2 0 3 0 3 0 2 0 
3 0 2 0 3 0 3 0 2 0 3 0 2 0 3 0 
3 0 2 0 3 0 2 0 3 0 3 0 2 0 3 0 
3 0 2 0 3 0 2 0 3 0 3 0 2 0 3 0 
2 0 3 0 3 0 2 0 3 0 2 0 3 0 3 0 
2 0 3 0 2 0 3 0 3 0 2 0 3 0 3 0 
2 0 3 0 2 0 3 0 3 0 2 0 3 0 2 0 
3 0 3 0 2 0 3 0 2 0 3 0 3 0 2 0 
3 0 2 0 3 0 3 0 2 0 3 0 3 0 2 0 
3 0 2 0 3 0 3 0 2 0 3 0 2 0 3 0 
3 0 2 0 3 0 2 0 3 0 3 0 2 0 3 0 
2 0 3 0 3 0 2 0 3 0 3 0 2 0 3 0 
2 0 3 0 3 0 2 0 3 0 2 0 3 0 3 0 
2 0 3 0 2 0 3 0 3 0 2 0 3 0 2 0 
3 0 3 0 2 0 3 0 3 0 2 0 3 0 2 0 
3 0 3 0 2 0 3 0 2 0 3 0 3 0 2 0 
3 0 2 0 3 0 3 0 2 0 3 0 2 0 3 0 
3 0 2 0 3 0 3 0 2 0 3 0 2 0 3 0 
3 0 2 0 3 0 2 0 3 0 3 0 2 0 3 0 
2 0 3 0 3 0 2 0 3 0 2 0 3 0 3 0 
2 0 3 0 3 0 2 0 3 0 2 0 3 0 3 0 
2 0 3 0 2 0 3 0 3 0 2 0 3 0 2 0 
3 0 3 0 2 0 3 0 2 0 3 0 3 0 2 0 
3 0 3 0 2 0 3 0 2 0 3 0 3 0 2 0 
3 0 2 0 3 0 3 0 2 0 3 0 2 0 3 0 
3 0 2 0 3 0 2 0 3 0 3 0 2 0 3 0 
3 0 2 0 3 0 2 0 3 0 3 0 2 0 3 0 
2 0 3 0 3 0 2 0 3 0 2 0 3 0 3 0 
2 0 3 0 2 0 3 0 3 0 2 0 3 0 2 0 
3 0 3 0 2 0 3752 1060 300 MP stroke
3 0 3 0 2 0 3 0 2 0 3 0 3 0 2 0 
3 0 2 0 3 0 3 0 2 0 3 0 2 0 3 0 
3 0 2 0 3 0 2 0 3 0 3 0 2 0 3 0 
3 0 2 0 3 0 2 0 3 0 3 0 2 0 3 0 
2 0 3 0 3 0 2 0 3 0 2 0 3 0 3 0 
2 0 3 0 2 0 3 0 3 0 2 0 3 0 3 0 
2 0 3 0 2 0 3 0 3 0 2 0 3 0 2 0 
3 0 3 0 2 0 3 0 2 0 3 0 3 0 2 0 
3 0 2 0 3 0 3 0 2 0 3 0 3 0 2 0 
3 0 2 0 3 0 3 0 2 0 3 0 2 0 3 0 
3 0 2 0 3 0 2 0 3 0 3 0 2 0 3 0 
2 0 3 0 3 0 2 0 3 0 3 0 2 0 3 0 
2 0 3 0 3 0 2 0 3 0 2 0 3 -1368 3 -1367 
2 0 3 0 2 0 3 0 3 0 2 0 3 0 2 0 
3 0 3 0 2 0 3 0 3 0 2 0 3 0 2 0 
3 0 3 0 2 0 3 0 2 0 3 0 3 0 2 0 
3 0 2 0 3 0 3 0 2 0 3 0 2 0 3 0 
3 0 2 0 3 0 3 0 2 0 3 0 2 0 3 0 
3 0 2 0 3 0 2 0 3 0 3 0 2 0 3 0 
2 0 3 0 3 0 2 0 3 0 2 0 3 0 3 0 
2 0 3 0 3 0 2 0 3 0 2 0 3 0 3 0 
2 0 3 0 2 0 3 0 3 0 2 0 3 0 2 0 
3 0 3 0 2 0 3 0 2 0 3 0 3 0 2 0 
3 0 3 0 2 0 3 0 2 0 3 0 3 0 2 0 
3 0 2 0 3 0 3 0 2 0 3 0 2 0 3 0 
3 0 2 0 3 0 2 0 3 0 3 0 2 0 3 0 
3 0 2 0 3 0 2 0 3 0 3 0 2 0 3 0 
2 0 3 0 3 0 2 0 3 0 2 0 3 0 3 0 
2 0 3 0 2 0 3 0 3 0 2 0 3 0 2 0 
3 0 3 0 2 0 3 0 3 0 2 0 3 0 2 0 
3 0 3 0 2 0 3 0 2 0 3 0 3 0 2 0 
3 0 2 0 3 0 3 0 2 0 3 0 2 0 3 0 
3 0 2 0 3 0 3 0 2 0 3 0 2 0 3 0 
3 0 2 0 3 0 2 0 3 0 3 0 2 0 3 0 
2 0 3 0 3 0 2 0 3 0 2 0 3 0 3 0 
2 0 3 0 3 0 2 0 3 0 2 0 3 0 3 0 
2 0 3 0 2 0 3 0 3 0 2 0 3 0 2 0 
3 0 3 0 2 0 2972 3795 300 MP stroke
3 0 2 0 3 0 3 0 2 0 3 0 3 0 2 0 
3 0 2 0 3 0 3 0 2 0 3 0 2 0 3 0 
3 0 2 0 3 0 2 0 3 0 3 0 2 0 3 0 
2 0 3 0 3 0 2 0 3 0 3 0 2 0 3 0 
2 0 3 0 3 0 2 0 3 0 2 0 3 0 3 0 
2 0 3 0 2 0 3 0 3 0 2 0 3 0 2 0 
3 0 3 0 2 0 3 0 3 0 2 0 3 0 2 0 
3 0 3 0 2 0 3 0 2 0 3 0 3 0 2 0 
3 0 2 0 3 0 3 0 2 0 3 0 2 0 3 0 
3 0 2 0 3 0 3 0 2 0 3 0 2 0 3 0 
3 0 2 0 3 0 2 0 3 0 3 0 2 0 3 0 
2 0 3 0 3 0 2 0 3 0 2 0 3 0 3 0 
2 0 3 0 3 0 2 0 3 0 2 0 3 0 3 0 
2 0 3 0 2 0 3 0 3 0 2 0 3 0 2 0 
3 0 3 0 2 0 3 0 2 0 3 0 3 0 2 0 
3 0 3 0 2 0 3 0 2 0 3 0 3 0 2 0 
3 0 2 0 3 0 3 0 2 0 3 0 2 0 3 0 
3 0 2 0 3 0 2 0 3 0 3 0 2 0 3 0 
2 0 3 0 3 0 2 0 3 0 3 0 2 0 3 0 
2 0 3 0 3 0 2 0 3 0 2 0 3 0 3 0 
2 0 3 0 2 0 3 0 3 0 2 0 3 0 2 0 
3 0 3 0 2 0 3 0 3 0 2 0 3 0 2 0 
3 0 3 0 2 0 3 0 2 0 3 0 3 0 2 0 
3 0 2 0 3 0 3 0 2 0 3 0 2 0 3 0 
3 0 2 0 3 0 3 0 2 0 3 0 2 0 3 0 
3 0 2 0 3 0 2 0 3 0 3 0 2 0 3 0 
2 0 3 0 3 0 2 0 3 0 2 0 3 0 3 0 
2 0 3 0 3 0 2 0 3 0 2 0 3 0 3 0 
2 0 3 0 2 0 3 0 3 0 2 0 3 0 2 0 
3 0 3 0 2 0 3 0 2 0 3 0 3 0 2 0 
3 0 3 0 2 0 3 0 2 0 3 0 3 0 2 0 
3 0 2 0 3 0 3 0 2 0 3 0 2 0 3 0 
3 0 2 0 3 0 2 0 3 0 3 0 2 0 3 0 
3 0 2 0 3 0 2 0 3 0 3 0 2 0 3 0 
2 0 3 0 3 0 2 0 3 0 2 0 3 0 3 0 
2 0 3 0 2 0 3 0 3 0 2 0 3 0 3 0 
2 0 3 0 2 0 3 0 3 0 2 0 3 0 2 0 
3 0 3 0 2 0 2192 3795 300 MP stroke
3 0 2 0 3 0 3 0 2 0 3 0 2 0 3 0 
3 0 2 0 3 0 3 0 2 0 3 0 2 0 3 0 
3 0 2 0 3 0 2 0 3 0 3 0 2 0 3 0 
2 0 3 0 3 0 2 0 3 0 2 0 3 0 3 0 
2 0 3 0 3 0 2 0 3 0 2 0 3 0 3 0 
2 0 3 0 2 0 3 0 3 0 2 0 3 0 2 0 
3 0 3 0 2 0 3 0 2 0 3 0 3 0 2 0 
3 0 3 0 2 0 3 0 2 0 3 0 3 0 2 0 
3 0 2 0 3 0 3 0 2 0 3 0 2 0 3 0 
3 0 2 0 3 0 2 0 3 0 3 0 2 0 3 0 
2 0 3 0 3 0 2 0 3 0 3 0 2 0 3 0 
2 0 3 0 3 0 2 0 3 0 2 0 3 0 3 0 
2 0 3 0 2 0 3 0 3 0 2 0 3 0 2 0 
3 0 3 0 2 0 3 0 3 0 2 0 3 0 2 0 
3 0 3 0 2 0 3 0 2 0 3 0 3 0 2 0 
3 0 2 0 3 0 3 0 2 0 3 0 2 0 3 0 
3 0 2 0 3 0 3 0 2 0 3 0 2 0 3 0 
3 0 2 0 3 0 2 0 3 0 3 0 2 0 3 0 
2 0 3 0 3 0 2 0 3 0 2 0 3 0 3 0 
2 0 3 0 3 0 2 0 3 0 2 0 3 0 3 0 
2 0 3 0 2 0 3 0 3 0 2 0 3 0 2 0 
3 0 3 0 2 0 3 0 2 0 3 0 3 0 2 0 
3 0 3 0 2 0 3 0 2 0 3 0 3 0 2 0 
3 0 2 0 3 0 3 0 2 0 3 0 2 0 3 0 
3 0 2 0 3 0 2 0 3 0 3 0 2 0 3 0 
3 0 2 0 3 0 2 0 3 0 3 0 2 0 3 0 
2 0 3 0 3 0 2 0 3 0 2 0 3 0 3 0 
2 0 3 0 2 0 3 0 3 0 2 0 3 0 3 0 
2 0 3 0 2 0 3 0 3 0 2 0 3 0 2 0 
3 0 3 0 2 0 3 0 2 0 3 0 3 0 2 0 
3 0 2 0 3 0 3 0 2 0 3 0 3 0 2 0 
3 0 2 0 3 0 3 0 2 0 3 0 2 0 3 0 
3 0 2 0 3 0 2 0 3 0 3 0 2 0 3 0 
2 0 3 0 3 0 2 0 3 0 3 0 2 0 3 0 
2 0 3 0 3 0 2 0 3 0 2 0 3 0 3 0 
2 0 3 0 2 0 3 0 3 0 2 0 3 0 2 0 
3 0 3 0 2 0 3 0 2 0 3 0 3 0 2 0 
3 0 3 0 2 0 1412 3795 300 MP stroke
3 0 2 0 3 0 3 0 2 0 3 0 2 0 3 0 
3 0 2 0 3 0 2 0 3 0 3 0 2 0 3 0 
2 0 3 0 3 0 2 0 3 0 3 0 2 0 3 0 
2 0 3 0 3 0 2 0 3 0 2 0 3 0 3 0 
2 0 3 0 2 0 3 0 3 0 2 0 3 0 2 0 
3 0 3 0 2 0 3 0 3 0 2 0 3 0 2 0 
3 0 3 0 2 0 3 0 2 0 3 0 3 0 2 0 
3 0 2 0 3 0 3 0 2 0 3 0 2 0 3 0 
3 0 2 0 3 0 3 0 2 0 3 0 2 0 3 0 
3 0 2 0 3 0 2 0 3 0 3 0 2 0 3 0 
2 0 3 0 3 0 2 0 3 0 2 0 3 0 3 0 
2 0 3 0 3 0 2 0 3 0 2 0 3 0 3 0 
2 0 3 0 2 0 3 0 3 0 2 0 3 0 2 0 
3 0 3 0 2 0 3 0 2 0 3 0 3 0 2 0 
3 0 3 0 2 0 3 0 2 0 3 0 3 0 2 0 
3 0 2 0 3 0 3 0 2 0 3 0 2 0 3 0 
3 0 2 0 3 0 2 0 3 0 3 0 2 0 3 0 
3 0 2 0 3 0 2 0 3 0 3 0 2 0 3 0 
2 0 3 0 3 0 2 0 3 0 2 0 3 0 3 0 
2 0 3 0 2 0 3 0 3 0 2 0 3 0 3 0 
2 0 3 0 2 0 3 0 3 0 2 0 3 0 2 0 
3 0 3 0 2 0 3 0 2 0 3 0 3 0 2 0 
3 0 2 0 3 0 3 0 2 0 3 0 3 0 2 0 
3 0 2 0 3 0 3 0 2 0 3 0 2 0 3 0 
3 0 2 0 3 0 2 0 3 0 3 0 2 0 3 0 
2 0 3 0 3 0 2 0 3 0 2 0 875 3795 207 MP stroke
/c10 { 0.000000 0.000000 1.000000 sr} bdef
c10
3 1 3 1 2 1 3 1 3 1 2 1 3 1 2 1 
3 1 3 1 2 1 3 1 2 2 3 1 3 1 2 1 
3 1 2 1 3 1 3 1 2 1 3 1 2 1 3 1 
3 1 2 1 3 1 3 1 2 1 3 1 2 1 3 1 
3 2 2 1 3 1 2 1 3 1 3 1 2 1 3 1 
2 1 3 1 3 1 2 1 3 1 2 2 3 1 3 1 
2 1 3 1 3 1 2 1 3 1 2 1 3 1 3 1 
2 2 3 1 2 1 3 1 3 1 2 1 3 1 2 1 
3 1 3 2 2 1 3 1 2 1 3 1 3 1 2 1 
3 1 3 2 2 1 3 1 2 1 3 1 3 1 2 1 
3 2 2 1 3 1 3 1 2 1 3 1 2 1 3 2 
3 1 2 1 3 1 2 1 3 1 3 2 2 1 3 1 
3 1 2 1 3 1 2 2 3 1 3 1 2 1 3 1 
2 1 3 2 3 1 2 1 3 1 2 1 3 2 3 1 
2 1 3 1 2 1 3 2 3 1 2 1 3 1 3 1 
2 2 3 1 2 1 3 1 3 1 2 2 3 1 2 1 
3 1 3 1 2 2 3 1 2 1 3 1 3 2 2 1 
3 1 2 1 3 2 3 1 2 1 3 1 3 1 2 2 
3 1 2 1 3 1 3 2 2 1 3 1 2 1 3 2 
3 1 2 1 3 1 2 2 3 1 3 1 2 1 3 2 
2 1 3 1 3 2 2 1 3 1 3 1 2 2 3 1 
2 1 3 1 3 2 2 1 3 1 2 2 3 1 3 1 
2 1 3 2 2 1 3 1 3 1 2 2 3 1 2 1 
3 2 3 1 2 1 3 2 3 1 2 1 3 1 2 2 
3 1 3 1 2 2 3 1 2 1 3 2 3 1 2 1 
3 2 2 1 3 1 3 1 2 2 3 1 2 1 3 2 
3 1 2 1 3 2 3 1 2 1 3 2 2 1 3 1 
3 2 2 1 3 1 2 2 3 1 3 1 2 2 3 1 
2 1 3 2 3 1 2 1 3 2 2 1 3 1 3 2 
2 1 3 1 2 2 3 1 3 1 2 2 3 1 3 1 
2 2 3 1 2 1 3 2 3 1 2 1 3 2 2 1 
3 2 3 1 2 1 3 2 2 1 3 1 3 2 2 1 
3 1 2 2 3 1 3 1 2 2 3 1 3 2 2 1 
3 1 2 2 3 1 3 1 2 2 3 1 2 1 3 2 
3 1 2 2 3 1 2 1 3 2 3 1 2 1 3 2 
2 1 3 1 3 2 2 1 3 2 3 1 2 1 3 2 
2 1 3 1 3 2 2 1 3 1 2 2 3 1 3 2 
2 1 3 1 2 2 5312 1452 300 MP stroke
3 1 3 1 2 2 3 1 2 2 3 1 3 1 2 2 
3 1 3 1 2 2 3 1 2 1 3 2 3 1 2 2 
3 1 2 1 3 2 3 1 2 1 3 2 2 1 3 1 
3 2 2 1 3 2 2 1 3 1 3 2 2 1 3 1 
3 2 2 1 3 1 2 2 3 1 3 1 2 2 3 1 
2 1 3 2 3 1 2 1 3 2 2 1 3 2 3 1 
2 1 3 2 2 1 3 1 3 2 2 1 3 1 3 2 
2 1 3 1 2 2 3 1 3 1 2 2 3 1 2 1 
3 1 3 2 2 1 3 1 2 2 3 1 3 1 2 2 
3 1 2 1 3 2 3 1 2 1 3 1 3 2 2 1 
3 1 2 2 3 1 3 1 2 1 3 2 2 1 3 1 
3 2 2 1 3 1 2 1 3 2 3 1 2 1 3 1 
2 2 3 1 3 1 2 2 3 1 3 1 2 1 3 1 
2 2 3 1 3 1 2 1 3 2 2 1 3 1 3 1 
2 2 3 1 2 1 3 1 3 1 2 2 3 1 2 1 
3 1 3 1 2 2 3 1 3 1 2 1 3 1 2 1 
3 2 3 1 2 1 3 1 2 1 3 1 3 1 2 2 
3 1 2 1 3 1 3 1 2 1 3 1 2 1 3 2 
3 1 2 1 3 1 2 1 3 1 3 1 2 1 3 1 
3 1 2 1 3 2 2 1 3 1 3 1 2 1 3 1 
2 1 3 1 3 1 2 1 3 1 2 1 3 1 3 1 
2 1 3 1 2 1 3 1 3 1 2 1 3 1 3 1 
2 1 3 1 2 1 3 1 3 0 2 1 3 1 2 1 
3 1 3 1 2 1 3 1 2 1 3 1 3 0 2 1 
3 1 2 1 3 1 3 1 2 1 3 0 3 1 2 1 
3 1 2 1 3 1 3 0 2 1 3 1 2 1 3 0 
3 1 2 1 3 1 2 0 3 1 3 1 2 1 3 0 
2 1 3 1 3 0 2 1 3 1 3 0 2 1 3 1 
2 0 3 1 3 1 2 0 3 1 2 0 3 1 3 1 
2 0 3 1 2 0 3 1 3 0 2 1 3 1 2 0 
3 1 3 0 2 1 3 0 3 1 2 0 3 1 2 0 
3 0 3 1 2 0 3 1 2 0 3 1 3 0 2 0 
3 1 2 0 3 0 3 1 2 0 3 0 2 1 3 0 
3 0 2 1 3 0 3 0 2 0 3 1 2 0 3 0 
3 0 2 1 3 0 2 0 3 0 3 0 2 0 3 1 
2 0 3 0 3 0 2 0 3 0 2 0 3 0 3 0 
2 0 3 0 3 0 2 0 3 0 2 0 3 0 3 0 
2 0 3 0 2 0 4532 1172 300 MP stroke
3 0 3 0 2 0 3 0 2 0 3 0 3 -1 2 0 
3 0 2 0 3 0 3 0 2 -1 3 0 3 0 2 0 
3 -1 2 0 3 0 3 -1 2 0 3 0 2 -1 3 0 
3 0 2 -1 3 0 2 -1 3 0 3 0 2 -1 3 0 
2 -1 3 0 3 -1 2 0 3 -1 3 0 2 -1 3 -1 
2 0 3 -1 3 0 2 -1 3 -1 2 0 3 -1 3 -1 
2 0 3 -1 2 -1 3 -1 3 0 2 -1 3 -1 2 -1 
3 0 3 -1 2 -1 3 -1 3 -1 2 -1 3 -1 2 -1 
3 -1 3 0 2 -1 3 -1 2 -1 3 -1 3 -1 2 -1 
3 -2 2 -1 3 -1 3 -1 2 -1 3 -1 2 -1 3 -1 
3 -2 2 -1 3 -1 2 -1 3 -1 3 -2 2 -1 3 -1 
3 -2 2 -1 3 -1 2 -2 3 -1 3 -1 2 -2 3 -1 
2 -2 3 -1 3 -2 2 -1 3 -2 2 -1 3 -2 3 -1 
2 -2 3 -1 2 -2 3 -2 3 -1 2 -2 3 -2 3 -1 
2 -2 3 -2 2 -1 3 -2 3 -2 2 -2 3 -2 2 -1 
3 -2 3 -2 2 -2 3 -2 2 -2 3 -2 3 -2 2 -2 
3 -2 2 -2 3 -2 3 -2 2 -2 3 -2 3 -2 2 -2 
3 -2 2 -2 3 -2 3 -3 2 -2 3 -2 2 -2 3 -3 
3 -2 2 -2 3 -2 2 -3 3 -2 3 -2 2 -3 3 -2 
2 -3 3 -2 3 -2 2 -3 3 -2 3 -3 2 -2 3 -3 
2 -2 3 -3 3 -3 2 -2 3 -3 2 -3 3 -2 3 -3 
2 -3 3 -2 2 -3 3 -3 3 -3 2 -2 3 -3 2 -3 
3 -3 3 -3 2 -3 3 -2 3 -3 2 -3 3 -3 2 -3 
3 -3 3 -3 2 -3 3 -3 2 -3 3 -3 3 -3 2 -4 
3 -3 2 -3 3 -3 3 -3 2 -3 3 -4 2 -3 3 -3 
3 -3 2 -4 3 -3 3 -3 2 -4 3 -3 2 -3 3 -4 
3 -3 2 -4 3 -3 2 -4 3 -3 3 -4 2 -3 3 -4 
2 -3 3 -4 3 -3 2 -4 3 -4 2 -3 3 -4 3 -4 
2 -3 3 -4 3 -4 2 -3 3 -4 2 -4 3 -4 3 -4 
2 -3 3 -4 2 -4 3 -4 3 -4 2 -4 3 -4 2 -4 
3 -4 3 -4 2 -4 3 -4 2 -4 3 -4 3 -4 2 -4 
3 -4 3 -4 2 -4 3 -4 2 -4 3 -5 3 -4 2 -4 
3 -4 2 -4 3 -5 3 -4 2 -4 3 -4 2 -5 3 -4 
3 -4 2 -5 3 -4 2 -5 3 -4 3 -4 2 -5 3 -4 
3 -5 2 -4 3 -5 2 -4 3 -5 3 -4 2 -5 3 -4 
2 -5 3 -4 3 -5 2 -5 3 -4 2 -5 3 -5 3 -4 
2 -5 3 -5 2 -4 3 -5 3 -5 2 -4 3 -5 2 -5 
3 -5 3 -5 2 -4 3752 1887 300 MP stroke
3 -5 3 -5 2 -5 3 -5 2 -5 3 -4 3 -5 2 -5 
3 -5 2 -5 3 -5 3 -5 2 -5 3 -5 2 -5 3 -5 
3 -5 2 -5 3 -5 2 -5 3 -5 3 -5 2 -5 3 -5 
3 -5 2 -5 3 -5 2 -5 3 -5 3 -6 2 -5 3 -5 
2 -5 3 -5 3 -5 2 -6 3 -5 2 -5 3 -5 3 -5 
2 -6 3 -5 2 -5 3 -5 3 -6 2 -5 3 -5 3 -5 
2 -6 3 -5 2 -5 3 -5 3 -6 2 -5 3 -5 2 -6 
3 -5 3 -5 2 -6 3 -5 2 -5 3 -6 3 -5 2 -5 
3 -6 2 -5 3 -6 3 -5 2 -5 3 -6 3 -5 2 -6 
3 -5 2 -5 3 -6 3 -5 2 -6 3 -5 2 -6 3 -5 
3 -5 2 -6 3 -5 2 -6 3 -5 3 -6 2 -5 3 -6 
2 -5 3 -5 3 -6 2 -5 3 -6 3 -5 2 -6 3 -5 
2 -6 3 -5 3 -6 2 -5 3 -6 2 -5 3 -6 3 -5 
2 -5 3 -6 2 -5 3 -6 3 -5 2 -6 3 -5 2 -6 
3 -5 3 -6 2 -5 3 -6 3 -5 2 -5 3 -6 2 -5 
3 -6 3 -5 2 -6 3 -5 2 -6 3 -5 3 -5 2 -6 
3 -5 2 -6 3 -5 3 -6 2 -5 3 -5 2 -6 3 -5 
3 -6 2 -5 3 -5 3 -6 2 -5 3 -6 2 -5 3 -5 
3 -6 2 -5 3 -5 2 -6 3 -5 3 -5 2 -6 3 -5 
2 -5 3 -6 3 -5 2 -5 3 -5 2 -6 3 -5 3 -5 
2 -5 3 -6 3 -5 2 -5 3 -5 2 -6 3 -5 3 -5 
2 -5 3 -5 2 -6 3 -5 3 -5 2 -5 3 -5 2 -5 
3 -6 3 -5 2 -5 3 -5 2 -5 3 -5 3 -5 2 -5 
3 -5 3 -5 2 -5 3 -5 2 -5 3 -5 3 -5 2 -5 
3 -5 2 -5 3 -5 3 -5 2 -5 3 -5 2 -5 3 -5 
3 -4 2 -5 3 -5 2 -5 3 -5 3 -5 2 -4 3 -5 
3 -5 2 -5 3 -5 2 -4 3 -5 3 -5 2 -4 3 -5 
2 -5 3 -4 3 -5 2 -5 3 -4 2 -5 3 -5 3 -4 
2 -5 3 -4 2 -5 3 -4 3 -5 2 -4 3 -5 2 -4 
3 -5 3 -4 2 -5 3 -4 3 -4 2 -5 3 -4 2 -5 
3 -4 3 -4 2 -5 3 -4 2 -4 3 -4 3 -5 2 -4 
3 -4 2 -4 3 -4 3 -5 2 -4 3 -4 2 -4 3 -4 
3 -4 2 -4 3 -4 3 -4 2 -4 3 -4 2 -4 3 -4 
3 -4 2 -4 3 -4 2 -4 3 -4 3 -4 2 -4 3 -4 
2 -3 3 -4 3 -4 2 -4 3 -4 2 -3 3 -4 3 -4 
2 -3 3 -4 3 -4 2 -3 3 -4 2 -4 3 -3 3 -4 
2 -3 3 -4 2 -3 3 -4 3 -3 2 -4 3 -3 2 -4 
3 -3 3 -4 2 -3 2972 3352 300 MP stroke
3 -3 2 -4 3 -3 3 -3 2 -4 3 -3 3 -3 2 -3 
3 -4 2 -3 3 -3 3 -3 2 -3 3 -3 2 -4 3 -3 
3 -3 2 -3 3 -3 2 -3 3 -3 3 -3 2 -3 3 -3 
2 -3 3 -3 3 -2 2 -3 3 -3 3 -3 2 -3 3 -3 
2 -2 3 -3 3 -3 2 -3 3 -2 2 -3 3 -3 3 -2 
2 -3 3 -3 2 -2 3 -3 3 -3 2 -2 3 -3 2 -2 
3 -3 3 -2 2 -3 3 -2 3 -2 2 -3 3 -2 2 -3 
3 -2 3 -2 2 -3 3 -2 2 -2 3 -2 3 -3 2 -2 
3 -2 2 -2 3 -3 3 -2 2 -2 3 -2 2 -2 3 -2 
3 -2 2 -2 3 -2 3 -2 2 -2 3 -2 2 -2 3 -2 
3 -2 2 -2 3 -2 2 -2 3 -2 3 -2 2 -1 3 -2 
2 -2 3 -2 3 -2 2 -1 3 -2 2 -2 3 -1 3 -2 
2 -2 3 -1 3 -2 2 -2 3 -1 2 -2 3 -1 3 -2 
2 -1 3 -2 2 -1 3 -2 3 -1 2 -2 3 -1 2 -2 
3 -1 3 -1 2 -2 3 -1 2 -1 3 -2 3 -1 2 -1 
3 -2 3 -1 2 -1 3 -1 2 -1 3 -2 3 -1 2 -1 
3 -1 2 -1 3 -1 3 -1 2 -1 3 -2 2 -1 3 -1 
3 -1 2 -1 3 -1 2 -1 3 0 3 -1 2 -1 3 -1 
2 -1 3 -1 3 -1 2 -1 3 -1 3 0 2 -1 3 -1 
2 -1 3 0 3 -1 2 -1 3 -1 2 0 3 -1 3 -1 
2 0 3 -1 2 -1 3 0 3 -1 2 0 3 -1 2 -1 
3 0 3 -1 2 0 3 -1 3 0 2 -1 3 0 2 -1 
3 0 3 0 2 -1 3 0 2 -1 3 0 3 0 2 -1 
3 0 2 0 3 -1 3 0 2 0 3 -1 2 0 3 0 
3 0 2 -1 3 0 3 0 2 0 3 0 2 0 3 -1 
3 0 2 0 3 0 2 0 3 0 3 0 2 0 3 0 
2 0 3 0 3 0 2 0 3 0 2 0 3 0 3 0 
2 0 3 0 3 0 2 0 3 0 2 0 3 0 3 0 
2 0 3 1 2 0 3 0 3 0 2 0 3 0 2 1 
3 0 3 0 2 0 3 1 2 0 3 0 3 0 2 1 
3 0 3 0 2 1 3 0 2 0 3 1 3 0 2 0 
3 1 2 0 3 0 3 1 2 0 3 1 2 0 3 1 
3 0 2 0 3 1 2 0 3 1 3 0 2 1 3 0 
3 1 2 0 3 1 2 1 3 0 3 1 2 0 3 1 
2 0 3 1 3 1 2 0 3 1 2 0 3 1 3 1 
2 0 3 1 2 1 3 0 3 1 2 1 3 0 3 1 
2 1 3 0 2 1 3 1 3 1 2 0 3 1 2 1 
3 1 3 0 2 1 2192 3647 300 MP stroke
3 1 2 1 3 0 3 1 2 1 3 1 2 1 3 1 
3 0 2 1 3 1 3 1 2 1 3 1 2 1 3 0 
3 1 2 1 3 1 2 1 3 1 3 1 2 1 3 1 
2 1 3 0 3 1 2 1 3 1 2 1 3 1 3 1 
2 1 3 1 3 1 2 1 3 1 2 1 3 1 3 1 
2 1 3 1 2 1 3 1 3 1 2 1 3 1 2 1 
3 1 3 1 2 1 3 2 2 1 3 1 3 1 2 1 
3 1 3 1 2 1 3 1 2 1 3 1 3 2 2 1 
3 1 2 1 3 1 3 1 2 1 3 1 2 2 3 1 
3 1 2 1 3 1 2 1 3 1 3 2 2 1 3 1 
2 1 3 1 3 1 2 2 3 1 3 1 2 1 3 1 
2 2 3 1 3 1 2 1 3 1 2 2 3 1 3 1 
2 1 3 2 2 1 3 1 3 1 2 2 3 1 2 1 
3 1 3 1 2 2 3 1 3 1 2 2 3 1 2 1 
3 1 3 2 2 1 3 1 2 1 3 2 3 1 2 1 
3 2 2 1 3 1 3 1 2 2 3 1 2 1 3 2 
3 1 2 1 3 1 3 2 2 1 3 1 2 2 3 1 
3 1 2 2 3 1 2 1 3 2 3 1 2 1 3 1 
2 2 3 1 3 1 2 2 3 1 2 1 3 2 3 1 
2 1 3 2 3 1 2 1 3 2 2 1 3 1 3 2 
2 1 3 2 2 1 3 1 3 2 2 1 3 1 2 2 
3 1 3 1 2 2 3 1 2 1 3 2 3 1 2 1 
3 2 3 1 2 1 3 2 2 1 3 2 3 1 2 1 
3 2 2 1 3 1 3 2 2 1 3 1 2 2 3 1 
3 2 2 1 3 1 2 2 3 1 3 1 2 2 3 1 
3 1 2 2 3 1 2 2 3 1 3 1 2 2 3 1 
2 1 3 2 3 1 2 2 3 1 2 1 3 2 3 1 
2 1 3 2 2 1 3 1 3 2 2 1 3 2 3 1 
2 1 3 2 2 1 3 1 3 2 2 1 3 1 2 2 
3 1 3 2 2 1 3 1 2 2 3 1 3 1 2 2 
3 1 2 1 3 2 3 1 2 2 3 1 3 1 2 2 
3 1 2 1 3 2 3 1 2 1 3 2 2 1 3 1 
3 2 2 1 3 2 2 1 3 1 3 2 2 1 3 1 
2 2 3 1 3 1 2 2 3 1 3 1 2 2 3 1 
2 1 3 2 3 1 2 1 3 2 2 1 3 1 3 2 
2 1 3 1 2 2 3 1 3 1 2 2 3 1 2 1 
3 2 3 1 2 1 3 2 2 1 3 1 3 2 2 1 
3 1 3 2 2 1 1412 3277 300 MP stroke
3 1 2 2 3 1 3 1 2 1 3 2 2 1 3 1 
3 2 2 1 3 1 2 2 3 1 3 1 2 2 3 1 
2 1 3 1 3 2 2 1 3 1 3 2 2 1 3 1 
2 2 3 1 3 1 2 1 3 2 2 1 3 1 3 1 
2 2 3 1 2 1 3 2 3 1 2 1 3 1 2 2 
3 1 3 1 2 1 3 2 3 1 2 1 3 2 2 1 
3 1 3 1 2 2 3 1 2 1 3 1 3 2 2 1 
3 1 2 1 3 2 3 1 2 1 3 1 2 2 3 1 
3 1 2 1 3 1 3 2 2 1 3 1 2 1 3 2 
3 1 2 1 3 1 2 2 3 1 3 1 2 1 3 1 
2 2 3 1 3 1 2 1 3 1 2 2 3 1 3 1 
2 1 3 1 3 2 2 1 3 1 2 1 3 1 3 2 
2 1 3 1 2 1 3 1 3 2 2 1 3 1 2 1 
3 1 3 1 2 2 3 1 2 1 3 1 3 1 2 1 
3 2 3 1 2 1 3 1 2 1 3 1 3 2 2 1 
3 1 2 1 3 1 3 1 2 1 3 2 2 1 3 1 
3 1 2 1 3 1 2 1 3 2 3 1 2 1 3 1 
3 1 2 1 3 1 2 1 3 2 3 1 2 1 3 1 
2 1 3 1 3 1 2 1 3 1 2 2 3 1 3 1 
2 1 3 1 2 1 3 1 3 1 2 1 3 1 3 1 
2 2 3 1 2 1 3 1 3 1 2 1 3 1 2 1 
3 1 3 1 2 1 3 1 2 1 3 2 3 1 2 1 
3 1 2 1 3 1 3 1 2 1 3 1 3 1 2 1 
3 1 2 1 3 1 3 1 2 1 3 1 2 1 3 1 
3 1 2 2 3 1 2 1 3 1 3 1 2 1 3 1 
2 1 3 1 3 1 2 1 3 1 2 1 875 3035 207 MP stroke
/c11 { 0.000000 1.000000 1.000000 sr} bdef
c11
3 0 3 0 2 0 3 0 3 0 2 0 3 0 2 0 
3 0 3 0 2 0 3 0 2 0 3 0 3 0 2 0 
3 0 2 0 3 0 3 0 2 0 3 0 2 0 3 0 
3 0 2 0 3 0 3 0 2 0 3 0 2 0 3 0 
3 0 2 0 3 0 2 0 3 0 3 0 2 0 3 0 
2 0 3 0 3 0 2 0 3 0 2 0 3 0 3 0 
2 0 3 0 3 0 2 0 3 0 2 0 3 0 3 0 
2 0 3 0 2 0 3 0 3 0 2 0 3 0 2 0 
3 0 3 0 2 0 3 0 2 0 3 0 3 0 2 0 
3 0 3 0 2 0 3 0 2 0 3 0 3 0 2 0 
3 0 2 0 3 0 3 0 2 0 3 0 2 0 3 0 
3 0 2 0 3 0 2 0 3 0 3 0 2 0 3 0 
3 0 2 0 3 0 2 0 3 0 3 0 2 0 3 0 
2 0 3 0 3 0 2 0 3 0 2 0 3 0 3 0 
2 0 3 0 2 0 3 0 3 0 2 0 3 0 3 0 
2 0 3 0 2 0 3 0 3 0 2 0 3 0 2 0 
3 0 3 0 2 0 3 0 2 0 3 0 3 0 2 0 
3 0 2 0 3 0 3 0 2 0 3 0 3 0 2 0 
3 0 2 0 3 0 3 0 2 0 3 0 2 0 3 0 
3 0 2 0 3 0 2 0 3 0 3 0 2 0 3 0 
2 0 3 0 3 0 2 0 3 0 3 0 2 0 3 0 
2 0 3 0 3 0 2 0 3 0 2 0 3 0 3 0 
2 0 3 0 2 0 3 0 3 0 2 0 3 0 2 0 
3 0 3 0 2 0 3 0 3 0 2 0 3 0 2 0 
3 0 3 0 2 0 3 0 2 0 3 0 3 0 2 0 
3 0 2 0 3 0 3 0 2 0 3 0 2 0 3 0 
3 0 2 0 3 0 3 0 2 0 3 0 2 0 3 0 
3 0 2 0 3 0 2 0 3 0 3 0 2 0 3 0 
2 0 3 0 3 0 2 0 3 0 2 0 3 0 3 0 
2 0 3 0 2 0 3 0 3 0 2 0 3 0 3 0 
2 0 3 0 2 0 3 0 3 0 2 0 3 0 2 0 
3 0 3 0 2 0 3 0 2 0 3 0 3 0 2 0 
3 0 2 0 3 0 3 0 2 0 3 0 3 0 2 0 
3 0 2 0 3 0 3 0 2 0 3 0 2 0 3 0 
3 0 2 0 3 0 2 0 3 0 3 0 2 0 3 0 
2 0 3 0 3 0 2 0 3 0 3 0 2 0 3 0 
2 0 3 0 3 0 2 0 3 0 2 0 3 0 3 0 
2 0 3 0 2 0 5312 2428 300 MP stroke
3 0 3 0 2 0 3 0 2 0 3 0 3 0 2 0 
3 0 3 0 2 0 3 0 2 0 3 0 3 0 2 0 
3 0 2 0 3 0 3 0 2 0 3 0 2 0 3 0 
3 0 2 0 3 0 2 0 3 0 3 0 2 0 3 0 
3 0 2 0 3 0 2 0 3 0 3 0 2 0 3 0 
2 0 3 0 3 0 2 0 3 0 2 0 3 0 3 0 
2 0 3 0 2 0 3 0 3 0 2 0 3 0 3 0 
2 0 3 0 2 0 3 0 3 0 2 0 3 0 2 0 
3 0 3 0 2 0 3 0 2 0 3 0 3 0 2 0 
3 0 2 0 3 0 3 0 2 0 3 0 3 0 2 0 
3 0 2 0 3 0 3 0 2 0 3 0 2 0 3 0 
3 0 2 0 3 0 2 0 3 0 3 0 2 0 3 0 
2 0 3 0 3 0 2 0 3 0 3 0 2 0 3 0 
2 0 3 0 3 0 2 0 3 0 2 0 3 0 3 0 
2 0 3 0 2 0 3 0 3 0 2 0 3 0 2 0 
3 0 3 0 2 0 3 0 3 0 2 0 3 0 2 0 
3 0 3 0 2 0 3 0 2 0 3 0 3 0 2 0 
3 0 2 0 3 0 3 0 2 0 3 0 2 0 3 0 
3 0 2 0 3 0 2 0 3 0 3 0 2 0 3 0 
3 0 2 0 3 0 2 0 3 0 3 0 2 0 3 0 
2 0 3 0 3 0 2 0 3 0 2 0 3 0 3 0 
2 0 3 0 2 0 3 0 3 0 2 0 3 0 3 0 
2 0 3 0 2 0 3 0 3 0 2 0 3 0 2 0 
3 0 3 0 2 0 3 0 2 0 3 0 3 0 2 0 
3 0 2 0 3 0 3 0 2 0 3 0 3 0 2 0 
3 0 2 1 3 0 3 0 2 0 3 0 2 0 3 0 
3 0 2 0 3 1 2 0 3 0 3 0 2 1 3 0 
2 0 3 0 3 1 2 0 3 1 3 0 2 0 3 1 
2 0 3 1 3 0 2 1 3 0 2 1 3 0 3 1 
2 0 3 1 2 0 3 1 3 1 2 0 3 1 2 1 
3 0 3 1 2 1 3 0 3 1 2 1 3 1 2 0 
3 1 3 1 2 1 3 1 2 0 3 1 3 1 2 1 
3 1 2 1 3 0 3 1 2 1 3 1 2 1 3 1 
3 1 2 1 3 1 3 1 2 0 3 1 2 1 3 1 
3 1 2 1 3 1 2 1 3 1 3 1 2 1 3 1 
2 1 3 1 3 1 2 1 3 1 2 1 3 1 3 2 
2 1 3 1 3 1 2 1 3 1 2 1 3 1 3 1 
2 1 3 1 2 1 4532 2359 300 MP stroke
3 1 3 1 2 1 3 2 2 1 3 1 3 1 2 1 
3 1 2 1 3 1 3 1 2 1 3 1 3 2 2 1 
3 1 2 1 3 1 3 1 2 1 3 1 2 1 3 1 
3 1 2 2 3 1 2 1 3 1 3 1 2 1 3 1 
2 1 3 1 3 1 2 1 3 1 3 1 2 2 3 1 
2 1 3 1 3 1 2 1 3 1 2 1 3 1 3 1 
2 1 3 1 2 1 3 1 3 1 2 1 3 1 2 1 
3 1 3 1 2 1 3 1 3 1 2 1 3 1 2 1 
3 1 3 1 2 1 3 1 2 0 3 1 3 1 2 1 
3 1 2 1 3 1 3 1 2 1 3 1 2 0 3 1 
3 1 2 1 3 1 2 1 3 1 3 0 2 1 3 1 
3 1 2 1 3 0 2 1 3 1 3 1 2 0 3 1 
2 1 3 1 3 0 2 1 3 1 2 1 3 0 3 1 
2 1 3 0 2 1 3 1 3 0 2 1 3 0 3 1 
2 1 3 0 2 1 3 1 3 0 2 1 3 0 2 1 
3 0 3 1 2 0 3 1 2 0 3 1 3 0 2 1 
3 0 2 1 3 0 3 1 2 0 3 1 3 0 2 0 
3 1 2 0 3 1 3 0 2 0 3 1 2 0 3 0 
3 1 2 0 3 0 2 1 3 0 3 0 2 1 3 0 
2 0 3 0 3 1 2 0 3 0 3 0 2 0 3 1 
2 0 3 0 3 0 2 0 3 0 2 0 3 1 3 0 
2 0 3 0 2 0 3 0 3 0 2 0 3 0 2 0 
3 0 3 0 2 0 3 0 3 0 2 0 3 0 2 0 
3 0 3 0 2 0 3 0 2 0 3 0 3 -1 2 0 
3 0 2 0 3 0 3 0 2 -1 3 0 2 0 3 0 
3 0 2 -1 3 0 3 0 2 0 3 -1 2 0 3 0 
3 0 2 -1 3 0 2 0 3 -1 3 0 2 0 3 -1 
2 0 3 0 3 -1 2 0 3 -1 2 0 3 0 3 -1 
2 0 3 -1 3 0 2 -1 3 0 2 -1 3 0 3 -1 
2 0 3 -1 2 0 3 -1 3 0 2 -1 3 0 2 -1 
3 -1 3 0 2 -1 3 0 2 -1 3 -1 3 0 2 -1 
3 -1 3 0 2 -1 3 -1 2 0 3 -1 3 -1 2 0 
3 -1 2 -1 3 -1 3 0 2 -1 3 -1 2 -1 3 0 
3 -1 2 -1 3 -1 2 -1 3 0 3 -1 2 -1 3 -1 
3 -1 2 -1 3 -1 2 0 3 -1 3 -1 2 -1 3 -1 
2 -1 3 -1 3 -1 2 -1 3 -1 2 -1 3 0 3 -1 
2 -1 3 -1 2 -1 3 -1 3 -1 2 -1 3 -1 2 -1 
3 -1 3 -1 2 -1 3752 2298 300 MP stroke
3 -1 3 -1 2 -1 3 -2 2 -1 3 -1 3 -1 2 -1 
3 -1 2 -1 3 -1 3 -1 2 -1 3 -1 2 -2 3 -1 
3 -1 2 -1 3 -1 2 -1 3 -1 3 -1 2 -2 3 -1 
3 -1 2 -1 3 -1 2 -2 3 -1 3 -1 2 -1 3 -1 
2 -2 3 -1 3 -1 2 -1 3 -1 2 -2 3 -1 3 -1 
2 -1 3 -2 2 -1 3 -1 3 -1 2 -2 3 -1 3 -1 
2 -1 3 -2 2 -1 3 -1 3 -1 2 -2 3 -1 2 -1 
3 -2 3 -1 2 -1 3 -2 2 -1 3 -1 3 -2 2 -1 
3 -1 2 -1 3 -2 3 -1 2 -1 3 -2 3 -1 2 -1 
3 -2 2 -1 3 -1 3 -2 2 -1 3 -1 2 -2 3 -1 
3 -2 2 -1 3 -1 2 -2 3 -1 3 -1 2 -2 3 -1 
2 -1 3 -2 3 -1 2 -1 3 -2 3 -1 2 -2 3 -1 
2 -1 3 -2 3 -1 2 -1 3 -2 2 -1 3 -2 3 -1 
2 -1 3 -2 2 -1 3 -1 3 -2 2 -1 3 -1 2 -2 
3 -1 3 -2 2 -1 3 -1 3 -2 2 -1 3 -1 2 -2 
3 -1 3 -1 2 -2 3 -1 2 -1 3 -2 3 -1 2 -2 
3 -1 2 -1 3 -2 3 -1 2 -1 3 -2 2 -1 3 -1 
3 -2 2 -1 3 -1 3 -2 2 -1 3 -1 2 -1 3 -2 
3 -1 2 -1 3 -2 2 -1 3 -1 3 -2 2 -1 3 -1 
2 -2 3 -1 3 -1 2 -1 3 -2 2 -1 3 -1 3 -1 
2 -2 3 -1 3 -1 2 -1 3 -2 2 -1 3 -1 3 -1 
2 -2 3 -1 2 -1 3 -1 3 -1 2 -2 3 -1 2 -1 
3 -1 3 -1 2 -2 3 -1 2 -1 3 -1 3 -1 2 -2 
3 -1 3 -1 2 -1 3 -1 2 -1 3 -1 3 -1 2 -2 
3 -1 2 -1 3 -1 3 -1 2 -1 3 -1 2 -1 3 -1 
3 -1 2 -1 3 -2 2 -1 3 -1 3 -1 2 -1 3 -1 
3 -1 2 -1 3 -1 2 -1 3 -1 3 -1 2 -1 3 -1 
2 -1 3 -1 3 0 2 -1 3 -1 2 -1 3 -1 3 -1 
2 -1 3 -1 2 -1 3 -1 3 -1 2 0 3 -1 2 -1 
3 -1 3 -1 2 -1 3 -1 3 0 2 -1 3 -1 2 -1 
3 -1 3 0 2 -1 3 -1 2 -1 3 0 3 -1 2 -1 
3 -1 2 0 3 -1 3 -1 2 0 3 -1 2 -1 3 0 
3 -1 2 -1 3 0 3 -1 2 -1 3 0 2 -1 3 0 
3 -1 2 -1 3 0 2 -1 3 0 3 -1 2 0 3 -1 
2 0 3 -1 3 0 2 -1 3 0 2 -1 3 0 3 -1 
2 0 3 -1 3 0 2 0 3 -1 2 0 3 -1 3 0 
2 0 3 -1 2 0 3 0 3 -1 2 0 3 0 2 -1 
3 0 3 0 2 0 2972 2619 300 MP stroke
3 -1 2 0 3 0 3 0 2 -1 3 0 3 0 2 0 
3 0 2 -1 3 0 3 0 2 0 3 0 2 0 3 -1 
3 0 2 0 3 0 2 0 3 0 3 0 2 0 3 0 
2 0 3 0 3 0 2 0 3 0 3 0 2 0 3 0 
2 0 3 0 3 0 2 0 3 0 2 0 3 0 3 1 
2 0 3 0 2 0 3 0 3 0 2 0 3 1 2 0 
3 0 3 0 2 0 3 1 3 0 2 0 3 0 2 1 
3 0 3 0 2 1 3 0 2 0 3 1 3 0 2 0 
3 1 2 0 3 0 3 1 2 0 3 1 2 0 3 0 
3 1 2 0 3 1 3 0 2 1 3 0 2 1 3 0 
3 1 2 0 3 1 2 0 3 1 3 0 2 1 3 0 
2 1 3 0 3 1 2 1 3 0 2 1 3 1 3 0 
2 1 3 0 3 1 2 1 3 0 2 1 3 1 3 0 
2 1 3 1 2 1 3 0 3 1 2 1 3 1 2 0 
3 1 3 1 2 1 3 0 2 1 3 1 3 1 2 1 
3 0 3 1 2 1 3 1 2 1 3 1 3 1 2 0 
3 1 2 1 3 1 3 1 2 1 3 1 2 1 3 1 
3 1 2 0 3 1 2 1 3 1 3 1 2 1 3 1 
2 1 3 1 3 1 2 1 3 1 3 1 2 1 3 1 
2 1 3 1 3 1 2 1 3 1 2 1 3 1 3 1 
2 1 3 1 2 1 3 1 3 1 2 1 3 1 2 2 
3 1 3 1 2 1 3 1 3 1 2 1 3 1 2 1 
3 1 3 1 2 1 3 1 2 2 3 1 3 1 2 1 
3 1 2 1 3 1 3 1 2 1 3 1 2 1 3 2 
3 1 2 1 3 1 3 1 2 1 3 1 2 1 3 1 
3 1 2 1 3 2 2 1 3 1 3 1 2 1 3 1 
2 1 3 1 3 1 2 1 3 1 2 1 3 1 3 1 
2 1 3 2 3 1 2 1 3 1 2 1 3 1 3 1 
2 1 3 1 2 1 3 1 3 1 2 1 3 1 2 1 
3 1 3 1 2 1 3 1 2 0 3 1 3 1 2 1 
3 1 3 1 2 1 3 1 2 1 3 1 3 0 2 1 
3 1 2 1 3 1 3 1 2 0 3 1 2 1 3 1 
3 1 2 0 3 1 2 1 3 1 3 0 2 1 3 1 
3 0 2 1 3 1 2 0 3 1 3 1 2 0 3 1 
2 0 3 1 3 0 2 1 3 0 2 1 3 0 3 1 
2 0 3 1 2 0 3 0 3 1 2 0 3 1 3 0 
2 0 3 0 2 1 3 0 3 0 2 0 3 1 2 0 
3 0 3 0 2 0 2192 2428 300 MP stroke
3 0 2 0 3 0 3 0 2 0 3 0 2 0 3 0 
3 0 2 0 3 0 3 0 2 0 3 0 2 0 3 0 
3 0 2 0 3 0 2 0 3 0 3 0 2 0 3 0 
2 0 3 0 3 0 2 0 3 0 2 0 3 0 3 0 
2 0 3 0 3 0 2 0 3 0 2 0 3 0 3 0 
2 0 3 0 2 0 3 0 3 0 2 0 3 0 2 0 
3 0 3 0 2 0 3 0 2 0 3 0 3 0 2 0 
3 0 3 0 2 0 3 0 2 0 3 0 3 0 2 0 
3 0 2 0 3 0 3 0 2 0 3 0 2 0 3 0 
3 0 2 0 3 0 2 0 3 0 3 0 2 0 3 0 
2 0 3 0 3 0 2 0 3 0 3 0 2 0 3 0 
2 0 3 0 3 0 2 0 3 0 2 0 3 0 3 0 
2 0 3 0 2 0 3 0 3 0 2 0 3 0 2 0 
3 0 3 0 2 0 3 0 3 0 2 0 3 0 2 0 
3 0 3 0 2 0 3 0 2 0 3 0 3 0 2 0 
3 0 2 0 3 0 3 0 2 0 3 0 2 0 3 0 
3 0 2 0 3 0 3 0 2 0 3 0 2 0 3 0 
3 0 2 0 3 0 2 0 3 0 3 0 2 0 3 0 
2 0 3 0 3 0 2 0 3 0 2 0 3 0 3 0 
2 0 3 0 3 0 2 0 3 0 2 0 3 0 3 0 
2 0 3 0 2 0 3 0 3 0 2 0 3 0 2 0 
3 0 3 0 2 0 3 0 2 0 3 0 3 0 2 0 
3 0 3 0 2 0 3 0 2 0 3 0 3 0 2 0 
3 0 2 0 3 0 3 0 2 0 3 0 2 0 3 0 
3 0 2 0 3 0 2 0 3 0 3 0 2 0 3 0 
3 0 2 0 3 0 2 0 3 0 3 0 2 0 3 0 
2 0 3 0 3 0 2 0 3 0 2 0 3 0 3 0 
2 0 3 0 2 0 3 0 3 0 2 0 3 0 3 0 
2 0 3 0 2 0 3 0 3 0 2 0 3 0 2 0 
3 0 3 0 2 0 3 0 2 0 3 0 3 0 2 0 
3 0 2 0 3 0 3 0 2 0 3 0 3 0 2 0 
3 0 2 0 3 0 3 0 2 0 3 0 2 0 3 0 
3 0 2 0 3 0 2 0 3 0 3 0 2 0 3 0 
2 0 3 0 3 0 2 0 3 0 3 0 2 0 3 0 
2 0 3 0 3 0 2 0 3 0 2 0 3 0 3 0 
2 0 3 0 2 0 3 0 3 0 2 0 3 0 2 0 
3 0 3 0 2 0 3 0 2 0 3 0 3 0 2 0 
3 0 3 0 2 0 1412 2428 300 MP stroke
3 0 2 0 3 0 3 0 2 0 3 0 2 0 3 0 
3 0 2 0 3 0 2 0 3 0 3 0 2 0 3 0 
2 0 3 0 3 0 2 0 3 0 3 0 2 0 3 0 
2 0 3 0 3 0 2 0 3 0 2 0 3 0 3 0 
2 0 3 0 2 0 3 0 3 0 2 0 3 0 2 0 
3 0 3 0 2 0 3 0 3 0 2 0 3 0 2 0 
3 0 3 0 2 0 3 0 2 0 3 0 3 0 2 0 
3 0 2 0 3 0 3 0 2 0 3 0 2 0 3 0 
3 0 2 0 3 0 3 0 2 0 3 0 2 0 3 0 
3 0 2 0 3 0 2 0 3 0 3 0 2 0 3 0 
2 0 3 0 3 0 2 0 3 0 2 0 3 0 3 0 
2 0 3 0 3 0 2 0 3 0 2 0 3 0 3 0 
2 0 3 0 2 0 3 0 3 0 2 0 3 0 2 0 
3 0 3 0 2 0 3 0 2 0 3 0 3 0 2 0 
3 0 3 0 2 0 3 0 2 0 3 0 3 0 2 0 
3 0 2 0 3 0 3 0 2 0 3 0 2 0 3 0 
3 0 2 0 3 0 2 0 3 0 3 0 2 0 3 0 
3 0 2 0 3 0 2 0 3 0 3 0 2 0 3 0 
2 0 3 0 3 0 2 0 3 0 2 0 3 0 3 0 
2 0 3 0 2 0 3 0 3 0 2 0 3 0 3 0 
2 0 3 0 2 0 3 0 3 0 2 0 3 0 2 0 
3 0 3 0 2 0 3 0 2 0 3 0 3 0 2 0 
3 0 2 0 3 0 3 0 2 0 3 0 3 0 2 0 
3 0 2 0 3 0 3 0 2 0 3 0 2 0 3 0 
3 0 2 0 3 0 2 0 3 0 3 0 2 0 3 0 
2 0 3 0 3 0 2 0 3 0 2 0 875 2428 207 MP stroke
gr

14.4 w
c11
0 sg
 858 4522 mt 
( ) s
6076  419 mt 
( ) s
6 w
1 sg
0 1062 1963 0 0 -1062 934 1499 4 MP
PP
-1963 0 0 1062 1963 0 0 -1062 934 1499 5 MP stroke
4 w
DO
SO
6 w
0 sg
 934 1499 mt 2897 1499 L
 934  437 mt 2897  437 L
 934 1499 mt  934  437 L
2897 1499 mt 2897  437 L
 934 1499 mt 2897 1499 L
 934 1499 mt  934  437 L
 934 1499 mt 2897 1499 L
 934  437 mt 2897  437 L
 934 1499 mt  934  437 L
2897 1499 mt 2897  437 L
%%IncludeResource: font Helvetica
/Helvetica /ISOLatin1Encoding 192 FMSR

1407  678 mt 
(L) s
%%IncludeResource: font Helvetica
/Helvetica /ISOLatin1Encoding 144 FMSR

1513  582 mt 
(2) s
gs 934 437 1964 1063 rc
14.4 w
c8
364 0 1006 594 2 MP stroke
gr

14.4 w
c8
0 sg
%%IncludeResource: font Helvetica
/Helvetica /ISOLatin1Encoding 192 FMSR

1407  956 mt 
(L) s
%%IncludeResource: font Helvetica
/Helvetica /ISOLatin1Encoding 144 FMSR

1513  860 mt 
(1) s
gs 934 437 1964 1063 rc
c9
364 0 1006 872 2 MP stroke
gr

c9
0 sg
%%IncludeResource: font Helvetica
/Helvetica /ISOLatin1Encoding 192 FMSR

1407 1197 mt 
(Geman-McClure) s
gs 934 437 1964 1063 rc
c10
364 0 1006 1128 2 MP stroke
gr

c10
0 sg
1407 1432 mt 
(Tukey) s
gs 934 437 1964 1063 rc
c11
364 0 1006 1362 2 MP stroke
6 w
gr

6 w
c11

end %%Color Dict

eplot
%%EndObject

epage
end

showpage

%%Trailer
%%EOF
