%!PS-Adobe-3.0 EPSF-3.0
%%Creator: MATLAB, The MathWorks, Inc. Version 8.1.0.604 (R2013a). Operating System: Darwin 13.3.0 Darwin Kernel Version 13.3.0: Tue Jun  3 21:27:35 PDT 2014; root:xnu-2422.110.17~1/RELEASE_X86_64 x86_64.
%%Title: /Users/Pinglin/ICL/Thesis/materials/figs/ch5/rubust_cost_func.eps
%%CreationDate: 09/22/2014  09:22:18
%%DocumentNeededFonts: Helvetica
%%DocumentProcessColors: Cyan Magenta Yellow Black
%%LanguageLevel: 2
%%Pages: 1
%%BoundingBox:    26   186   585   606
%%EndComments

%%BeginProlog
% MathWorks dictionary
/MathWorks 160 dict begin
% definition operators
/bdef {bind def} bind def
/ldef {load def} bind def
/xdef {exch def} bdef
/xstore {exch store} bdef
% operator abbreviations
/c  /clip ldef
/cc /concat ldef
/cp /closepath ldef
/gr /grestore ldef
/gs /gsave ldef
/mt /moveto ldef
/np /newpath ldef
/cm /currentmatrix ldef
/sm /setmatrix ldef
/rm /rmoveto ldef
/rl /rlineto ldef
/s {show newpath} bdef
/sc {setcmykcolor} bdef
/sr /setrgbcolor ldef
/sg /setgray ldef
/w /setlinewidth ldef
/j /setlinejoin ldef
/cap /setlinecap ldef
/rc {rectclip} bdef
/rf {rectfill} bdef
% page state control
/pgsv () def
/bpage {/pgsv save def} bdef
/epage {pgsv restore} bdef
/bplot /gsave ldef
/eplot {stroke grestore} bdef
% orientation switch
/portraitMode 0 def /landscapeMode 1 def /rotateMode 2 def
% coordinate system mappings
/dpi2point 0 def
% font control
/FontSize 0 def
/FMS {/FontSize xstore findfont [FontSize 0 0 FontSize neg 0 0]
  makefont setfont} bdef
/reencode {exch dup where {pop load} {pop StandardEncoding} ifelse
  exch dup 3 1 roll findfont dup length dict begin
  { 1 index /FID ne {def}{pop pop} ifelse } forall
  /Encoding exch def currentdict end definefont pop} bdef
/isroman {findfont /CharStrings get /Agrave known} bdef
/FMSR {3 1 roll 1 index dup isroman {reencode} {pop pop} ifelse
  exch FMS} bdef
/csm {1 dpi2point div -1 dpi2point div scale neg translate
 dup landscapeMode eq {pop -90 rotate}
  {rotateMode eq {90 rotate} if} ifelse} bdef
% line types: solid, dotted, dashed, dotdash
/SO { [] 0 setdash } bdef
/DO { [.5 dpi2point mul 4 dpi2point mul] 0 setdash } bdef
/DA { [6 dpi2point mul] 0 setdash } bdef
/DD { [.5 dpi2point mul 4 dpi2point mul 6 dpi2point mul 4
  dpi2point mul] 0 setdash } bdef
% macros for lines and objects
/L {lineto stroke} bdef
/MP {3 1 roll moveto 1 sub {rlineto} repeat} bdef
/AP {{rlineto} repeat} bdef
/PDlw -1 def
/W {/PDlw currentlinewidth def setlinewidth} def
/PP {closepath eofill} bdef
/DP {closepath stroke} bdef
/MR {4 -2 roll moveto dup  0 exch rlineto exch 0 rlineto
  neg 0 exch rlineto closepath} bdef
/FR {MR stroke} bdef
/PR {MR fill} bdef
/L1i {{currentfile picstr readhexstring pop} image} bdef
/tMatrix matrix def
/MakeOval {newpath tMatrix currentmatrix pop translate scale
0 0 1 0 360 arc tMatrix setmatrix} bdef
/FO {MakeOval stroke} bdef
/PO {MakeOval fill} bdef
/PD {currentlinewidth 2 div 0 360 arc fill
   PDlw -1 eq not {PDlw w /PDlw -1 def} if} def
/FA {newpath tMatrix currentmatrix pop translate scale
  0 0 1 5 -2 roll arc tMatrix setmatrix stroke} bdef
/PA {newpath tMatrix currentmatrix pop	translate 0 0 moveto scale
  0 0 1 5 -2 roll arc closepath tMatrix setmatrix fill} bdef
/FAn {newpath tMatrix currentmatrix pop translate scale
  0 0 1 5 -2 roll arcn tMatrix setmatrix stroke} bdef
/PAn {newpath tMatrix currentmatrix pop translate 0 0 moveto scale
  0 0 1 5 -2 roll arcn closepath tMatrix setmatrix fill} bdef
/vradius 0 def /hradius 0 def /lry 0 def
/lrx 0 def /uly 0 def /ulx 0 def /rad 0 def
/MRR {/vradius xdef /hradius xdef /lry xdef /lrx xdef /uly xdef
  /ulx xdef newpath tMatrix currentmatrix pop ulx hradius add uly
  vradius add translate hradius vradius scale 0 0 1 180 270 arc 
  tMatrix setmatrix lrx hradius sub uly vradius add translate
  hradius vradius scale 0 0 1 270 360 arc tMatrix setmatrix
  lrx hradius sub lry vradius sub translate hradius vradius scale
  0 0 1 0 90 arc tMatrix setmatrix ulx hradius add lry vradius sub
  translate hradius vradius scale 0 0 1 90 180 arc tMatrix setmatrix
  closepath} bdef
/FRR {MRR stroke } bdef
/PRR {MRR fill } bdef
/MlrRR {/lry xdef /lrx xdef /uly xdef /ulx xdef /rad lry uly sub 2 div def
  newpath tMatrix currentmatrix pop ulx rad add uly rad add translate
  rad rad scale 0 0 1 90 270 arc tMatrix setmatrix lrx rad sub lry rad
  sub translate rad rad scale 0 0 1 270 90 arc tMatrix setmatrix
  closepath} bdef
/FlrRR {MlrRR stroke } bdef
/PlrRR {MlrRR fill } bdef
/MtbRR {/lry xdef /lrx xdef /uly xdef /ulx xdef /rad lrx ulx sub 2 div def
  newpath tMatrix currentmatrix pop ulx rad add uly rad add translate
  rad rad scale 0 0 1 180 360 arc tMatrix setmatrix lrx rad sub lry rad
  sub translate rad rad scale 0 0 1 0 180 arc tMatrix setmatrix
  closepath} bdef
/FtbRR {MtbRR stroke } bdef
/PtbRR {MtbRR fill } bdef
/stri 6 array def /dtri 6 array def
/smat 6 array def /dmat 6 array def
/tmat1 6 array def /tmat2 6 array def /dif 3 array def
/asub {/ind2 exch def /ind1 exch def dup dup
  ind1 get exch ind2 get sub exch } bdef
/tri_to_matrix {
  2 0 asub 3 1 asub 4 0 asub 5 1 asub
  dup 0 get exch 1 get 7 -1 roll astore } bdef
/compute_transform {
  dmat dtri tri_to_matrix tmat1 invertmatrix 
  smat stri tri_to_matrix tmat2 concatmatrix } bdef
/ds {stri astore pop} bdef
/dt {dtri astore pop} bdef
/db {2 copy /cols xdef /rows xdef mul dup 3 mul string
  currentfile 
  3 index 0 eq {/ASCIIHexDecode filter}
  {/ASCII85Decode filter 3 index 2 eq {/RunLengthDecode filter} if }
  ifelse exch readstring pop
  dup 0 3 index getinterval /rbmap xdef
  dup 2 index dup getinterval /gbmap xdef
  1 index dup 2 mul exch getinterval /bbmap xdef pop pop}bdef
/it {gs np dtri aload pop moveto lineto lineto cp c
  cols rows 8 compute_transform 
  rbmap gbmap bbmap true 3 colorimage gr}bdef
/il {newpath moveto lineto stroke}bdef
currentdict end def
%%EndProlog

%%BeginSetup
MathWorks begin

0 cap

end
%%EndSetup

%%Page: 1 1
%%BeginPageSetup
%%PageBoundingBox:    26   186   585   606
MathWorks begin
bpage
%%EndPageSetup

%%BeginObject: obj1
bplot

/dpi2point 12 def
portraitMode 0312 7272 csm

    0     0  6719  5033 rc
87 dict begin %Colortable dictionary
/c0 { 0.000000 0.000000 0.000000 sr} bdef
/c1 { 1.000000 1.000000 1.000000 sr} bdef
/c2 { 0.900000 0.000000 0.000000 sr} bdef
/c3 { 0.000000 0.820000 0.000000 sr} bdef
/c4 { 0.000000 0.000000 0.800000 sr} bdef
/c5 { 0.910000 0.820000 0.320000 sr} bdef
/c6 { 1.000000 0.260000 0.820000 sr} bdef
/c7 { 0.000000 0.820000 0.820000 sr} bdef
c0
1 j
1 sg
   0    0 6720 5034 rf
6 w
0 4102 5208 0 0 -4102 873 4479 4 MP
PP
-5208 0 0 4102 5208 0 0 -4102 873 4479 5 MP stroke
4 w
DO
0 sg
 873 4479 mt  873  377 L
 873  377 mt  873  377 L
1393 4479 mt 1393  377 L
1393  377 mt 1393  377 L
1914 4479 mt 1914  377 L
1914  377 mt 1914  377 L
2435 4479 mt 2435  377 L
2435  377 mt 2435  377 L
2956 4479 mt 2956  377 L
2956  377 mt 2956  377 L
3477 4479 mt 3477  377 L
3477  377 mt 3477  377 L
3997 4479 mt 3997  377 L
3997  377 mt 3997  377 L
4518 4479 mt 4518  377 L
4518  377 mt 4518  377 L
5039 4479 mt 5039  377 L
5039  377 mt 5039  377 L
5560 4479 mt 5560  377 L
5560  377 mt 5560  377 L
6081 4479 mt 6081  377 L
6081  377 mt 6081  377 L
 873 4479 mt 6081 4479 L
6081 4479 mt 6081 4479 L
 873 4068 mt 6081 4068 L
6081 4068 mt 6081 4068 L
 873 3658 mt 6081 3658 L
6081 3658 mt 6081 3658 L
 873 3248 mt 6081 3248 L
6081 3248 mt 6081 3248 L
 873 2838 mt 6081 2838 L
6081 2838 mt 6081 2838 L
 873 2428 mt 6081 2428 L
6081 2428 mt 6081 2428 L
 873 2017 mt 6081 2017 L
6081 2017 mt 6081 2017 L
 873 1607 mt 6081 1607 L
6081 1607 mt 6081 1607 L
 873 1197 mt 6081 1197 L
6081 1197 mt 6081 1197 L
 873  787 mt 6081  787 L
6081  787 mt 6081  787 L
 873  377 mt 6081  377 L
6081  377 mt 6081  377 L
SO
6 w
 873 4479 mt 6081 4479 L
 873  377 mt 6081  377 L
 873 4479 mt  873  377 L
6081 4479 mt 6081  377 L
 873 4479 mt 6081 4479 L
 873 4479 mt  873  377 L
 873 4479 mt  873 4426 L
 873  377 mt  873  429 L
%%IncludeResource: font Helvetica
/Helvetica /ISOLatin1Encoding 120 FMSR

 770 4624 mt 
(-1) s
1393 4479 mt 1393 4426 L
1393  377 mt 1393  429 L
1240 4624 mt 
(-0.8) s
1914 4479 mt 1914 4426 L
1914  377 mt 1914  429 L
1761 4624 mt 
(-0.6) s
2435 4479 mt 2435 4426 L
2435  377 mt 2435  429 L
2282 4624 mt 
(-0.4) s
2956 4479 mt 2956 4426 L
2956  377 mt 2956  429 L
2803 4624 mt 
(-0.2) s
3477 4479 mt 3477 4426 L
3477  377 mt 3477  429 L
3444 4624 mt 
(0) s
3997 4479 mt 3997 4426 L
3997  377 mt 3997  429 L
3914 4624 mt 
(0.2) s
4518 4479 mt 4518 4426 L
4518  377 mt 4518  429 L
4435 4624 mt 
(0.4) s
5039 4479 mt 5039 4426 L
5039  377 mt 5039  429 L
4956 4624 mt 
(0.6) s
5560 4479 mt 5560 4426 L
5560  377 mt 5560  429 L
5477 4624 mt 
(0.8) s
6081 4479 mt 6081 4426 L
6081  377 mt 6081  429 L
6048 4624 mt 
(1) s
 873 4479 mt  925 4479 L
6081 4479 mt 6028 4479 L
 772 4523 mt 
(0) s
 873 4068 mt  925 4068 L
6081 4068 mt 6028 4068 L
 605 4112 mt 
(0.05) s
 873 3658 mt  925 3658 L
6081 3658 mt 6028 3658 L
 672 3702 mt 
(0.1) s
 873 3248 mt  925 3248 L
6081 3248 mt 6028 3248 L
 605 3292 mt 
(0.15) s
 873 2838 mt  925 2838 L
6081 2838 mt 6028 2838 L
 672 2882 mt 
(0.2) s
 873 2428 mt  925 2428 L
6081 2428 mt 6028 2428 L
 605 2472 mt 
(0.25) s
 873 2017 mt  925 2017 L
6081 2017 mt 6028 2017 L
 672 2061 mt 
(0.3) s
 873 1607 mt  925 1607 L
6081 1607 mt 6028 1607 L
 605 1651 mt 
(0.35) s
 873 1197 mt  925 1197 L
6081 1197 mt 6028 1197 L
 672 1241 mt 
(0.4) s
 873  787 mt  925  787 L
6081  787 mt 6028  787 L
 605  831 mt 
(0.45) s
 873  377 mt  925  377 L
6081  377 mt 6028  377 L
 672  421 mt 
(0.5) s
 873 4479 mt 6081 4479 L
 873  377 mt 6081  377 L
 873 4479 mt  873  377 L
6081 4479 mt 6081  377 L
gs 873 377 5209 4103 rc
14.4 w
/c8 { 1.000000 0.000000 0.000000 sr} bdef
c8
3 -8 3 -8 2 -8 3 -8 3 -8 2 -9 3 -8 2 -8 
3 -8 3 -8 2 -8 3 -8 2 -8 3 -9 3 -8 2 -8 
3 -8 2 -8 3 -8 3 -8 2 -8 3 -8 2 -8 3 -8 
3 -8 2 -8 3 -8 2 -8 3 -8 3 -8 2 -8 3 -8 
2 -8 3 -8 3 -8 2 -8 3 -7 2 -8 3 -8 3 -8 
2 -8 3 -8 2 -8 3 -8 3 -7 2 -8 3 -8 2 -8 
3 -8 3 -7 2 -8 3 -8 3 -8 2 -8 3 -7 2 -8 
3 -8 3 -8 2 -7 3 -8 2 -8 3 -7 3 -8 2 -8 
3 -7 2 -8 3 -8 3 -7 2 -8 3 -8 2 -7 3 -8 
3 -8 2 -7 3 -8 2 -7 3 -8 3 -7 2 -8 3 -8 
2 -7 3 -8 3 -7 2 -8 3 -7 2 -8 3 -7 3 -8 
2 -7 3 -8 2 -7 3 -8 3 -7 2 -7 3 -8 2 -7 
3 -8 3 -7 2 -7 3 -8 3 -7 2 -8 3 -7 2 -7 
3 -8 3 -7 2 -7 3 -8 2 -7 3 -7 3 -8 2 -7 
3 -7 2 -7 3 -8 3 -7 2 -7 3 -7 2 -8 3 -7 
3 -7 2 -7 3 -8 2 -7 3 -7 3 -7 2 -7 3 -7 
2 -8 3 -7 3 -7 2 -7 3 -7 2 -7 3 -7 3 -7 
2 -7 3 -8 2 -7 3 -7 3 -7 2 -7 3 -7 2 -7 
3 -7 3 -7 2 -7 3 -7 2 -7 3 -7 3 -7 2 -7 
3 -7 3 -7 2 -7 3 -6 2 -7 3 -7 3 -7 2 -7 
3 -7 2 -7 3 -7 3 -7 2 -6 3 -7 2 -7 3 -7 
3 -7 2 -7 3 -6 2 -7 3 -7 3 -7 2 -7 3 -6 
2 -7 3 -7 3 -7 2 -6 3 -7 2 -7 3 -6 3 -7 
2 -7 3 -7 2 -6 3 -7 3 -7 2 -6 3 -7 2 -6 
3 -7 3 -7 2 -6 3 -7 2 -6 3 -7 3 -7 2 -6 
3 -7 3 -6 2 -7 3 -6 2 -7 3 -6 3 -7 2 -6 
3 -7 2 -6 3 -7 3 -6 2 -7 3 -6 2 -7 3 -6 
3 -7 2 -6 3 -6 2 -7 3 -6 3 -7 2 -6 3 -6 
2 -7 3 -6 3 -6 2 -7 3 -6 2 -6 3 -7 3 -6 
2 -6 3 -7 2 -6 3 -6 3 -6 2 -7 3 -6 2 -6 
3 -6 3 -7 2 -6 3 -6 2 -6 3 -6 3 -7 2 -6 
3 -6 2 -6 3 -6 3 -6 2 -7 3 -6 3 -6 2 -6 
3 -6 2 -6 3 -6 3 -6 2 -6 3 -6 2 -6 3 -6 
3 -6 2 -7 3 -6 2 -6 3 -6 3 -6 2 -6 3 -6 
2 -5 3 -6 3 -6 2 -6 3 -6 2 -6 3 -6 3 -6 
2 -6 3 -6 2 -6 3 -6 3 -5 2 -6 3 -6 2 -6 
3 -6 3 -6 2 -6 3 -5 2 -6 3 -6 3 -6 2 -5 
3 -6 2 -6 3 -6 5302 2463 300 MP stroke
3 -6 2 -5 3 -6 3 -6 2 -5 3 -6 2 -6 3 -6 
3 -5 2 -6 3 -6 2 -5 3 -6 3 -5 2 -6 3 -6 
2 -5 3 -6 3 -6 2 -5 3 -6 2 -5 3 -6 3 -5 
2 -6 3 -6 2 -5 3 -6 3 -5 2 -6 3 -5 2 -6 
3 -5 3 -6 2 -5 3 -5 2 -6 3 -5 3 -6 2 -5 
3 -6 2 -5 3 -5 3 -6 2 -5 3 -6 2 -5 3 -5 
3 -6 2 -5 3 -5 3 -6 2 -5 3 -5 2 -6 3 -5 
3 -5 2 -6 3 -5 2 -5 3 -5 3 -6 2 -5 3 -5 
2 -5 3 -5 3 -6 2 -5 3 -5 2 -5 3 -5 3 -6 
2 -5 3 -5 2 -5 3 -5 3 -5 2 -5 3 -6 2 -5 
3 -5 3 -5 2 -5 3 -5 2 -5 3 -5 3 -5 2 -5 
3 -5 2 -5 3 -5 3 -5 2 -5 3 -5 2 -5 3 -5 
3 -5 2 -5 3 -5 2 -5 3 -5 3 -5 2 -5 3 -5 
3 -4 2 -5 3 -5 2 -5 3 -5 3 -5 2 -5 3 -4 
2 -5 3 -5 3 -5 2 -5 3 -4 2 -5 3 -5 3 -5 
2 -5 3 -4 2 -5 3 -5 3 -5 2 -4 3 -5 2 -5 
3 -4 3 -5 2 -5 3 -4 2 -5 3 -5 3 -4 2 -5 
3 -5 2 -4 3 -5 3 -5 2 -4 3 -5 2 -4 3 -5 
3 -4 2 -5 3 -5 2 -4 3 -5 3 -4 2 -5 3 -4 
3 -5 2 -4 3 -5 2 -4 3 -5 3 -4 2 -4 3 -5 
2 -4 3 -5 3 -4 2 -5 3 -4 2 -4 3 -5 3 -4 
2 -5 3 -4 2 -4 3 -5 3 -4 2 -4 3 -5 2 -4 
3 -4 3 -4 2 -5 3 -4 2 -4 3 -5 3 -4 2 -4 
3 -4 2 -5 3 -4 3 -4 2 -4 3 -4 2 -5 3 -4 
3 -4 2 -4 3 -4 2 -4 3 -5 3 -4 2 -4 3 -4 
2 -4 3 -4 3 -4 2 -4 3 -4 3 -4 2 -4 3 -5 
2 -4 3 -4 3 -4 2 -4 3 -4 2 -4 3 -4 3 -4 
2 -4 3 -4 2 -4 3 -3 3 -4 2 -4 3 -4 2 -4 
3 -4 3 -4 2 -4 3 -4 2 -4 3 -4 3 -3 2 -4 
3 -4 2 -4 3 -4 3 -4 2 -3 3 -4 2 -4 3 -4 
3 -4 2 -3 3 -4 2 -4 3 -4 3 -3 2 -4 3 -4 
2 -3 3 -4 3 -4 2 -4 3 -3 3 -4 2 -4 3 -3 
2 -4 3 -3 3 -4 2 -4 3 -3 2 -4 3 -4 3 -3 
2 -4 3 -3 2 -4 3 -3 3 -4 2 -4 3 -3 2 -4 
3 -3 3 -4 2 -3 3 -4 2 -3 3 -4 3 -3 2 -3 
3 -4 2 -3 3 -4 3 -3 2 -4 3 -3 2 -3 3 -4 
3 -3 2 -4 3 -3 2 -3 3 -4 3 -3 2 -3 3 -4 
2 -3 3 -3 3 -4 4523 3816 300 MP stroke
2 -3 3 -3 3 -3 2 -4 3 -3 2 -3 3 -3 3 -4 
2 -3 3 -3 2 -3 3 -4 3 -3 2 -3 3 -3 2 -3 
3 -3 3 -4 2 -3 3 -3 2 -3 3 -3 3 -3 2 -3 
3 -3 2 -4 3 -3 3 -3 2 -3 3 -3 2 -3 3 -3 
3 -3 2 -3 3 -3 2 -3 3 -3 3 -3 2 -3 3 -3 
2 -3 3 -3 3 -3 2 -3 3 -3 2 -3 3 -3 3 -2 
2 -3 3 -3 2 -3 3 -3 3 -3 2 -3 3 -3 3 -2 
2 -3 3 -3 2 -3 3 -3 3 -3 2 -2 3 -3 2 -3 
3 -3 3 -2 2 -3 3 -3 2 -3 3 -2 3 -3 2 -3 
3 -2 2 -3 3 -3 3 -3 2 -2 3 -3 2 -3 3 -2 
3 -3 2 -2 3 -3 2 -3 3 -2 3 -3 2 -2 3 -3 
2 -3 3 -2 3 -3 2 -2 3 -3 2 -2 3 -3 3 -2 
2 -3 3 -2 2 -3 3 -2 3 -3 2 -2 3 -3 3 -2 
2 -3 3 -2 2 -3 3 -2 3 -2 2 -3 3 -2 2 -3 
3 -2 3 -2 2 -3 3 -2 2 -2 3 -3 3 -2 2 -2 
3 -3 2 -2 3 -2 3 -2 2 -3 3 -2 2 -2 3 -3 
3 -2 2 -2 3 -2 2 -2 3 -3 3 -2 2 -2 3 -2 
2 -2 3 -3 3 -2 2 -2 3 -2 2 -2 3 -2 3 -2 
2 -3 3 -2 2 -2 3 -2 3 -2 2 -2 3 -2 2 -2 
3 -2 3 -2 2 -2 3 -2 3 -2 2 -2 3 -2 2 -2 
3 -2 3 -2 2 -2 3 -2 2 -2 3 -2 3 -2 2 -2 
3 -2 2 -2 3 -2 3 -2 2 -1 3 -2 2 -2 3 -2 
3 -2 2 -2 3 -2 2 -1 3 -2 3 -2 2 -2 3 -2 
2 -1 3 -2 3 -2 2 -2 3 -1 2 -2 3 -2 3 -2 
2 -1 3 -2 2 -2 3 -1 3 -2 2 -2 3 -1 2 -2 
3 -2 3 -1 2 -2 3 -2 3 -1 2 -2 3 -2 2 -1 
3 -2 3 -1 2 -2 3 -1 2 -2 3 -2 3 -1 2 -2 
3 -1 2 -2 3 -1 3 -2 2 -1 3 -2 2 -1 3 -2 
3 -1 2 -1 3 -2 2 -1 3 -2 3 -1 2 -2 3 -1 
2 -1 3 -2 3 -1 2 -1 3 -2 2 -1 3 -2 3 -1 
2 -1 3 -1 2 -2 3 -1 3 -1 2 -2 3 -1 2 -1 
3 -1 3 -2 2 -1 3 -1 3 -1 2 -2 3 -1 2 -1 
3 -1 3 -1 2 -2 3 -1 2 -1 3 -1 3 -1 2 -1 
3 -2 2 -1 3 -1 3 -1 2 -1 3 -1 2 -1 3 -1 
3 -1 2 -1 3 -1 2 -1 3 -1 3 -1 2 -1 3 -1 
2 -1 3 -1 3 -1 2 -1 3 -1 2 -1 3 -1 3 -1 
2 -1 3 -1 2 -1 3 -1 3 -1 2 -1 3 -1 2 0 
3 -1 3 -1 2 -1 3745 4435 300 MP stroke
3 -1 2 -1 3 0 3 -1 2 -1 3 -1 3 -1 2 0 
3 -1 2 -1 3 -1 3 -1 2 0 3 -1 2 -1 3 0 
3 -1 2 -1 3 -1 2 0 3 -1 3 -1 2 0 3 -1 
2 -1 3 0 3 -1 2 0 3 -1 2 -1 3 0 3 -1 
2 0 3 -1 2 -1 3 0 3 -1 2 0 3 -1 2 0 
3 -1 3 0 2 -1 3 0 2 -1 3 0 3 -1 2 0 
3 -1 2 0 3 0 3 -1 2 0 3 -1 3 0 2 0 
3 -1 2 0 3 -1 3 0 2 0 3 -1 2 0 3 0 
3 -1 2 0 3 0 2 0 3 -1 3 0 2 0 3 -1 
2 0 3 0 3 0 2 -1 3 0 2 0 3 0 3 0 
2 -1 3 0 2 0 3 0 3 0 2 0 3 0 2 -1 
3 0 3 0 2 0 3 0 2 0 3 0 3 0 2 0 
3 0 2 0 3 0 3 0 2 0 3 0 2 -1 3 1 
3 0 2 0 3 0 3 0 2 0 3 0 2 0 3 0 
3 0 2 0 3 0 2 0 3 0 3 0 2 1 3 0 
2 0 3 0 3 0 2 0 3 0 2 1 3 0 3 0 
2 0 3 0 2 1 3 0 3 0 2 0 3 1 2 0 
3 0 3 1 2 0 3 0 2 0 3 1 3 0 2 0 
3 1 2 0 3 0 3 1 2 0 3 1 2 0 3 0 
3 1 2 0 3 1 3 0 2 0 3 1 2 0 3 1 
3 0 2 1 3 0 2 1 3 0 3 1 2 0 3 1 
2 0 3 1 3 0 2 1 3 1 2 0 3 1 3 0 
2 1 3 1 2 0 3 1 3 0 2 1 3 1 2 0 
3 1 3 1 2 0 3 1 2 1 3 1 3 0 2 1 
3 1 2 0 3 1 3 1 2 1 3 1 2 0 3 1 
3 1 2 1 3 1 3 0 2 1 3 1 2 1 3 1 
3 1 2 0 3 1 2 1 3 1 3 1 2 1 3 1 
2 1 3 1 3 1 2 1 3 1 2 1 3 1 3 1 
2 1 3 1 2 1 3 1 3 1 2 1 3 1 2 1 
3 1 3 1 2 1 3 1 2 1 3 1 3 1 2 1 
3 2 2 1 3 1 3 1 2 1 3 1 2 2 3 1 
3 1 2 1 3 1 2 2 3 1 3 1 2 1 3 2 
3 1 2 1 3 1 2 2 3 1 3 1 2 2 3 1 
2 1 3 1 3 2 2 1 3 2 2 1 3 1 3 2 
2 1 3 1 2 2 3 1 3 2 2 1 3 2 2 1 
3 1 3 2 2 1 3 2 2 1 3 2 3 1 2 2 
3 1 2 2 3 1 3 2 2 2 3 1 2 2 3 1 
3 2 2 1 3 2 2966 4321 300 MP stroke
2 2 3 1 3 2 2 2 3 1 3 2 2 2 3 1 
2 2 3 2 3 1 2 2 3 2 2 1 3 2 3 2 
2 2 3 1 2 2 3 2 3 2 2 1 3 2 2 2 
3 2 3 2 2 1 3 2 2 2 3 2 3 2 2 2 
3 2 2 1 3 2 3 2 2 2 3 2 2 2 3 2 
3 2 2 2 3 2 2 2 3 2 3 2 2 2 3 2 
2 2 3 2 3 2 2 2 3 2 2 2 3 2 3 2 
2 2 3 2 3 2 2 2 3 2 2 3 3 2 3 2 
2 2 3 2 2 2 3 2 3 3 2 2 3 2 2 2 
3 2 3 3 2 2 3 2 2 2 3 2 3 3 2 2 
3 2 2 3 3 2 3 2 2 2 3 3 2 2 3 2 
3 3 2 2 3 2 2 3 3 2 3 2 2 3 3 2 
2 3 3 2 3 2 2 3 3 2 2 3 3 2 3 3 
2 2 3 3 3 2 2 3 3 2 2 3 3 2 3 3 
2 2 3 3 2 2 3 3 3 2 2 3 3 3 2 2 
3 3 3 2 2 3 3 3 2 2 3 3 3 2 2 3 
3 3 2 2 3 3 3 3 2 3 3 2 2 3 3 3 
3 2 2 3 3 3 2 3 3 2 3 3 2 3 3 3 
2 2 3 3 3 3 2 3 3 3 2 3 3 2 3 3 
2 3 3 3 3 3 2 3 3 3 2 3 3 2 3 3 
2 3 3 3 2 3 3 3 3 3 2 3 3 3 2 3 
3 3 3 3 2 3 3 3 2 3 3 3 3 3 2 3 
3 3 2 3 3 3 3 3 2 4 3 3 2 3 3 3 
3 3 2 3 3 3 2 3 3 4 3 3 2 3 3 3 
2 3 3 3 3 4 2 3 3 3 2 3 3 4 3 3 
2 3 3 3 2 4 3 3 3 3 2 3 3 4 3 3 
2 3 3 4 2 3 3 3 3 4 2 3 3 3 2 4 
3 3 3 4 2 3 3 3 2 4 3 3 3 4 2 3 
3 4 2 3 3 3 3 4 2 3 3 4 2 3 3 4 
3 3 2 4 3 3 2 4 3 4 3 3 2 4 3 3 
2 4 3 3 3 4 2 4 3 3 2 4 3 4 3 3 
2 4 3 3 2 4 3 4 3 3 2 4 3 4 3 4 
2 3 3 4 2 4 3 3 3 4 2 4 3 4 2 3 
3 4 3 4 2 4 3 4 2 3 3 4 3 4 2 4 
3 4 2 4 3 3 3 4 2 4 3 4 2 4 3 4 
3 4 2 4 3 4 2 4 3 4 3 3 2 4 3 4 
2 4 3 4 3 4 2 4 3 4 2 4 3 4 3 4 
2 4 3 5 2 4 2188 3473 300 MP stroke
3 4 3 4 2 4 3 4 2 4 3 4 3 4 2 4 
3 4 3 5 2 4 3 4 2 4 3 4 3 4 2 5 
3 4 2 4 3 4 3 4 2 5 3 4 2 4 3 4 
3 5 2 4 3 4 2 5 3 4 3 4 2 4 3 5 
2 4 3 4 3 5 2 4 3 4 2 5 3 4 3 5 
2 4 3 4 2 5 3 4 3 5 2 4 3 5 2 4 
3 4 3 5 2 4 3 5 2 4 3 5 3 4 2 5 
3 4 3 5 2 4 3 5 2 5 3 4 3 5 2 4 
3 5 2 4 3 5 3 5 2 4 3 5 2 5 3 4 
3 5 2 5 3 4 2 5 3 5 3 4 2 5 3 5 
2 4 3 5 3 5 2 5 3 4 2 5 3 5 3 5 
2 5 3 4 2 5 3 5 3 5 2 5 3 4 2 5 
3 5 3 5 2 5 3 5 2 5 3 4 3 5 2 5 
3 5 3 5 2 5 3 5 2 5 3 5 3 5 2 5 
3 5 2 5 3 5 3 5 2 5 3 5 2 5 3 5 
3 5 2 5 3 5 2 5 3 5 3 5 2 5 3 6 
2 5 3 5 3 5 2 5 3 5 2 5 3 6 3 5 
2 5 3 5 2 5 3 6 3 5 2 5 3 5 2 5 
3 6 3 5 2 5 3 5 2 6 3 5 3 5 2 6 
3 5 2 5 3 6 3 5 2 5 3 6 3 5 2 5 
3 6 2 5 3 6 3 5 2 5 3 6 2 5 3 6 
3 5 2 6 3 5 2 5 3 6 3 5 2 6 3 5 
2 6 3 5 3 6 2 5 3 6 2 6 3 5 3 6 
2 5 3 6 2 5 3 6 3 6 2 5 3 6 2 6 
3 5 3 6 2 5 3 6 2 6 3 5 3 6 2 6 
3 6 2 5 3 6 3 6 2 5 3 6 3 6 2 6 
3 6 2 5 3 6 3 6 2 6 3 5 2 6 3 6 
3 6 2 6 3 6 2 6 3 5 3 6 2 6 3 6 
2 6 3 6 3 6 2 6 3 6 2 6 3 6 3 6 
2 5 3 6 2 6 3 6 3 6 2 6 3 6 2 7 
3 6 3 6 2 6 3 6 2 6 3 6 3 6 2 6 
3 6 2 6 3 6 3 6 2 7 3 6 2 6 3 6 
3 6 2 6 3 7 3 6 2 6 3 6 2 6 3 7 
3 6 2 6 3 6 2 7 3 6 3 6 2 6 3 7 
2 6 3 6 3 7 2 6 3 6 2 7 3 6 3 6 
2 7 3 6 2 6 3 7 3 6 2 7 3 6 2 6 
3 7 3 6 2 7 3 6 2 7 3 6 3 7 2 6 
3 7 2 6 3 7 1409 1892 300 MP stroke
3 6 2 7 3 6 2 7 3 6 3 7 2 6 3 7 
3 7 2 6 3 7 2 6 3 7 3 7 2 6 3 7 
2 6 3 7 3 7 2 6 3 7 2 7 3 7 3 6 
2 7 3 7 2 6 3 7 3 7 2 7 3 6 2 7 
3 7 3 7 2 7 3 6 2 7 3 7 3 7 2 7 
3 7 2 6 3 7 3 7 2 7 3 7 2 7 3 7 
3 7 2 7 3 6 2 7 3 7 3 7 2 7 3 7 
3 7 2 7 3 7 2 7 3 7 3 7 2 7 3 7 
2 7 3 7 3 7 2 7 3 8 2 7 3 7 3 7 
2 7 3 7 2 7 3 7 3 7 2 8 3 7 2 7 
3 7 3 7 2 7 3 8 2 7 3 7 3 7 2 8 
3 7 2 7 3 7 3 8 2 7 3 7 2 7 3 8 
3 7 2 7 3 8 2 7 3 7 3 8 2 7 3 7 
2 8 3 7 3 8 2 7 3 7 3 8 2 7 3 8 
2 7 3 7 3 8 2 7 3 8 2 7 3 8 3 7 
2 8 3 7 2 8 3 7 3 8 2 7 3 8 2 8 
3 7 3 8 2 7 3 8 2 7 3 8 3 8 2 7 
3 8 2 8 3 7 3 8 2 8 3 7 2 8 3 8 
3 7 2 8 3 8 2 7 3 8 3 8 2 8 3 7 
2 8 3 8 3 8 2 8 3 7 3 8 2 8 3 8 
2 8 3 7 3 8 2 8 3 8 2 8 3 8 3 8 
2 8 3 7 2 8 3 8 3 8 2 8 3 8 2 8 
3 8 3 8 2 8 3 8 2 8 3 8 3 8 2 8 
3 8 2 8 3 8 3 8 2 8 3 8 2 8 3 8 
3 9 2 8 3 8 2 8 3 8 3 8 2 8 3 8 
2 9 3 8 3 8 2 8 3 8 2 8 873 377 207 MP stroke
/c9 { 0.000000 1.000000 0.000000 sr} bdef
c9
3 -8 3 -8 2 -8 3 -8 3 -9 2 -8 3 -8 2 -8 
3 -8 3 -9 2 -8 3 -8 2 -8 3 -8 3 -9 2 -8 
3 -8 2 -8 3 -8 3 -9 2 -8 3 -8 2 -8 3 -8 
3 -9 2 -8 3 -8 2 -8 3 -8 3 -9 2 -8 3 -8 
2 -8 3 -8 3 -9 2 -8 3 -8 2 -8 3 -8 3 -9 
2 -8 3 -8 2 -8 3 -8 3 -9 2 -8 3 -8 2 -8 
3 -8 3 -9 2 -8 3 -8 3 -8 2 -9 3 -8 2 -8 
3 -8 3 -8 2 -9 3 -8 2 -8 3 -8 3 -8 2 -9 
3 -8 2 -8 3 -8 3 -8 2 -9 3 -8 2 -8 3 -8 
3 -8 2 -9 3 -8 2 -8 3 -8 3 -8 2 -9 3 -8 
2 -8 3 -8 3 -8 2 -9 3 -8 2 -8 3 -8 3 -8 
2 -9 3 -8 2 -8 3 -8 3 -8 2 -9 3 -8 2 -8 
3 -8 3 -8 2 -9 3 -8 3 -8 2 -8 3 -9 2 -8 
3 -8 3 -8 2 -8 3 -9 2 -8 3 -8 3 -8 2 -8 
3 -9 2 -8 3 -8 3 -8 2 -8 3 -9 2 -8 3 -8 
3 -8 2 -8 3 -9 2 -8 3 -8 3 -8 2 -8 3 -9 
2 -8 3 -8 3 -8 2 -8 3 -9 2 -8 3 -8 3 -8 
2 -8 3 -9 2 -8 3 -8 3 -8 2 -8 3 -9 2 -8 
3 -8 3 -8 2 -8 3 -9 2 -8 3 -8 3 -8 2 -9 
3 -8 3 -8 2 -8 3 -8 2 -9 3 -8 3 -8 2 -8 
3 -8 2 -9 3 -8 3 -8 2 -8 3 -8 2 -9 3 -8 
3 -8 2 -8 3 -8 2 -9 3 -8 3 -8 2 -8 3 -8 
2 -9 3 -8 3 -8 2 -8 3 -8 2 -9 3 -8 3 -8 
2 -8 3 -8 2 -9 3 -8 3 -8 2 -8 3 -8 2 -9 
3 -8 3 -8 2 -8 3 -8 2 -9 3 -8 3 -8 2 -8 
3 -9 3 -8 2 -8 3 -8 2 -8 3 -9 3 -8 2 -8 
3 -8 2 -8 3 -9 3 -8 2 -8 3 -8 2 -8 3 -9 
3 -8 2 -8 3 -8 2 -8 3 -9 3 -8 2 -8 3 -8 
2 -8 3 -9 3 -8 2 -8 3 -8 2 -8 3 -9 3 -8 
2 -8 3 -8 2 -8 3 -9 3 -8 2 -8 3 -8 2 -8 
3 -9 3 -8 2 -8 3 -8 2 -8 3 -9 3 -8 2 -8 
3 -8 2 -9 3 -8 3 -8 2 -8 3 -8 3 -9 2 -8 
3 -8 2 -8 3 -8 3 -9 2 -8 3 -8 2 -8 3 -8 
3 -9 2 -8 3 -8 2 -8 3 -8 3 -9 2 -8 3 -8 
2 -8 3 -8 3 -9 2 -8 3 -8 2 -8 3 -8 3 -9 
2 -8 3 -8 2 -8 3 -8 3 -9 2 -8 3 -8 2 -8 
3 -8 3 -9 2 -8 3 -8 2 -8 3 -8 3 -9 2 -8 
3 -8 2 -8 3 -8 4000 2829 300 MP stroke
3 -9 2 -8 3 -8 3 -8 2 -9 3 -8 2 -8 3 -8 
3 -8 2 -9 3 -8 2 -8 3 -8 3 -8 2 -9 3 -8 
2 -8 3 -8 3 -8 2 -9 3 -8 2 -8 3 -8 3 -8 
2 -9 3 -8 2 -8 3 -8 3 -8 2 -9 3 -8 2 -8 
3 -8 3 -8 2 -9 3 -8 2 -8 3 -8 3 -8 2 -9 
3 -8 2 -8 3 -8 3 -8 2 -9 3 -8 2 -8 3 -8 
3 -8 2 -9 3 -8 3 -8 2 -8 3 -9 2 -8 3 -8 
3 -8 2 -8 3 -9 2 -8 3 -8 3 -8 2 -8 3 -9 
2 -8 3 -8 3 -8 2 -8 3 -9 2 -8 3 -8 3 -8 
2 -8 3 -9 2 -8 3 -8 3 -8 2 -8 3 -9 2 -8 
3 -8 3 -8 2 -8 3 -9 2 -8 3 -8 3 -8 2 -8 
3 -9 2 -8 3 -8 3 -8 2 -8 3 -9 2 -8 3 -8 
3 -8 2 -8 3 -9 2 -8 3 -8 3 -8 2 -9 3 -8 
3 -8 2 -8 3 -8 2 -9 3 -8 3 -8 2 -8 3 -8 
2 -9 3 -8 3 -8 2 -8 3 -8 2 -9 3 -8 3 -8 
2 -8 3 -8 2 -9 3 -8 3 -8 2 -8 3 -8 2 -9 
3 -8 3 -8 2 -8 3 -8 2 -9 3 -8 3 -8 2 -8 
3 -8 2 -9 3 -8 3 -8 2 -8 3 -8 2 -9 3 -8 
3 -8 2 -8 3 -8 2 -9 3 -8 3 -8 2 -8 3 -9 
3 -8 2 -8 3 -8 2 -8 3 -9 3 -8 2 -8 3 -8 
2 -8 3 -9 3 -8 2 -8 3 -8 2 -8 3 -9 3 -8 
2 -8 3 -8 2 -8 3 -9 3 -8 2 -8 3 -8 2 -8 
3 -9 3 -8 2 -8 3 -8 2 -8 3 -9 3 -8 2 -8 
3 -8 2 -8 3 -9 3 -8 2 -8 3 -8 2 -8 3 -9 
3 -8 2 -8 3 -8 2 -8 3 -9 3 -8 2 -8 3 -8 
2 -9 3 9 3 8 2 8 3 8 3 9 2 8 3 8 
2 8 3 8 3 9 2 8 3 8 2 8 3 8 3 9 
2 8 3 8 2 8 3 8 3 9 2 8 3 8 2 8 
3 8 3 9 2 8 3 8 2 8 3 8 3 9 2 8 
3 8 2 8 3 8 3 9 2 8 3 8 2 8 3 8 
3 9 2 8 3 8 2 8 3 8 3 9 2 8 3 8 
2 8 3 8 3 9 2 8 3 8 3 8 2 9 3 8 
2 8 3 8 3 8 2 9 3 8 2 8 3 8 3 8 
2 9 3 8 2 8 3 8 3 8 2 9 3 8 2 8 
3 8 3 8 2 9 3 8 2 8 3 8 3 8 2 9 
3 8 2 8 3 8 3 8 2 9 3 8 2 8 3 8 
3 8 2 9 3 8 2 8 3 8 3 8 2 9 3 8 
2 8 3 8 3 8 3221 3675 300 MP stroke
2 9 3 8 3 8 2 8 3 9 2 8 3 8 3 8 
2 8 3 9 2 8 3 8 3 8 2 8 3 9 2 8 
3 8 3 8 2 8 3 9 2 8 3 8 3 8 2 8 
3 9 2 8 3 8 3 8 2 8 3 9 2 8 3 8 
3 8 2 8 3 9 2 8 3 8 3 8 2 8 3 9 
2 8 3 8 3 8 2 8 3 9 2 8 3 8 3 8 
2 8 3 9 2 8 3 8 3 8 2 9 3 8 3 8 
2 8 3 8 2 9 3 8 3 8 2 8 3 8 2 9 
3 8 3 8 2 8 3 8 2 9 3 8 3 8 2 8 
3 8 2 9 3 8 3 8 2 8 3 8 2 9 3 8 
3 8 2 8 3 8 2 9 3 8 3 8 2 8 3 8 
2 9 3 8 3 8 2 8 3 8 2 9 3 8 3 8 
2 8 3 8 2 9 3 8 3 8 2 8 3 9 3 8 
2 8 3 8 2 8 3 9 3 8 2 8 3 8 2 8 
3 9 3 8 2 8 3 8 2 8 3 9 3 8 2 8 
3 8 2 8 3 9 3 8 2 8 3 8 2 8 3 9 
3 8 2 8 3 8 2 8 3 9 3 8 2 8 3 8 
2 8 3 9 3 8 2 8 3 8 2 8 3 9 3 8 
2 8 3 8 2 8 3 9 3 8 2 8 3 8 2 8 
3 9 3 8 2 8 3 8 3 9 2 8 3 8 2 8 
3 8 3 9 2 8 3 8 2 8 3 8 3 9 2 8 
3 8 2 8 3 8 3 9 2 8 3 8 2 8 3 8 
3 9 2 8 3 8 2 8 3 8 3 9 2 8 3 8 
2 8 3 8 3 9 2 8 3 8 2 8 3 8 3 9 
2 8 3 8 2 8 3 8 3 9 2 8 3 8 2 8 
3 8 3 9 2 8 3 8 3 8 2 9 3 8 2 8 
3 8 3 8 2 9 3 8 2 8 3 8 3 8 2 9 
3 8 2 8 3 8 3 8 2 9 3 8 2 8 3 8 
3 8 2 9 3 8 2 8 3 8 3 8 2 9 3 8 
2 8 3 8 3 8 2 9 3 8 2 8 3 8 3 8 
2 9 3 8 2 8 3 8 3 8 2 9 3 8 2 8 
3 8 3 8 2 9 3 8 3 8 2 8 3 9 2 8 
3 8 3 8 2 8 3 9 2 8 3 8 3 8 2 8 
3 9 2 8 3 8 3 8 2 8 3 9 2 8 3 8 
3 8 2 8 3 9 2 8 3 8 3 8 2 8 3 9 
2 8 3 8 3 8 2 8 3 9 2 8 3 8 3 8 
2 8 3 9 2 8 3 8 3 8 2 8 3 9 2 8 
3 8 3 8 2 8 2443 1222 300 MP stroke
3 9 2 8 3 8 3 8 2 9 3 8 3 8 2 8 
3 8 2 9 3 8 3 8 2 8 3 8 2 9 3 8 
3 8 2 8 3 8 2 9 3 8 3 8 2 8 3 8 
2 9 3 8 3 8 2 8 3 8 2 9 3 8 3 8 
2 8 3 8 2 9 3 8 3 8 2 8 3 8 2 9 
3 8 3 8 2 8 3 8 2 9 3 8 3 8 2 8 
3 8 2 9 3 8 3 8 2 8 3 9 3 8 2 8 
3 8 2 8 3 9 3 8 2 8 3 8 2 8 3 9 
3 8 2 8 3 8 2 8 3 9 3 8 2 8 3 8 
2 8 3 9 3 8 2 8 3 8 2 8 3 9 3 8 
2 8 3 8 2 8 3 9 3 8 2 8 3 8 2 8 
3 9 3 8 2 8 3 8 2 8 3 9 3 8 2 8 
3 8 2 8 3 9 3 8 2 8 3 8 2 8 2175 377 104 MP stroke
/c10 { 0.000000 0.000000 1.000000 sr} bdef
c10
3 -2 3 -1 2 -2 3 -2 3 -2 2 -2 3 -2 2 -2 
3 -1 3 -2 2 -2 3 -2 2 -2 3 -2 3 -2 2 -1 
3 -2 2 -2 3 -2 3 -2 2 -2 3 -2 2 -2 3 -1 
3 -2 2 -2 3 -2 2 -2 3 -2 3 -2 2 -2 3 -2 
2 -2 3 -2 3 -2 2 -1 3 -2 2 -2 3 -2 3 -2 
2 -2 3 -2 2 -2 3 -2 3 -2 2 -2 3 -2 2 -2 
3 -2 3 -2 2 -2 3 -2 3 -2 2 -2 3 -2 2 -2 
3 -2 3 -2 2 -2 3 -2 2 -2 3 -2 3 -2 2 -2 
3 -2 2 -2 3 -2 3 -2 2 -2 3 -2 2 -2 3 -2 
3 -2 2 -2 3 -2 2 -3 3 -2 3 -2 2 -2 3 -2 
2 -2 3 -2 3 -2 2 -2 3 -2 2 -2 3 -2 3 -3 
2 -2 3 -2 2 -2 3 -2 3 -2 2 -2 3 -2 2 -3 
3 -2 3 -2 2 -2 3 -2 3 -2 2 -2 3 -3 2 -2 
3 -2 3 -2 2 -2 3 -2 2 -3 3 -2 3 -2 2 -2 
3 -2 2 -3 3 -2 3 -2 2 -2 3 -2 2 -3 3 -2 
3 -2 2 -2 3 -3 2 -2 3 -2 3 -2 2 -3 3 -2 
2 -2 3 -2 3 -3 2 -2 3 -2 2 -2 3 -3 3 -2 
2 -2 3 -2 2 -3 3 -2 3 -2 2 -3 3 -2 2 -2 
3 -3 3 -2 2 -2 3 -3 2 -2 3 -2 3 -3 2 -2 
3 -2 3 -3 2 -2 3 -2 2 -3 3 -2 3 -2 2 -3 
3 -2 2 -2 3 -3 3 -2 2 -3 3 -2 2 -2 3 -3 
3 -2 2 -3 3 -2 2 -2 3 -3 3 -2 2 -3 3 -2 
2 -3 3 -2 3 -2 2 -3 3 -2 2 -3 3 -2 3 -3 
2 -2 3 -3 2 -2 3 -3 3 -2 2 -3 3 -2 2 -3 
3 -2 3 -3 2 -2 3 -3 2 -2 3 -3 3 -2 2 -3 
3 -2 3 -3 2 -2 3 -3 2 -2 3 -3 3 -2 2 -3 
3 -3 2 -2 3 -3 3 -2 2 -3 3 -2 2 -3 3 -3 
3 -2 2 -3 3 -2 2 -3 3 -3 3 -2 2 -3 3 -2 
2 -3 3 -3 3 -2 2 -3 3 -3 2 -2 3 -3 3 -2 
2 -3 3 -3 2 -2 3 -3 3 -3 2 -2 3 -3 2 -3 
3 -2 3 -3 2 -3 3 -3 2 -2 3 -3 3 -3 2 -2 
3 -3 2 -3 3 -3 3 -2 2 -3 3 -3 3 -3 2 -2 
3 -3 2 -3 3 -3 3 -2 2 -3 3 -3 2 -3 3 -2 
3 -3 2 -3 3 -3 2 -3 3 -2 3 -3 2 -3 3 -3 
2 -3 3 -2 3 -3 2 -3 3 -3 2 -3 3 -3 3 -2 
2 -3 3 -3 2 -3 3 -3 3 -3 2 -3 3 -2 2 -3 
3 -3 3 -3 2 -3 3 -3 2 -3 3 -3 3 -3 2 -3 
3 -2 2 -3 3 -3 5302 2445 300 MP stroke
3 -3 2 -3 3 -3 3 -3 2 -3 3 -3 2 -3 3 -3 
3 -3 2 -3 3 -3 2 -3 3 -3 3 -3 2 -3 3 -3 
2 -3 3 -3 3 -3 2 -3 3 -3 2 -3 3 -3 3 -3 
2 -3 3 -3 2 -3 3 -3 3 -3 2 -3 3 -3 2 -3 
3 -3 3 -3 2 -3 3 -3 2 -3 3 -3 3 -3 2 -4 
3 -3 2 -3 3 -3 3 -3 2 -3 3 -3 2 -3 3 -3 
3 -4 2 -3 3 -3 3 -3 2 -3 3 -3 2 -3 3 -4 
3 -3 2 -3 3 -3 2 -3 3 -3 3 -4 2 -3 3 -3 
2 -3 3 -3 3 -3 2 -4 3 -3 2 -3 3 -3 3 -3 
2 -4 3 -3 2 -3 3 -3 3 -4 2 -3 3 -3 2 -3 
3 -4 3 -3 2 -3 3 -3 2 -4 3 -3 3 -3 2 -3 
3 -4 2 -3 3 -3 3 -4 2 -3 3 -3 2 -3 3 -4 
3 -3 2 -3 3 -4 2 -3 3 -3 3 -4 2 -3 3 -3 
3 -4 2 -3 3 -3 2 -4 3 -3 3 -3 2 -4 3 -3 
2 -4 3 -3 3 -3 2 -4 3 -3 2 -3 3 -4 3 -3 
2 -4 3 -3 2 -3 3 -4 3 -3 2 -4 3 -3 2 -4 
3 -3 3 -3 2 -4 3 -3 2 -4 3 -3 3 -4 2 -3 
3 -4 2 -3 3 -3 3 -4 2 -3 3 -4 2 -3 3 -4 
3 -3 2 -4 3 -3 2 -4 3 -3 3 -4 2 -3 3 -4 
3 -3 2 -4 3 -3 2 -4 3 -3 3 -4 2 -3 3 -4 
2 -3 3 -4 3 -4 2 -3 3 -4 2 -3 3 -4 3 -3 
2 -4 3 -3 2 -4 3 -4 3 -3 2 -4 3 -3 2 -4 
3 -3 3 -4 2 -4 3 -3 2 -4 3 -3 3 -4 2 -4 
3 -3 2 -4 3 -3 3 -4 2 -4 3 -3 2 -4 3 -3 
3 -4 2 -4 3 -3 2 -4 3 -4 3 -3 2 -4 3 -4 
2 -3 3 -4 3 -3 2 -4 3 -4 3 -3 2 -4 3 -4 
2 -3 3 -4 3 -4 2 -3 3 -4 2 -4 3 -3 3 -4 
2 -4 3 -3 2 -4 3 -4 3 -4 2 -3 3 -4 2 -4 
3 -3 3 -4 2 -4 3 -3 2 -4 3 -4 3 -4 2 -3 
3 -4 2 -4 3 -3 3 -4 2 -4 3 -4 2 -3 3 -4 
3 -4 2 -3 3 -4 2 -4 3 -4 3 -3 2 -4 3 -4 
2 -4 3 -3 3 -4 2 -4 3 -4 3 -3 2 -4 3 -4 
2 -4 3 -3 3 -4 2 -4 3 -4 2 -3 3 -4 3 -4 
2 -4 3 -3 2 -4 3 -4 3 -4 2 -3 3 -4 2 -4 
3 -4 3 -3 2 -4 3 -4 2 -4 3 -3 3 -4 2 -4 
3 -4 2 -3 3 -4 3 -4 2 -4 3 -4 2 -3 3 -4 
3 -4 2 -4 3 -3 2 -4 3 -4 3 -4 2 -3 3 -4 
2 -4 3 -4 3 -4 4523 3477 300 MP stroke
2 -3 3 -4 3 -4 2 -4 3 -3 2 -4 3 -4 3 -4 
2 -3 3 -4 2 -4 3 -4 3 -3 2 -4 3 -4 2 -4 
3 -4 3 -3 2 -4 3 -4 2 -4 3 -3 3 -4 2 -4 
3 -4 2 -3 3 -4 3 -4 2 -4 3 -3 2 -4 3 -4 
3 -4 2 -3 3 -4 2 -4 3 -3 3 -4 2 -4 3 -4 
2 -3 3 -4 3 -4 2 -4 3 -3 2 -4 3 -4 3 -3 
2 -4 3 -4 2 -4 3 -3 3 -4 2 -4 3 -3 3 -4 
2 -4 3 -3 2 -4 3 -4 3 -4 2 -3 3 -4 2 -4 
3 -3 3 -4 2 -4 3 -3 2 -4 3 -4 3 -3 2 -4 
3 -4 2 -3 3 -4 3 -3 2 -4 3 -4 2 -3 3 -4 
3 -4 2 -3 3 -4 2 -3 3 -4 3 -4 2 -3 3 -4 
2 -3 3 -4 3 -4 2 -3 3 -4 2 -3 3 -4 3 -3 
2 -4 3 -4 2 -3 3 -4 3 -3 2 -4 3 -3 3 -4 
2 -3 3 -4 2 -3 3 -4 3 -3 2 -4 3 -3 2 -4 
3 -3 3 -4 2 -3 3 -4 2 -3 3 -4 3 -3 2 -4 
3 -3 2 -3 3 -4 3 -3 2 -4 3 -3 2 -4 3 -3 
3 -3 2 -4 3 -3 2 -4 3 -3 3 -3 2 -4 3 -3 
2 -3 3 -4 3 -3 2 -3 3 -4 2 -3 3 -3 3 -4 
2 -3 3 -3 2 -3 3 -4 3 -3 2 -3 3 -3 2 -4 
3 -3 3 -3 2 -3 3 -4 3 -3 2 -3 3 -3 2 -3 
3 -4 3 -3 2 -3 3 -3 2 -3 3 -3 3 -3 2 -4 
3 -3 2 -3 3 -3 3 -3 2 -3 3 -3 2 -3 3 -3 
3 -3 2 -3 3 -3 2 -3 3 -3 3 -3 2 -3 3 -3 
2 -3 3 -3 3 -3 2 -3 3 -3 2 -3 3 -3 3 -3 
2 -3 3 -3 2 -3 3 -3 3 -2 2 -3 3 -3 2 -3 
3 -3 3 -3 2 -2 3 -3 3 -3 2 -3 3 -3 2 -2 
3 -3 3 -3 2 -3 3 -2 2 -3 3 -3 3 -2 2 -3 
3 -3 2 -2 3 -3 3 -3 2 -2 3 -3 2 -2 3 -3 
3 -3 2 -2 3 -3 2 -2 3 -3 3 -2 2 -3 3 -2 
2 -3 3 -2 3 -3 2 -2 3 -3 2 -2 3 -3 3 -2 
2 -2 3 -3 2 -2 3 -2 3 -3 2 -2 3 -2 2 -3 
3 -2 3 -2 2 -3 3 -2 3 -2 2 -2 3 -3 2 -2 
3 -2 3 -2 2 -2 3 -2 2 -3 3 -2 3 -2 2 -2 
3 -2 2 -2 3 -2 3 -2 2 -2 3 -2 2 -2 3 -2 
3 -2 2 -2 3 -2 2 -2 3 -2 3 -2 2 -2 3 -2 
2 -2 3 -2 3 -2 2 -1 3 -2 2 -2 3 -2 3 -2 
2 -1 3 -2 2 -2 3 -2 3 -1 2 -2 3 -2 2 -1 
3 -2 3 -2 2 -1 3745 4393 300 MP stroke
3 -2 2 -1 3 -2 3 -2 2 -1 3 -2 3 -1 2 -2 
3 -1 2 -2 3 -1 3 -2 2 -1 3 -2 2 -1 3 -1 
3 -2 2 -1 3 -1 2 -2 3 -1 3 -1 2 -2 3 -1 
2 -1 3 -1 3 -2 2 -1 3 -1 2 -1 3 -1 3 -2 
2 -1 3 -1 2 -1 3 -1 3 -1 2 -1 3 -1 2 -1 
3 -1 3 -1 2 -1 3 -1 2 -1 3 -1 3 -1 2 -1 
3 -1 2 -1 3 0 3 -1 2 -1 3 -1 3 -1 2 0 
3 -1 2 -1 3 -1 3 0 2 -1 3 -1 2 0 3 -1 
3 -1 2 0 3 -1 2 0 3 -1 3 -1 2 0 3 -1 
2 0 3 -1 3 0 2 -1 3 0 2 0 3 -1 3 0 
2 -1 3 0 2 0 3 -1 3 0 2 0 3 0 2 -1 
3 0 3 0 2 0 3 -1 2 0 3 0 3 0 2 0 
3 0 2 0 3 0 3 0 2 0 3 0 2 -1 3 1 
3 0 2 0 3 0 3 0 2 0 3 0 2 0 3 0 
3 0 2 0 3 1 2 0 3 0 3 0 2 1 3 0 
2 0 3 0 3 1 2 0 3 0 2 1 3 0 3 1 
2 0 3 0 2 1 3 0 3 1 2 0 3 1 2 0 
3 1 3 1 2 0 3 1 2 0 3 1 3 1 2 0 
3 1 2 1 3 0 3 1 2 1 3 1 2 0 3 1 
3 1 2 1 3 1 3 0 2 1 3 1 2 1 3 1 
3 1 2 1 3 1 2 1 3 1 3 1 2 1 3 1 
2 1 3 1 3 1 2 1 3 1 2 1 3 2 3 1 
2 1 3 1 2 1 3 2 3 1 2 1 3 1 2 2 
3 1 3 1 2 2 3 1 2 1 3 2 3 1 2 1 
3 2 2 1 3 2 3 1 2 2 3 1 2 2 3 1 
3 2 2 1 3 2 3 2 2 1 3 2 2 1 3 2 
3 2 2 1 3 2 2 2 3 1 3 2 2 2 3 2 
2 1 3 2 3 2 2 2 3 2 2 1 3 2 3 2 
2 2 3 2 2 2 3 2 3 2 2 2 3 2 2 2 
3 2 3 2 2 2 3 2 2 2 3 2 3 2 2 2 
3 2 2 2 3 2 3 2 2 3 3 2 2 2 3 2 
3 2 2 2 3 3 2 2 3 2 3 2 2 3 3 2 
3 2 2 3 3 2 2 2 3 3 3 2 2 2 3 3 
2 2 3 2 3 3 2 2 3 3 2 2 3 3 3 2 
2 3 3 2 2 3 3 2 3 3 2 2 3 3 2 2 
3 3 3 3 2 2 3 3 2 2 3 3 3 3 2 2 
3 3 2 3 3 2 3 3 2 3 3 2 2 3 3 3 
3 3 2 2 3 3 2966 4186 300 MP stroke
2 3 3 3 3 3 2 2 3 3 3 3 2 3 3 3 
2 3 3 2 3 3 2 3 3 3 2 3 3 3 3 3 
2 3 3 3 2 3 3 3 3 3 2 3 3 3 2 3 
3 3 3 3 2 3 3 3 2 3 3 3 3 3 2 3 
3 3 2 3 3 3 3 3 2 3 3 3 2 4 3 3 
3 3 2 3 3 3 2 3 3 3 3 4 2 3 3 3 
2 3 3 3 3 4 2 3 3 3 2 3 3 4 3 3 
2 3 3 3 3 4 2 3 3 3 2 3 3 4 3 3 
2 3 3 4 2 3 3 3 3 4 2 3 3 3 2 4 
3 3 3 3 2 4 3 3 2 4 3 3 3 3 2 4 
3 3 2 4 3 3 3 4 2 3 3 3 2 4 3 3 
3 4 2 3 3 4 2 3 3 4 3 3 2 4 3 3 
2 4 3 3 3 4 2 3 3 4 2 3 3 4 3 3 
2 4 3 3 3 4 2 3 3 4 2 4 3 3 3 4 
2 3 3 4 2 3 3 4 3 4 2 3 3 4 2 3 
3 4 3 4 2 3 3 4 2 3 3 4 3 4 2 3 
3 4 2 4 3 3 3 4 2 3 3 4 2 4 3 3 
3 4 2 4 3 3 2 4 3 4 3 3 2 4 3 4 
2 3 3 4 3 4 2 4 3 3 2 4 3 4 3 3 
2 4 3 4 3 3 2 4 3 4 2 4 3 3 3 4 
2 4 3 3 2 4 3 4 3 4 2 3 3 4 2 4 
3 4 3 3 2 4 3 4 2 3 3 4 3 4 2 4 
3 3 2 4 3 4 3 4 2 3 3 4 2 4 3 4 
3 3 2 4 3 4 2 4 3 3 3 4 2 4 3 4 
2 4 3 3 3 4 2 4 3 4 2 3 3 4 3 4 
2 4 3 3 2 4 3 4 3 4 2 3 3 4 3 4 
2 4 3 4 2 3 3 4 3 4 2 4 3 3 2 4 
3 4 3 4 2 3 3 4 2 4 3 4 3 4 2 3 
3 4 2 4 3 4 3 3 2 4 3 4 2 4 3 3 
3 4 2 4 3 4 2 3 3 4 3 4 2 4 3 3 
2 4 3 4 3 4 2 3 3 4 2 4 3 4 3 3 
2 4 3 4 2 4 3 3 3 4 2 4 3 4 3 3 
2 4 3 4 2 4 3 3 3 4 2 4 3 4 2 3 
3 4 3 4 2 3 3 4 2 4 3 4 3 3 2 4 
3 4 2 3 3 4 3 4 2 4 3 3 2 4 3 4 
3 3 2 4 3 4 2 3 3 4 3 4 2 4 3 3 
2 4 3 4 3 3 2 4 3 4 2 3 3 4 3 4 
2 3 3 4 2 4 2188 3129 300 MP stroke
3 3 3 4 2 4 3 3 2 4 3 3 3 4 2 4 
3 3 3 4 2 4 3 3 2 4 3 4 3 3 2 4 
3 3 2 4 3 4 3 3 2 4 3 3 2 4 3 4 
3 3 2 4 3 3 2 4 3 4 3 3 2 4 3 3 
2 4 3 3 3 4 2 4 3 3 2 4 3 3 3 4 
2 3 3 4 2 3 3 4 3 4 2 3 3 4 2 3 
3 4 3 3 2 4 3 3 2 4 3 3 3 4 2 3 
3 4 3 3 2 4 3 3 2 4 3 3 3 4 2 3 
3 4 2 3 3 4 3 3 2 3 3 4 2 3 3 4 
3 3 2 4 3 3 2 4 3 3 3 3 2 4 3 3 
2 4 3 3 3 4 2 3 3 3 2 4 3 3 3 4 
2 3 3 3 2 4 3 3 3 3 2 4 3 3 2 4 
3 3 3 3 2 4 3 3 2 3 3 4 3 3 2 3 
3 4 3 3 2 3 3 4 2 3 3 3 3 4 2 3 
3 3 2 3 3 4 3 3 2 3 3 4 2 3 3 3 
3 3 2 4 3 3 2 3 3 3 3 4 2 3 3 3 
2 3 3 4 3 3 2 3 3 3 2 4 3 3 3 3 
2 3 3 3 2 4 3 3 3 3 2 3 3 3 2 3 
3 4 3 3 2 3 3 3 2 3 3 3 3 4 2 3 
3 3 2 3 3 3 3 3 2 3 3 4 3 3 2 3 
3 3 2 3 3 3 3 3 2 3 3 3 2 4 3 3 
3 3 2 3 3 3 2 3 3 3 3 3 2 3 3 3 
2 3 3 3 3 3 2 3 3 3 2 3 3 3 3 3 
2 3 3 3 2 3 3 3 3 3 2 3 3 3 2 3 
3 3 3 3 2 3 3 3 2 3 3 3 3 3 2 3 
3 3 2 3 3 3 3 3 2 3 3 3 3 3 2 3 
3 2 2 3 3 3 3 3 2 3 3 3 2 3 3 3 
3 3 2 3 3 2 2 3 3 3 3 3 2 3 3 3 
2 3 3 2 3 3 2 3 3 3 2 3 3 3 3 2 
2 3 3 3 2 3 3 3 3 2 2 3 3 3 2 3 
3 3 3 2 2 3 3 3 2 3 3 2 3 3 2 3 
3 3 2 2 3 3 3 3 2 3 3 2 2 3 3 3 
3 3 2 2 3 3 3 3 2 2 3 3 2 3 3 3 
3 2 2 3 3 3 2 2 3 3 3 3 2 2 3 3 
2 3 3 2 3 3 2 2 3 3 2 3 3 2 3 3 
2 3 3 2 2 3 3 2 3 3 2 3 3 2 2 3 
3 2 3 3 2 3 3 2 2 3 3 2 3 3 2 2 
3 3 2 3 3 2 1409 2191 300 MP stroke
3 3 2 2 3 3 2 2 3 3 3 2 2 3 3 2 
3 3 2 2 3 3 2 2 3 3 3 2 2 3 3 2 
2 3 3 2 3 3 2 2 3 3 2 2 3 3 3 2 
2 3 3 2 2 3 3 2 3 2 2 3 3 2 2 3 
3 2 3 3 2 2 3 2 2 3 3 2 3 3 2 2 
3 2 2 3 3 2 3 3 2 2 3 2 2 3 3 2 
3 2 2 3 3 2 2 2 3 3 3 2 2 2 3 3 
3 2 2 2 3 3 2 2 3 2 3 3 2 2 3 2 
2 3 3 2 3 2 2 3 3 2 2 2 3 2 3 3 
2 2 3 2 2 2 3 3 3 2 2 2 3 2 2 3 
3 2 3 2 2 2 3 3 2 2 3 2 3 2 2 3 
3 2 2 2 3 2 3 2 2 3 3 2 2 2 3 2 
3 2 2 3 3 2 2 2 3 2 3 2 2 2 3 3 
2 2 3 2 3 2 2 2 3 2 3 2 2 3 3 2 
2 2 3 2 3 2 2 2 3 2 2 2 3 3 3 2 
2 2 3 2 2 2 3 2 3 2 2 2 3 2 2 2 
3 2 3 2 2 3 3 2 2 2 3 2 3 2 2 2 
3 2 2 2 3 2 3 2 2 2 3 2 2 2 3 2 
3 2 2 2 3 2 2 2 3 2 3 2 2 2 3 2 
2 2 3 2 3 2 2 2 3 2 3 2 2 2 3 2 
2 2 3 2 3 2 2 2 3 2 2 2 3 2 3 2 
2 2 3 2 2 1 3 2 3 2 2 2 3 2 2 2 
3 2 3 2 2 2 3 2 2 2 3 2 3 1 2 2 
3 2 2 2 3 2 3 2 2 2 3 2 2 1 3 2 
3 2 2 2 3 2 2 2 3 2 3 1 2 2 3 2 
2 2 3 2 3 2 2 2 3 1 2 2 873 1744 207 MP stroke
/c11 { 0.000000 1.000000 1.000000 sr} bdef
c11
3 0 3 0 2 0 3 0 3 0 2 0 3 0 2 0 
3 0 3 0 2 0 3 0 2 0 3 0 3 0 2 0 
3 0 2 0 3 0 3 0 2 0 3 0 2 0 3 0 
3 0 2 0 3 0 2 0 3 0 3 0 2 0 3 0 
2 0 3 0 3 0 2 0 3 0 2 0 3 0 3 0 
2 0 3 0 2 0 3 0 3 0 2 0 3 0 2 0 
3 0 3 0 2 0 3 0 3 0 2 0 3 0 2 0 
3 0 3 0 2 0 3 0 2 0 3 0 3 0 2 0 
3 0 2 0 3 0 3 0 2 0 3 0 2 0 3 0 
3 0 2 0 3 0 2 0 3 0 3 0 2 0 3 0 
2 0 3 0 3 0 2 0 3 0 2 0 3 0 3 0 
2 0 3 0 2 0 3 0 3 0 2 0 3 0 2 0 
3 0 3 0 2 0 3 0 3 0 2 0 3 0 2 0 
3 0 3 0 2 0 3 0 2 0 3 0 3 0 2 0 
3 0 2 0 3 0 3 0 2 0 3 0 2 0 3 0 
3 0 2 0 3 0 2 0 3 0 3 0 2 0 3 0 
2 0 3 0 3 0 2 0 3 0 2 0 3 0 3 0 
2 0 3 0 2 0 3 0 3 0 2 0 3 0 2 0 
3 0 3 0 2 0 3 0 2 0 3 0 3 0 2 0 
3 0 3 0 2 0 3 0 2 0 3 0 3 0 2 0 
3 0 2 0 3 0 3 0 2 0 3 0 2 0 3 0 
3 0 2 0 3 0 2 0 3 0 3 0 2 0 3 0 
2 0 3 0 3 0 2 0 3 0 2 0 3 0 3 0 
2 0 3 0 2 0 3 0 3 0 2 0 3 0 2 0 
3 0 3 0 2 0 3 0 2 0 3 0 3 0 2 0 
3 0 3 0 2 0 3 0 2 0 3 0 3 0 2 0 
3 0 2 0 3 0 3 0 2 0 3 0 2 0 3 0 
3 0 2 0 3 0 2 0 3 0 3 0 2 0 3 0 
2 0 3 0 3 0 2 0 3 0 2 0 3 0 3 0 
2 0 3 0 2 0 3 0 3 0 2 0 3 0 2 0 
3 0 3 0 2 0 3 0 2 0 3 0 3 0 2 0 
3 0 2 0 3 0 3 0 2 0 3 0 3 0 2 0 
3 0 2 0 3 0 3 0 2 0 3 0 2 0 3 0 
3 0 2 0 3 0 2 0 3 0 3 0 2 0 3 0 
2 0 3 0 3 0 2 0 3 0 2 0 3 0 3 0 
2 0 3 0 2 0 3 0 3 0 2 0 3 0 2 0 
3 0 3 0 2 0 3 0 2 0 3 0 3 0 2 0 
3 0 2 0 3 0 5302 4137 300 MP stroke
3 0 2 0 3 0 3 0 2 0 3 0 2 0 3 0 
3 0 2 0 3 0 2 0 3 0 3 0 2 0 3 0 
2 0 3 0 3 0 2 0 3 0 2 0 3 0 3 0 
2 0 3 0 2 0 3 0 3 0 2 0 3 0 2 0 
3 0 3 0 2 0 3 0 2 0 3 0 3 0 2 0 
3 0 2 0 3 0 3 0 2 0 3 0 2 0 3 0 
3 0 2 0 3 0 3 0 2 0 3 0 2 0 3 0 
3 0 2 0 3 0 2 0 3 0 3 0 2 0 3 0 
2 0 3 0 3 0 2 0 3 0 2 0 3 0 3 0 
2 0 3 0 2 0 3 0 3 0 2 0 3 0 2 0 
3 0 3 0 2 0 3 0 2 0 3 0 3 0 2 0 
3 0 2 0 3 0 3 0 2 0 3 0 2 0 3 0 
3 0 2 0 3 0 2 0 3 0 3 0 2 0 3 0 
3 0 2 0 3 0 2 0 3 0 3 0 2 0 3 0 
2 0 3 0 3 0 2 0 3 0 2 0 3 0 3 0 
2 0 3 0 2 0 3 0 3 0 2 0 3 0 2 0 
3 0 3 0 2 0 3 0 2 0 3 0 3 0 2 0 
3 0 2 0 3 0 3 0 2 0 3 0 2 0 3 0 
3 0 2 0 3 0 2 0 3 0 3 0 2 0 3 0 
3 0 2 0 3 0 2 0 3 0 3 0 2 0 3 0 
2 0 3 0 3 0 2 0 3 0 2 0 3 0 3 0 
2 0 3 0 2 0 3 0 3 0 2 0 3 0 2 0 
3 0 3 0 2 0 3 0 2 0 3 0 3 0 2 0 
3 0 2 0 3 0 3 0 2 0 3 0 2 0 3 0 
3 0 2 0 3 0 2 0 3 0 3 0 2 0 3 0 
2 0 3 0 3 0 2 0 3 0 3 0 2 0 3 0 
2 0 3 0 3 0 2 0 3 0 2 0 3 0 3 0 
2 0 3 0 2 0 3 0 3 0 2 0 3 0 2 0 
3 0 3 0 2 0 3 0 2 0 3 0 3 0 2 0 
3 0 2 0 3 0 3 -1 2 0 3 0 2 0 3 0 
3 0 2 0 3 0 2 0 3 0 3 0 2 -1 3 0 
2 0 3 0 3 0 2 0 3 0 3 0 2 -1 3 0 
2 0 3 0 3 0 2 0 3 -1 2 0 3 0 3 0 
2 0 3 -1 2 0 3 0 3 0 2 0 3 -1 2 0 
3 0 3 0 2 -1 3 0 2 0 3 -1 3 0 2 0 
3 0 2 -1 3 0 3 0 2 -1 3 0 2 0 3 -1 
3 0 2 0 3 -1 2 0 3 0 3 -1 2 0 3 -1 
2 0 3 0 3 -1 4523 4152 300 MP stroke
2 0 3 -1 3 0 2 0 3 -1 2 0 3 -1 3 0 
2 -1 3 0 2 -1 3 0 3 -1 2 0 3 -1 2 0 
3 -1 3 0 2 -1 3 0 2 -1 3 0 3 -1 2 -1 
3 0 2 -1 3 0 3 -1 2 0 3 -1 2 -1 3 0 
3 -1 2 -1 3 0 2 -1 3 -1 3 0 2 -1 3 0 
2 -1 3 -1 3 -1 2 0 3 -1 2 -1 3 0 3 -1 
2 -1 3 -1 2 0 3 -1 3 -1 2 -1 3 0 3 -1 
2 -1 3 -1 2 0 3 -1 3 -1 2 -1 3 -1 2 0 
3 -1 3 -1 2 -1 3 -1 2 -1 3 0 3 -1 2 -1 
3 -1 2 -1 3 -1 3 -1 2 -1 3 0 2 -1 3 -1 
3 -1 2 -1 3 -1 2 -1 3 -1 3 -1 2 -1 3 -1 
2 -1 3 0 3 -1 2 -1 3 -1 2 -1 3 -1 3 -1 
2 -1 3 -1 2 -1 3 -1 3 -1 2 -1 3 -1 3 -1 
2 -1 3 -1 2 -1 3 -1 3 -1 2 -1 3 -2 2 -1 
3 -1 3 -1 2 -1 3 -1 2 -1 3 -1 3 -1 2 -1 
3 -1 2 -1 3 -1 3 -1 2 -1 3 -2 2 -1 3 -1 
3 -1 2 -1 3 -1 2 -1 3 -1 3 -1 2 -2 3 -1 
2 -1 3 -1 3 -1 2 -1 3 -1 2 -1 3 -2 3 -1 
2 -1 3 -1 2 -1 3 -1 3 -1 2 -2 3 -1 2 -1 
3 -1 3 -1 2 -1 3 -2 3 -1 2 -1 3 -1 2 -1 
3 -1 3 -1 2 -2 3 -1 2 -1 3 -1 3 -1 2 -1 
3 -2 2 -1 3 -1 3 -1 2 -1 3 -2 2 -1 3 -1 
3 -1 2 -1 3 -1 2 -2 3 -1 3 -1 2 -1 3 -1 
2 -1 3 -2 3 -1 2 -1 3 -1 2 -1 3 -1 3 -2 
2 -1 3 -1 2 -1 3 -1 3 -1 2 -2 3 -1 2 -1 
3 -1 3 -1 2 -1 3 -2 3 -1 2 -1 3 -1 2 -1 
3 -1 3 -1 2 -2 3 -1 2 -1 3 -1 3 -1 2 -1 
3 -1 2 -2 3 -1 3 -1 2 -1 3 -1 2 -1 3 -1 
3 -1 2 -2 3 -1 2 -1 3 -1 3 -1 2 -1 3 -1 
2 -1 3 -1 3 -1 2 -1 3 -2 2 -1 3 -1 3 -1 
2 -1 3 -1 2 -1 3 -1 3 -1 2 -1 3 -1 2 -1 
3 -1 3 -1 2 -1 3 -1 3 -1 2 -1 3 -1 2 -1 
3 -1 3 -1 2 -1 3 -1 2 -1 3 -1 3 -1 2 -1 
3 -1 2 -1 3 -1 3 -1 2 -1 3 -1 2 -1 3 -1 
3 -1 2 -1 3 -1 2 0 3 -1 3 -1 2 -1 3 -1 
2 -1 3 -1 3 -1 2 -1 3 0 2 -1 3 -1 3 -1 
2 -1 3 -1 2 0 3 -1 3 -1 2 -1 3 -1 2 0 
3 -1 3 -1 2 -1 3745 4437 300 MP stroke
3 -1 2 0 3 -1 3 -1 2 -1 3 0 3 -1 2 -1 
3 -1 2 0 3 -1 3 -1 2 0 3 -1 2 -1 3 0 
3 -1 2 -1 3 0 2 -1 3 -1 3 0 2 -1 3 -1 
2 0 3 -1 3 0 2 -1 3 -1 2 0 3 -1 3 0 
2 -1 3 0 2 -1 3 0 3 -1 2 0 3 -1 2 0 
3 -1 3 0 2 -1 3 0 2 -1 3 0 3 -1 2 0 
3 -1 2 0 3 -1 3 0 2 0 3 -1 3 0 2 -1 
3 0 2 0 3 -1 3 0 2 0 3 -1 2 0 3 0 
3 -1 2 0 3 0 2 0 3 -1 3 0 2 0 3 -1 
2 0 3 0 3 0 2 -1 3 0 2 0 3 0 3 0 
2 -1 3 0 2 0 3 0 3 0 2 0 3 0 2 -1 
3 0 3 0 2 0 3 0 2 0 3 0 3 0 2 0 
3 0 2 0 3 0 3 0 2 0 3 0 2 -1 3 1 
3 0 2 0 3 0 3 0 2 0 3 0 2 0 3 0 
3 0 2 0 3 0 2 0 3 0 3 0 2 1 3 0 
2 0 3 0 3 0 2 0 3 0 2 1 3 0 3 0 
2 0 3 0 2 1 3 0 3 0 2 0 3 1 2 0 
3 0 3 1 2 0 3 0 2 0 3 1 3 0 2 0 
3 1 2 0 3 0 3 1 2 0 3 0 2 1 3 0 
3 1 2 0 3 0 3 1 2 0 3 1 2 0 3 1 
3 0 2 1 3 0 2 1 3 0 3 1 2 0 3 1 
2 0 3 1 3 0 2 1 3 0 2 1 3 0 3 1 
2 0 3 1 2 1 3 0 3 1 2 0 3 1 2 1 
3 0 3 1 2 1 3 0 2 1 3 1 3 0 2 1 
3 1 2 0 3 1 3 1 2 0 3 1 2 1 3 1 
3 0 2 1 3 1 3 1 2 0 3 1 2 1 3 1 
3 1 2 0 3 1 2 1 3 1 3 1 2 0 3 1 
2 1 3 1 3 1 2 1 3 0 2 1 3 1 3 1 
2 1 3 1 2 1 3 1 3 1 2 0 3 1 2 1 
3 1 3 1 2 1 3 1 2 1 3 1 3 1 2 1 
3 1 2 1 3 1 3 1 2 1 3 1 2 1 3 1 
3 1 2 1 3 1 2 1 3 1 3 1 2 1 3 1 
3 1 2 1 3 1 2 1 3 1 3 1 2 1 3 1 
2 1 3 1 3 1 2 1 3 2 2 1 3 1 3 1 
2 1 3 1 2 1 3 1 3 1 2 1 3 1 2 2 
3 1 3 1 2 1 3 1 2 1 3 1 3 1 2 2 
3 1 2 1 3 1 3 1 2 1 3 1 2 2 3 1 
3 1 2 1 3 1 2966 4344 300 MP stroke
2 1 3 1 3 2 2 1 3 1 3 1 2 1 3 1 
2 2 3 1 3 1 2 1 3 1 2 1 3 2 3 1 
2 1 3 1 2 1 3 1 3 2 2 1 3 1 2 1 
3 1 3 1 2 2 3 1 2 1 3 1 3 1 2 1 
3 2 2 1 3 1 3 1 2 1 3 2 2 1 3 1 
3 1 2 1 3 1 2 2 3 1 3 1 2 1 3 1 
2 1 3 1 3 2 2 1 3 1 2 1 3 1 3 1 
2 2 3 1 3 1 2 1 3 1 2 1 3 1 3 2 
2 1 3 1 2 1 3 1 3 1 2 1 3 1 2 2 
3 1 3 1 2 1 3 1 2 1 3 1 3 1 2 1 
3 2 2 1 3 1 3 1 2 1 3 1 2 1 3 1 
3 1 2 1 3 1 2 1 3 1 3 1 2 1 3 2 
2 1 3 1 3 1 2 1 3 1 2 1 3 1 3 1 
2 1 3 1 3 1 2 1 3 1 2 1 3 1 3 1 
2 1 3 1 2 1 3 1 3 0 2 1 3 1 2 1 
3 1 3 1 2 1 3 1 2 1 3 1 3 1 2 1 
3 0 2 1 3 1 3 1 2 1 3 1 2 1 3 1 
3 0 2 1 3 1 2 1 3 1 3 1 2 0 3 1 
2 1 3 1 3 1 2 0 3 1 2 1 3 1 3 0 
2 1 3 1 3 1 2 0 3 1 2 1 3 1 3 0 
2 1 3 1 2 0 3 1 3 1 2 1 3 0 2 1 
3 0 3 1 2 1 3 0 2 1 3 1 3 0 2 1 
3 1 2 0 3 1 3 0 2 1 3 0 2 1 3 1 
3 0 2 1 3 0 2 1 3 0 3 1 2 0 3 1 
2 0 3 1 3 0 2 1 3 0 2 1 3 0 3 1 
2 0 3 1 2 0 3 0 3 1 2 0 3 1 3 0 
2 0 3 1 2 0 3 1 3 0 2 0 3 1 2 0 
3 0 3 1 2 0 3 0 2 1 3 0 3 0 2 1 
3 0 2 0 3 0 3 1 2 0 3 0 2 1 3 0 
3 0 2 0 3 1 2 0 3 0 3 0 2 0 3 1 
2 0 3 0 3 0 2 0 3 1 2 0 3 0 3 0 
2 0 3 0 2 1 3 0 3 0 2 0 3 0 3 0 
2 0 3 0 2 1 3 0 3 0 2 0 3 0 2 0 
3 0 3 0 2 0 3 0 2 0 3 1 3 0 2 0 
3 0 2 0 3 0 3 0 2 0 3 0 2 0 3 0 
3 0 2 0 3 0 2 0 3 0 3 0 2 0 3 0 
2 0 3 0 3 0 2 0 3 0 2 0 3 0 3 0 
2 0 3 0 2 0 2188 4137 300 MP stroke
3 0 3 0 2 0 3 0 2 0 3 0 3 0 2 0 
3 0 3 0 2 0 3 0 2 0 3 0 3 0 2 0 
3 0 2 0 3 0 3 0 2 0 3 0 2 0 3 0 
3 0 2 0 3 0 2 0 3 0 3 0 2 0 3 0 
2 0 3 0 3 0 2 0 3 0 2 0 3 0 3 0 
2 0 3 0 2 0 3 0 3 0 2 0 3 0 2 0 
3 0 3 0 2 0 3 0 2 0 3 0 3 0 2 0 
3 0 3 0 2 0 3 0 2 0 3 0 3 0 2 0 
3 0 2 0 3 0 3 0 2 0 3 0 2 0 3 0 
3 0 2 0 3 0 2 0 3 0 3 0 2 0 3 0 
2 0 3 0 3 0 2 0 3 0 2 0 3 0 3 0 
2 0 3 0 2 0 3 0 3 0 2 0 3 0 2 0 
3 0 3 0 2 0 3 0 2 0 3 0 3 0 2 0 
3 0 3 0 2 0 3 0 2 0 3 0 3 0 2 0 
3 0 2 0 3 0 3 0 2 0 3 0 2 0 3 0 
3 0 2 0 3 0 2 0 3 0 3 0 2 0 3 0 
2 0 3 0 3 0 2 0 3 0 2 0 3 0 3 0 
2 0 3 0 2 0 3 0 3 0 2 0 3 0 2 0 
3 0 3 0 2 0 3 0 2 0 3 0 3 0 2 0 
3 0 2 0 3 0 3 0 2 0 3 0 3 0 2 0 
3 0 2 0 3 0 3 0 2 0 3 0 2 0 3 0 
3 0 2 0 3 0 2 0 3 0 3 0 2 0 3 0 
2 0 3 0 3 0 2 0 3 0 2 0 3 0 3 0 
2 0 3 0 2 0 3 0 3 0 2 0 3 0 2 0 
3 0 3 0 2 0 3 0 2 0 3 0 3 0 2 0 
3 0 2 0 3 0 3 0 2 0 3 0 3 0 2 0 
3 0 2 0 3 0 3 0 2 0 3 0 2 0 3 0 
3 0 2 0 3 0 2 0 3 0 3 0 2 0 3 0 
2 0 3 0 3 0 2 0 3 0 2 0 3 0 3 0 
2 0 3 0 2 0 3 0 3 0 2 0 3 0 2 0 
3 0 3 0 2 0 3 0 2 0 3 0 3 0 2 0 
3 0 2 0 3 0 3 0 2 0 3 0 2 0 3 0 
3 0 2 0 3 0 3 0 2 0 3 0 2 0 3 0 
3 0 2 0 3 0 2 0 3 0 3 0 2 0 3 0 
2 0 3 0 3 0 2 0 3 0 2 0 3 0 3 0 
2 0 3 0 2 0 3 0 3 0 2 0 3 0 2 0 
3 0 3 0 2 0 3 0 2 0 3 0 3 0 2 0 
3 0 2 0 3 0 1409 4137 300 MP stroke
3 0 2 0 3 0 2 0 3 0 3 0 2 0 3 0 
3 0 2 0 3 0 2 0 3 0 3 0 2 0 3 0 
2 0 3 0 3 0 2 0 3 0 2 0 3 0 3 0 
2 0 3 0 2 0 3 0 3 0 2 0 3 0 2 0 
3 0 3 0 2 0 3 0 2 0 3 0 3 0 2 0 
3 0 2 0 3 0 3 0 2 0 3 0 2 0 3 0 
3 0 2 0 3 0 2 0 3 0 3 0 2 0 3 0 
3 0 2 0 3 0 2 0 3 0 3 0 2 0 3 0 
2 0 3 0 3 0 2 0 3 0 2 0 3 0 3 0 
2 0 3 0 2 0 3 0 3 0 2 0 3 0 2 0 
3 0 3 0 2 0 3 0 2 0 3 0 3 0 2 0 
3 0 2 0 3 0 3 0 2 0 3 0 2 0 3 0 
3 0 2 0 3 0 2 0 3 0 3 0 2 0 3 0 
2 0 3 0 3 0 2 0 3 0 3 0 2 0 3 0 
2 0 3 0 3 0 2 0 3 0 2 0 3 0 3 0 
2 0 3 0 2 0 3 0 3 0 2 0 3 0 2 0 
3 0 3 0 2 0 3 0 2 0 3 0 3 0 2 0 
3 0 2 0 3 0 3 0 2 0 3 0 2 0 3 0 
3 0 2 0 3 0 2 0 3 0 3 0 2 0 3 0 
2 0 3 0 3 0 2 0 3 0 3 0 2 0 3 0 
2 0 3 0 3 0 2 0 3 0 2 0 3 0 3 0 
2 0 3 0 2 0 3 0 3 0 2 0 3 0 2 0 
3 0 3 0 2 0 3 0 2 0 3 0 3 0 2 0 
3 0 2 0 3 0 3 0 2 0 3 0 2 0 3 0 
3 0 2 0 3 0 2 0 3 0 3 0 2 0 3 0 
2 0 3 0 3 0 2 0 3 0 2 0 873 4137 207 MP stroke
gr

14.4 w
c11
0 sg
 856 4522 mt 
( ) s
6065  419 mt 
( ) s
6 w
1 sg
0 1062 1962 0 0 -1062 2496 1499 4 MP
PP
-1962 0 0 1062 1962 0 0 -1062 2496 1499 5 MP stroke
4 w
DO
SO
6 w
0 sg
2496 1499 mt 4458 1499 L
2496  437 mt 4458  437 L
2496 1499 mt 2496  437 L
4458 1499 mt 4458  437 L
2496 1499 mt 4458 1499 L
2496 1499 mt 2496  437 L
2496 1499 mt 4458 1499 L
2496  437 mt 4458  437 L
2496 1499 mt 2496  437 L
4458 1499 mt 4458  437 L
%%IncludeResource: font Helvetica
/Helvetica /ISOLatin1Encoding 192 FMSR

2969  678 mt 
(L) s
%%IncludeResource: font Helvetica
/Helvetica /ISOLatin1Encoding 144 FMSR

3075  582 mt 
(2) s
gs 2496 437 1963 1063 rc
14.4 w
c8
364 0 2568 594 2 MP stroke
gr

14.4 w
c8
0 sg
%%IncludeResource: font Helvetica
/Helvetica /ISOLatin1Encoding 192 FMSR

2969  956 mt 
(L) s
%%IncludeResource: font Helvetica
/Helvetica /ISOLatin1Encoding 144 FMSR

3075  860 mt 
(1) s
gs 2496 437 1963 1063 rc
c9
364 0 2568 872 2 MP stroke
gr

c9
0 sg
%%IncludeResource: font Helvetica
/Helvetica /ISOLatin1Encoding 192 FMSR

2969 1197 mt 
(Geman-McClure) s
gs 2496 437 1963 1063 rc
c10
364 0 2568 1128 2 MP stroke
gr

c10
0 sg
2969 1432 mt 
(Tukey) s
gs 2496 437 1963 1063 rc
c11
364 0 2568 1362 2 MP stroke
6 w
gr

6 w
c11

end %%Color Dict

eplot
%%EndObject

epage
end

showpage

%%Trailer
%%EOF
