%!PS-Adobe-3.0 EPSF-3.0
%%Creator: MATLAB, The MathWorks, Inc. Version 8.1.0.604 (R2013a). Operating System: Darwin 13.3.0 Darwin Kernel Version 13.3.0: Tue Jun  3 21:27:35 PDT 2014; root:xnu-2422.110.17~1/RELEASE_X86_64 x86_64.
%%Title: /Users/Pinglin/ICL/Thesis/materials/figs/ch5/simple_trajectory.eps
%%CreationDate: 09/24/2014  01:01:33
%%DocumentNeededFonts: Helvetica
%%DocumentProcessColors: Cyan Magenta Yellow Black
%%LanguageLevel: 2
%%Pages: 1
%%BoundingBox:    26   186   585   606
%%EndComments

%%BeginProlog
% MathWorks dictionary
/MathWorks 160 dict begin
% definition operators
/bdef {bind def} bind def
/ldef {load def} bind def
/xdef {exch def} bdef
/xstore {exch store} bdef
% operator abbreviations
/c  /clip ldef
/cc /concat ldef
/cp /closepath ldef
/gr /grestore ldef
/gs /gsave ldef
/mt /moveto ldef
/np /newpath ldef
/cm /currentmatrix ldef
/sm /setmatrix ldef
/rm /rmoveto ldef
/rl /rlineto ldef
/s {show newpath} bdef
/sc {setcmykcolor} bdef
/sr /setrgbcolor ldef
/sg /setgray ldef
/w /setlinewidth ldef
/j /setlinejoin ldef
/cap /setlinecap ldef
/rc {rectclip} bdef
/rf {rectfill} bdef
% page state control
/pgsv () def
/bpage {/pgsv save def} bdef
/epage {pgsv restore} bdef
/bplot /gsave ldef
/eplot {stroke grestore} bdef
% orientation switch
/portraitMode 0 def /landscapeMode 1 def /rotateMode 2 def
% coordinate system mappings
/dpi2point 0 def
% font control
/FontSize 0 def
/FMS {/FontSize xstore findfont [FontSize 0 0 FontSize neg 0 0]
  makefont setfont} bdef
/reencode {exch dup where {pop load} {pop StandardEncoding} ifelse
  exch dup 3 1 roll findfont dup length dict begin
  { 1 index /FID ne {def}{pop pop} ifelse } forall
  /Encoding exch def currentdict end definefont pop} bdef
/isroman {findfont /CharStrings get /Agrave known} bdef
/FMSR {3 1 roll 1 index dup isroman {reencode} {pop pop} ifelse
  exch FMS} bdef
/csm {1 dpi2point div -1 dpi2point div scale neg translate
 dup landscapeMode eq {pop -90 rotate}
  {rotateMode eq {90 rotate} if} ifelse} bdef
% line types: solid, dotted, dashed, dotdash
/SO { [] 0 setdash } bdef
/DO { [.5 dpi2point mul 4 dpi2point mul] 0 setdash } bdef
/DA { [6 dpi2point mul] 0 setdash } bdef
/DD { [.5 dpi2point mul 4 dpi2point mul 6 dpi2point mul 4
  dpi2point mul] 0 setdash } bdef
% macros for lines and objects
/L {lineto stroke} bdef
/MP {3 1 roll moveto 1 sub {rlineto} repeat} bdef
/AP {{rlineto} repeat} bdef
/PDlw -1 def
/W {/PDlw currentlinewidth def setlinewidth} def
/PP {closepath eofill} bdef
/DP {closepath stroke} bdef
/MR {4 -2 roll moveto dup  0 exch rlineto exch 0 rlineto
  neg 0 exch rlineto closepath} bdef
/FR {MR stroke} bdef
/PR {MR fill} bdef
/L1i {{currentfile picstr readhexstring pop} image} bdef
/tMatrix matrix def
/MakeOval {newpath tMatrix currentmatrix pop translate scale
0 0 1 0 360 arc tMatrix setmatrix} bdef
/FO {MakeOval stroke} bdef
/PO {MakeOval fill} bdef
/PD {currentlinewidth 2 div 0 360 arc fill
   PDlw -1 eq not {PDlw w /PDlw -1 def} if} def
/FA {newpath tMatrix currentmatrix pop translate scale
  0 0 1 5 -2 roll arc tMatrix setmatrix stroke} bdef
/PA {newpath tMatrix currentmatrix pop	translate 0 0 moveto scale
  0 0 1 5 -2 roll arc closepath tMatrix setmatrix fill} bdef
/FAn {newpath tMatrix currentmatrix pop translate scale
  0 0 1 5 -2 roll arcn tMatrix setmatrix stroke} bdef
/PAn {newpath tMatrix currentmatrix pop translate 0 0 moveto scale
  0 0 1 5 -2 roll arcn closepath tMatrix setmatrix fill} bdef
/vradius 0 def /hradius 0 def /lry 0 def
/lrx 0 def /uly 0 def /ulx 0 def /rad 0 def
/MRR {/vradius xdef /hradius xdef /lry xdef /lrx xdef /uly xdef
  /ulx xdef newpath tMatrix currentmatrix pop ulx hradius add uly
  vradius add translate hradius vradius scale 0 0 1 180 270 arc 
  tMatrix setmatrix lrx hradius sub uly vradius add translate
  hradius vradius scale 0 0 1 270 360 arc tMatrix setmatrix
  lrx hradius sub lry vradius sub translate hradius vradius scale
  0 0 1 0 90 arc tMatrix setmatrix ulx hradius add lry vradius sub
  translate hradius vradius scale 0 0 1 90 180 arc tMatrix setmatrix
  closepath} bdef
/FRR {MRR stroke } bdef
/PRR {MRR fill } bdef
/MlrRR {/lry xdef /lrx xdef /uly xdef /ulx xdef /rad lry uly sub 2 div def
  newpath tMatrix currentmatrix pop ulx rad add uly rad add translate
  rad rad scale 0 0 1 90 270 arc tMatrix setmatrix lrx rad sub lry rad
  sub translate rad rad scale 0 0 1 270 90 arc tMatrix setmatrix
  closepath} bdef
/FlrRR {MlrRR stroke } bdef
/PlrRR {MlrRR fill } bdef
/MtbRR {/lry xdef /lrx xdef /uly xdef /ulx xdef /rad lrx ulx sub 2 div def
  newpath tMatrix currentmatrix pop ulx rad add uly rad add translate
  rad rad scale 0 0 1 180 360 arc tMatrix setmatrix lrx rad sub lry rad
  sub translate rad rad scale 0 0 1 0 180 arc tMatrix setmatrix
  closepath} bdef
/FtbRR {MtbRR stroke } bdef
/PtbRR {MtbRR fill } bdef
/stri 6 array def /dtri 6 array def
/smat 6 array def /dmat 6 array def
/tmat1 6 array def /tmat2 6 array def /dif 3 array def
/asub {/ind2 exch def /ind1 exch def dup dup
  ind1 get exch ind2 get sub exch } bdef
/tri_to_matrix {
  2 0 asub 3 1 asub 4 0 asub 5 1 asub
  dup 0 get exch 1 get 7 -1 roll astore } bdef
/compute_transform {
  dmat dtri tri_to_matrix tmat1 invertmatrix 
  smat stri tri_to_matrix tmat2 concatmatrix } bdef
/ds {stri astore pop} bdef
/dt {dtri astore pop} bdef
/db {2 copy /cols xdef /rows xdef mul dup 3 mul string
  currentfile 
  3 index 0 eq {/ASCIIHexDecode filter}
  {/ASCII85Decode filter 3 index 2 eq {/RunLengthDecode filter} if }
  ifelse exch readstring pop
  dup 0 3 index getinterval /rbmap xdef
  dup 2 index dup getinterval /gbmap xdef
  1 index dup 2 mul exch getinterval /bbmap xdef pop pop}bdef
/it {gs np dtri aload pop moveto lineto lineto cp c
  cols rows 8 compute_transform 
  rbmap gbmap bbmap true 3 colorimage gr}bdef
/il {newpath moveto lineto stroke}bdef
currentdict end def
%%EndProlog

%%BeginSetup
MathWorks begin

0 cap

end
%%EndSetup

%%Page: 1 1
%%BeginPageSetup
%%PageBoundingBox:    26   186   585   606
MathWorks begin
bpage
%%EndPageSetup

%%BeginObject: obj1
bplot

/dpi2point 12 def
portraitMode 0312 7272 csm

    0     0  6719  5033 rc
85 dict begin %Colortable dictionary
/c0 { 0.000000 0.000000 0.000000 sr} bdef
/c1 { 1.000000 1.000000 1.000000 sr} bdef
/c2 { 0.900000 0.000000 0.000000 sr} bdef
/c3 { 0.000000 0.820000 0.000000 sr} bdef
/c4 { 0.000000 0.000000 0.800000 sr} bdef
/c5 { 0.910000 0.820000 0.320000 sr} bdef
/c6 { 1.000000 0.260000 0.820000 sr} bdef
/c7 { 0.000000 0.820000 0.820000 sr} bdef
c0
1 j
1 sg
   0    0 6720 5034 rf
6 w
0 3203 -3604 -276 0 -3204 6081 3857 4 MP
PP
3604 277 0 3203 -3604 -276 0 -3204 6081 3857 5 MP stroke
3604 277 1604 -622 -3603 -277 4476 4479 4 MP
PP
-1605 622 3604 277 1604 -622 -3603 -277 4476 4479 5 MP stroke
0 3203 1604 -621 0 -3204 873 4202 4 MP
PP
-1604 622 0 3203 1604 -621 0 -3204 873 4202 5 MP stroke
4 w
DO
0 sg
4476 4479 mt  873 4202 L
 873 4202 mt  873  998 L
5011 4271 mt 1407 3994 L
1407 3994 mt 1407  791 L
5546 4064 mt 1942 3787 L
1942 3787 mt 1942  584 L
6081 3857 mt 2477 3580 L
2477 3580 mt 2477  377 L
4476 4479 mt 6081 3857 L
6081 3857 mt 6081  653 L
3875 4432 mt 5480 3810 L
5480 3810 mt 5480  607 L
3275 4386 mt 4879 3764 L
4879 3764 mt 4879  561 L
2674 4340 mt 4279 3718 L
4279 3718 mt 4279  515 L
2074 4294 mt 3678 3672 L
3678 3672 mt 3678  469 L
1473 4248 mt 3078 3626 L
3078 3626 mt 3078  423 L
 873 4202 mt 2477 3580 L
2477 3580 mt 2477  377 L
 873 4202 mt 2477 3580 L
2477 3580 mt 6081 3857 L
 873 3744 mt 2477 3122 L
2477 3122 mt 6081 3399 L
 873 3286 mt 2477 2664 L
2477 2664 mt 6081 2941 L
 873 2829 mt 2477 2207 L
2477 2207 mt 6081 2484 L
 873 2371 mt 2477 1749 L
2477 1749 mt 6081 2026 L
 873 1914 mt 2477 1292 L
2477 1292 mt 6081 1569 L
 873 1456 mt 2477  834 L
2477  834 mt 6081 1111 L
 873  998 mt 2477  377 L
2477  377 mt 6081  653 L
SO
6 w
4476 4479 mt 6081 3857 L
4476 4479 mt  873 4202 L
 873 4202 mt  873  998 L
4476 4479 mt 4566 4485 L
%%IncludeResource: font Helvetica
/Helvetica /ISOLatin1Encoding 120 FMSR

4601 4599 mt 
(64) s
5011 4271 mt 5101 4278 L
5135 4392 mt 
(66) s
5546 4064 mt 5636 4071 L
5670 4184 mt 
(68) s
6081 3857 mt 6171 3863 L
6205 3977 mt 
(70) s
4476 4479 mt 4392 4511 L
4160 4635 mt 
(399) s
3875 4432 mt 3791 4465 L
3459 4588 mt 
(399.5) s
3275 4386 mt 3191 4419 L
2958 4542 mt 
(400) s
2674 4340 mt 2590 4373 L
2258 4496 mt 
(400.5) s
2074 4294 mt 1989 4327 L
1757 4450 mt 
(401) s
1473 4248 mt 1389 4280 L
1057 4404 mt 
(401.5) s
 873 4202 mt  788 4234 L
 556 4358 mt 
(402) s
 873 4202 mt  782 4195 L
 478 4236 mt 
(-246) s
 873 3744 mt  782 3737 L
 478 3778 mt 
(-244) s
 873 3286 mt  782 3279 L
 478 3321 mt 
(-242) s
 873 2829 mt  782 2822 L
 478 2863 mt 
(-240) s
 873 2371 mt  782 2364 L
 478 2406 mt 
(-238) s
 873 1914 mt  782 1907 L
 478 1948 mt 
(-236) s
 873 1456 mt  782 1449 L
 478 1490 mt 
(-234) s
 873  998 mt  782  992 L
 478 1033 mt 
(-232) s
6065  419 mt 
( ) s
5477 4782 mt 
(X) s
gs 873 377 5209 4103 rc
/c8 { 1.000000 0.000000 0.000000 sr} bdef
c8
4657 1303 mt 4589 1384 L
gs 2482 1128 2249 2312 rc
  36   36 4657 1303 FO
gr

/c9 { 0.000000 0.000000 1.000000 sr} bdef
c9
4648 1304 mt 4584 1384 L
gs 2464 1128 2258 2312 rc
4612 1304 mt 4684 1304 L
4648 1268 mt 4648 1340 L
gr

c8
4589 1384 mt 4471 1476 L
gs 2482 1128 2249 2312 rc
  36   36 4589 1384 FO
gr

c9
4584 1384 mt 4465 1476 L
gs 2464 1128 2258 2312 rc
4548 1384 mt 4620 1384 L
4584 1348 mt 4584 1420 L
gr

c8
4547 1201 mt 4657 1303 L
gs 2482 1128 2249 2312 rc
  36   36 4547 1201 FO
gr

c9
4547 1201 mt 4648 1304 L
gs 2464 1128 2258 2312 rc
4511 1201 mt 4583 1201 L
4547 1165 mt 4547 1237 L
gr

c8
4543 1718 mt 4224 1800 L
gs 2482 1128 2249 2312 rc
  36   36 4543 1718 FO
gr

4224 1800 mt 4055 1877 L
gs 2482 1128 2249 2312 rc
  36   36 4224 1800 FO
gr

c9
4538 1720 mt 4219 1802 L
gs 2464 1128 2258 2312 rc
4502 1720 mt 4574 1720 L
4538 1684 mt 4538 1756 L
gr

c8
4508 1637 mt 4543 1718 L
gs 2482 1128 2249 2312 rc
  36   36 4508 1637 FO
gr

c9
4502 1638 mt 4538 1720 L
gs 2464 1128 2258 2312 rc
4466 1638 mt 4538 1638 L
4502 1602 mt 4502 1674 L
gr

c8
4471 1540 mt 4508 1637 L
gs 2482 1128 2249 2312 rc
  36   36 4471 1540 FO
gr

4471 1476 mt 4471 1540 L
gs 2482 1128 2249 2312 rc
  36   36 4471 1476 FO
gr

c9
4465 1476 mt 4464 1540 L
gs 2464 1128 2258 2312 rc
4429 1476 mt 4501 1476 L
4465 1440 mt 4465 1512 L
gr

4464 1540 mt 4502 1638 L
gs 2464 1128 2258 2312 rc
4428 1540 mt 4500 1540 L
4464 1504 mt 4464 1576 L
gr

4219 1802 mt 4050 1879 L
gs 2464 1128 2258 2312 rc
4183 1802 mt 4255 1802 L
4219 1766 mt 4219 1838 L
gr

c8
4103 1994 mt 4033 2098 L
gs 2482 1128 2249 2312 rc
  36   36 4103 1994 FO
gr

c9
4097 1997 mt 4026 2101 L
gs 2464 1128 2258 2312 rc
4061 1997 mt 4133 1997 L
4097 1961 mt 4097 2033 L
gr

c8
4055 1877 mt 4103 1994 L
gs 2482 1128 2249 2312 rc
  36   36 4055 1877 FO
gr

c9
4050 1879 mt 4097 1997 L
gs 2464 1128 2258 2312 rc
4014 1879 mt 4086 1879 L
4050 1843 mt 4050 1915 L
gr

c8
4033 2098 mt 3917 2181 L
gs 2482 1128 2249 2312 rc
  36   36 4033 2098 FO
gr

3917 2181 mt 3563 2305 L
gs 2482 1128 2249 2312 rc
  36   36 3917 2181 FO
gr

c9
4026 2101 mt 3908 2185 L
gs 2464 1128 2258 2312 rc
3990 2101 mt 4062 2101 L
4026 2065 mt 4026 2137 L
gr

3908 2185 mt 3556 2309 L
gs 2464 1128 2258 2312 rc
3872 2185 mt 3944 2185 L
3908 2149 mt 3908 2221 L
gr

c8
3563 2305 mt 3368 2468 L
gs 2482 1128 2249 2312 rc
  36   36 3563 2305 FO
gr

c9
3556 2309 mt 3359 2472 L
gs 2464 1128 2258 2312 rc
3520 2309 mt 3592 2309 L
3556 2273 mt 3556 2345 L
gr

c8
3431 2794 mt 3062 2865 L
gs 2482 1128 2249 2312 rc
  36   36 3431 2794 FO
gr

c9
3421 2797 mt 3049 2866 L
gs 2464 1128 2258 2312 rc
3385 2797 mt 3457 2797 L
3421 2761 mt 3421 2833 L
gr

c8
3403 2628 mt 3431 2794 L
gs 2482 1128 2249 2312 rc
  36   36 3403 2628 FO
gr

c9
3392 2630 mt 3421 2797 L
gs 2464 1128 2258 2312 rc
3356 2630 mt 3428 2630 L
3392 2594 mt 3392 2666 L
gr

c8
3368 2468 mt 3403 2628 L
gs 2482 1128 2249 2312 rc
  36   36 3368 2468 FO
gr

c9
3359 2472 mt 3392 2630 L
gs 2464 1128 2258 2312 rc
3323 2472 mt 3395 2472 L
3359 2436 mt 3359 2508 L
gr

c8
3206 3061 mt 3042 3249 L
gs 2482 1128 2249 2312 rc
  36   36 3206 3061 FO
gr

c9
3190 3063 mt 3027 3250 L
gs 2464 1128 2258 2312 rc
3154 3063 mt 3226 3063 L
3190 3027 mt 3190 3099 L
gr

c8
3062 2865 mt 3206 3061 L
gs 2482 1128 2249 2312 rc
  36   36 3062 2865 FO
gr

c9
3049 2866 mt 3190 3063 L
gs 2464 1128 2258 2312 rc
3013 2866 mt 3085 2866 L
3049 2830 mt 3049 2902 L
gr

c8
3042 3249 mt 2555 3366 L
gs 2482 1128 2249 2312 rc
  36   36 3042 3249 FO
gr

c9
3027 3250 mt 2537 3366 L
gs 2464 1128 2258 2312 rc
2991 3250 mt 3063 3250 L
3027 3214 mt 3027 3286 L
gr

gr

c9
0 sg
2893 4868 mt 
(Y) s
gs 873 377 5209 4103 rc
gs 2482 1128 2249 2312 rc
c8
  36   36 2555 3366 FO
gr

c8
gs 2464 1128 2258 2312 rc
c9
2501 3366 mt 2573 3366 L
2537 3330 mt 2537 3402 L
gr

c9
gr

c9
0 sg
 856 4522 mt 
( ) s
 396 2638 mt  -90 rotate
(Z) s
90 rotate
1 sg
0 334 1567 0 0 -334 4455 2594 4 MP
PP
-1567 0 0 334 1567 0 0 -334 4455 2594 5 MP stroke
4 w
DO
SO
6 w
0 sg
4455 2594 mt 6022 2594 L
4455 2260 mt 6022 2260 L
4455 2594 mt 4455 2260 L
6022 2594 mt 6022 2260 L
4455 2594 mt 6022 2594 L
4455 2594 mt 4455 2260 L
4455 2594 mt 6022 2594 L
4455 2260 mt 6022 2260 L
4455 2594 mt 4455 2260 L
6022 2594 mt 6022 2260 L
4902 2395 mt 
(Ground truth) s
gs 4455 2260 1568 335 rc
c8
344 0 4523 2352 2 MP stroke
gs 4622 2279 147 147 rc
  36   36 4695 2352 FO
gr

gr

c8
0 sg
4902 2544 mt 
(Quadrifocal tracking) s
gs 4455 2260 1568 335 rc
c9
344 0 4523 2501 2 MP stroke
gs 4622 2428 147 147 rc
4659 2501 mt 4731 2501 L
4695 2465 mt 4695 2537 L
gr

gr

c9
0 sg
2202 3336 mt 
(Start) s

end %%Color Dict

eplot
%%EndObject

epage
end

showpage

%%Trailer
%%EOF
