%!PS-Adobe-3.0 EPSF-3.0
%%Creator: MATLAB, The MathWorks, Inc. Version 8.1.0.604 (R2013a). Operating System: Darwin 12.5.0 Darwin Kernel Version 12.5.0: Sun Sep 29 13:33:47 PDT 2013; root:xnu-2050.48.12~1/RELEASE_X86_64 x86_64.
%%Title: /Users/Pinglin/Imperial College London/Publication/IPCAI/2014/imgs/trajectory.eps
%%CreationDate: 11/22/2013  03:55:57
%%DocumentNeededFonts: Helvetica
%%DocumentProcessColors: Cyan Magenta Yellow Black
%%LanguageLevel: 2
%%Pages: 1
%%BoundingBox:    26   186   585   606
%%EndComments

%%BeginProlog
% MathWorks dictionary
/MathWorks 160 dict begin
% definition operators
/bdef {bind def} bind def
/ldef {load def} bind def
/xdef {exch def} bdef
/xstore {exch store} bdef
% operator abbreviations
/c  /clip ldef
/cc /concat ldef
/cp /closepath ldef
/gr /grestore ldef
/gs /gsave ldef
/mt /moveto ldef
/np /newpath ldef
/cm /currentmatrix ldef
/sm /setmatrix ldef
/rm /rmoveto ldef
/rl /rlineto ldef
/s {show newpath} bdef
/sc {setcmykcolor} bdef
/sr /setrgbcolor ldef
/sg /setgray ldef
/w /setlinewidth ldef
/j /setlinejoin ldef
/cap /setlinecap ldef
/rc {rectclip} bdef
/rf {rectfill} bdef
% page state control
/pgsv () def
/bpage {/pgsv save def} bdef
/epage {pgsv restore} bdef
/bplot /gsave ldef
/eplot {stroke grestore} bdef
% orientation switch
/portraitMode 0 def /landscapeMode 1 def /rotateMode 2 def
% coordinate system mappings
/dpi2point 0 def
% font control
/FontSize 0 def
/FMS {/FontSize xstore findfont [FontSize 0 0 FontSize neg 0 0]
  makefont setfont} bdef
/reencode {exch dup where {pop load} {pop StandardEncoding} ifelse
  exch dup 3 1 roll findfont dup length dict begin
  { 1 index /FID ne {def}{pop pop} ifelse } forall
  /Encoding exch def currentdict end definefont pop} bdef
/isroman {findfont /CharStrings get /Agrave known} bdef
/FMSR {3 1 roll 1 index dup isroman {reencode} {pop pop} ifelse
  exch FMS} bdef
/csm {1 dpi2point div -1 dpi2point div scale neg translate
 dup landscapeMode eq {pop -90 rotate}
  {rotateMode eq {90 rotate} if} ifelse} bdef
% line types: solid, dotted, dashed, dotdash
/SO { [] 0 setdash } bdef
/DO { [.5 dpi2point mul 4 dpi2point mul] 0 setdash } bdef
/DA { [6 dpi2point mul] 0 setdash } bdef
/DD { [.5 dpi2point mul 4 dpi2point mul 6 dpi2point mul 4
  dpi2point mul] 0 setdash } bdef
% macros for lines and objects
/L {lineto stroke} bdef
/MP {3 1 roll moveto 1 sub {rlineto} repeat} bdef
/AP {{rlineto} repeat} bdef
/PDlw -1 def
/W {/PDlw currentlinewidth def setlinewidth} def
/PP {closepath eofill} bdef
/DP {closepath stroke} bdef
/MR {4 -2 roll moveto dup  0 exch rlineto exch 0 rlineto
  neg 0 exch rlineto closepath} bdef
/FR {MR stroke} bdef
/PR {MR fill} bdef
/L1i {{currentfile picstr readhexstring pop} image} bdef
/tMatrix matrix def
/MakeOval {newpath tMatrix currentmatrix pop translate scale
0 0 1 0 360 arc tMatrix setmatrix} bdef
/FO {MakeOval stroke} bdef
/PO {MakeOval fill} bdef
/PD {currentlinewidth 2 div 0 360 arc fill
   PDlw -1 eq not {PDlw w /PDlw -1 def} if} def
/FA {newpath tMatrix currentmatrix pop translate scale
  0 0 1 5 -2 roll arc tMatrix setmatrix stroke} bdef
/PA {newpath tMatrix currentmatrix pop	translate 0 0 moveto scale
  0 0 1 5 -2 roll arc closepath tMatrix setmatrix fill} bdef
/FAn {newpath tMatrix currentmatrix pop translate scale
  0 0 1 5 -2 roll arcn tMatrix setmatrix stroke} bdef
/PAn {newpath tMatrix currentmatrix pop translate 0 0 moveto scale
  0 0 1 5 -2 roll arcn closepath tMatrix setmatrix fill} bdef
/vradius 0 def /hradius 0 def /lry 0 def
/lrx 0 def /uly 0 def /ulx 0 def /rad 0 def
/MRR {/vradius xdef /hradius xdef /lry xdef /lrx xdef /uly xdef
  /ulx xdef newpath tMatrix currentmatrix pop ulx hradius add uly
  vradius add translate hradius vradius scale 0 0 1 180 270 arc 
  tMatrix setmatrix lrx hradius sub uly vradius add translate
  hradius vradius scale 0 0 1 270 360 arc tMatrix setmatrix
  lrx hradius sub lry vradius sub translate hradius vradius scale
  0 0 1 0 90 arc tMatrix setmatrix ulx hradius add lry vradius sub
  translate hradius vradius scale 0 0 1 90 180 arc tMatrix setmatrix
  closepath} bdef
/FRR {MRR stroke } bdef
/PRR {MRR fill } bdef
/MlrRR {/lry xdef /lrx xdef /uly xdef /ulx xdef /rad lry uly sub 2 div def
  newpath tMatrix currentmatrix pop ulx rad add uly rad add translate
  rad rad scale 0 0 1 90 270 arc tMatrix setmatrix lrx rad sub lry rad
  sub translate rad rad scale 0 0 1 270 90 arc tMatrix setmatrix
  closepath} bdef
/FlrRR {MlrRR stroke } bdef
/PlrRR {MlrRR fill } bdef
/MtbRR {/lry xdef /lrx xdef /uly xdef /ulx xdef /rad lrx ulx sub 2 div def
  newpath tMatrix currentmatrix pop ulx rad add uly rad add translate
  rad rad scale 0 0 1 180 360 arc tMatrix setmatrix lrx rad sub lry rad
  sub translate rad rad scale 0 0 1 0 180 arc tMatrix setmatrix
  closepath} bdef
/FtbRR {MtbRR stroke } bdef
/PtbRR {MtbRR fill } bdef
/stri 6 array def /dtri 6 array def
/smat 6 array def /dmat 6 array def
/tmat1 6 array def /tmat2 6 array def /dif 3 array def
/asub {/ind2 exch def /ind1 exch def dup dup
  ind1 get exch ind2 get sub exch } bdef
/tri_to_matrix {
  2 0 asub 3 1 asub 4 0 asub 5 1 asub
  dup 0 get exch 1 get 7 -1 roll astore } bdef
/compute_transform {
  dmat dtri tri_to_matrix tmat1 invertmatrix 
  smat stri tri_to_matrix tmat2 concatmatrix } bdef
/ds {stri astore pop} bdef
/dt {dtri astore pop} bdef
/db {2 copy /cols xdef /rows xdef mul dup 3 mul string
  currentfile 
  3 index 0 eq {/ASCIIHexDecode filter}
  {/ASCII85Decode filter 3 index 2 eq {/RunLengthDecode filter} if }
  ifelse exch readstring pop
  dup 0 3 index getinterval /rbmap xdef
  dup 2 index dup getinterval /gbmap xdef
  1 index dup 2 mul exch getinterval /bbmap xdef pop pop}bdef
/it {gs np dtri aload pop moveto lineto lineto cp c
  cols rows 8 compute_transform 
  rbmap gbmap bbmap true 3 colorimage gr}bdef
/il {newpath moveto lineto stroke}bdef
currentdict end def
%%EndProlog

%%BeginSetup
MathWorks begin

0 cap

end
%%EndSetup

%%Page: 1 1
%%BeginPageSetup
%%PageBoundingBox:    26   186   585   606
MathWorks begin
bpage
%%EndPageSetup

%%BeginObject: obj1
bplot

/dpi2point 12 def
portraitMode 0312 7272 csm

    0     0  6719  5033 rc
87 dict begin %Colortable dictionary
/c0 { 0.000000 0.000000 0.000000 sr} bdef
/c1 { 1.000000 1.000000 1.000000 sr} bdef
/c2 { 0.900000 0.000000 0.000000 sr} bdef
/c3 { 0.000000 0.820000 0.000000 sr} bdef
/c4 { 0.000000 0.000000 0.800000 sr} bdef
/c5 { 0.910000 0.820000 0.320000 sr} bdef
/c6 { 1.000000 0.260000 0.820000 sr} bdef
/c7 { 0.000000 0.820000 0.820000 sr} bdef
c0
1 j
1 sg
   0    0 6720 5034 rf
6 w
0 2266 -2261 -1038 0 -2267 6080 3682 4 MP
PP
2261 1039 0 2266 -2261 -1038 0 -2267 6080 3682 5 MP stroke
2261 1039 2947 -797 -2262 -1039 3134 4479 4 MP
PP
-2946 797 2261 1039 2947 -797 -2262 -1039 3134 4479 5 MP stroke
0 2266 2947 -796 0 -2267 872 3440 4 MP
PP
-2947 797 0 2266 2947 -796 0 -2267 872 3440 5 MP stroke
4 w
DO
0 sg
3134 4479 mt  872 3440 L
 872 3440 mt  872 1173 L
3723 4319 mt 1462 3281 L
1462 3281 mt 1462 1014 L
4312 4160 mt 2051 3121 L
2051 3121 mt 2051  855 L
4902 4000 mt 2641 2962 L
2641 2962 mt 2641  695 L
5491 3841 mt 3230 2803 L
3230 2803 mt 3230  536 L
6080 3682 mt 3819 2643 L
3819 2643 mt 3819  377 L
3134 4479 mt 6080 3682 L
6080 3682 mt 6080 1415 L
2681 4271 mt 5628 3474 L
5628 3474 mt 5628 1207 L
2229 4063 mt 5176 3266 L
5176 3266 mt 5176 1000 L
1777 3855 mt 4724 3059 L
4724 3059 mt 4724  792 L
1325 3648 mt 4272 2851 L
4272 2851 mt 4272  584 L
 872 3440 mt 3819 2643 L
3819 2643 mt 3819  377 L
 872 3440 mt 3819 2643 L
3819 2643 mt 6080 3682 L
 872 3116 mt 3819 2320 L
3819 2320 mt 6080 3358 L
 872 2792 mt 3819 1996 L
3819 1996 mt 6080 3034 L
 872 2469 mt 3819 1672 L
3819 1672 mt 6080 2710 L
 872 2145 mt 3819 1348 L
3819 1348 mt 6080 2386 L
 872 1821 mt 3819 1024 L
3819 1024 mt 6080 2063 L
 872 1497 mt 3819  700 L
3819  700 mt 6080 1739 L
 872 1173 mt 3819  377 L
3819  377 mt 6080 1415 L
SO
6 w
3134 4479 mt 6080 3682 L
3134 4479 mt  872 3440 L
 872 3440 mt  872 1173 L
3134 4479 mt 3203 4510 L
%%IncludeResource: font Helvetica
/Helvetica /ISOLatin1Encoding 120 FMSR

3234 4636 mt 
(-20) s
3723 4319 mt 3792 4351 L
3824 4476 mt 
(-15) s
4312 4160 mt 4382 4192 L
4413 4317 mt 
(-10) s
4902 4000 mt 4971 4032 L
5002 4158 mt 
(-5) s
5491 3841 mt 5560 3873 L
5592 3998 mt 
(0) s
6080 3682 mt 6150 3714 L
6181 3839 mt 
(5) s
3134 4479 mt 3060 4498 L
2894 4618 mt 
(25) s
2681 4271 mt 2608 4291 L
2441 4411 mt 
(30) s
2229 4063 mt 2156 4083 L
1989 4203 mt 
(35) s
1777 3855 mt 1703 3875 L
1537 3995 mt 
(40) s
1325 3648 mt 1251 3668 L
1085 3788 mt 
(45) s
 872 3440 mt  799 3460 L
 632 3580 mt 
(50) s
 872 3440 mt  803 3408 L
 639 3438 mt 
(20) s
 872 3116 mt  803 3084 L
 639 3114 mt 
(25) s
 872 2792 mt  803 2761 L
 639 2790 mt 
(30) s
 872 2469 mt  803 2437 L
 639 2466 mt 
(35) s
 872 2145 mt  803 2113 L
 639 2143 mt 
(40) s
 872 1821 mt  803 1789 L
 639 1819 mt 
(45) s
 872 1497 mt  803 1465 L
 639 1495 mt 
(50) s
 872 1173 mt  803 1141 L
 639 1171 mt 
(55) s
6064  419 mt 
( ) s
gs 872 377 5209 4103 rc
12 w
/c8 { 0.000000 1.000000 0.000000 sr} bdef
c8
4825 1350 mt 4824 1342 L
/c9 { 1.000000 0.000000 0.000000 sr} bdef
c9
4824 1344 mt 4821 1336 L
c8
4824 1342 mt 4814 1343 L
c9
4821 1336 mt 4808 1338 L
c8
4814 1354 mt 4825 1350 L
4814 1343 mt 4797 1342 L
c9
4813 1348 mt 4824 1344 L
4808 1338 mt 4793 1336 L
4802 1360 mt 4813 1348 L
c8
4802 1366 mt 4814 1354 L
4797 1342 mt 4773 1352 L
c9
4793 1336 mt 4769 1347 L
4786 1376 mt 4802 1360 L
c8
4785 1382 mt 4802 1366 L
4782 1394 mt 4785 1382 L
c9
4781 1388 mt 4786 1376 L
c8
4773 1352 mt 4769 1363 L
c9
4769 1347 mt 4765 1357 L
c8
4769 1363 mt 4745 1376 L
4766 1410 mt 4782 1394 L
c9
4765 1405 mt 4781 1388 L
4765 1357 mt 4741 1370 L
4756 1411 mt 4765 1405 L
c8
4754 1417 mt 4766 1410 L
c9
4751 1415 mt 4756 1411 L
4746 1433 mt 4751 1415 L
c8
4748 1421 mt 4754 1417 L
4745 1376 mt 4716 1387 L
4742 1439 mt 4748 1421 L
c9
4741 1370 mt 4714 1381 L
/c10 { 0.000000 0.000000 1.000000 sr} bdef
c10
4736 1404 mt 4734 1396 L
4734 1396 mt 4723 1396 L
c9
4730 1449 mt 4746 1433 L
c10
4726 1408 mt 4736 1404 L
c8
4725 1455 mt 4742 1439 L
c10
4723 1396 mt 4705 1395 L
c8
4716 1387 mt 4681 1405 L
c10
4715 1420 mt 4726 1408 L
c9
4714 1381 mt 4680 1399 L
4711 1459 mt 4730 1449 L
c10
4705 1395 mt 4684 1406 L
c8
4704 1465 mt 4725 1455 L
c10
4699 1436 mt 4715 1420 L
c9
4697 1470 mt 4711 1459 L
c10
4695 1448 mt 4699 1436 L
c8
4692 1476 mt 4704 1465 L
c10
4684 1406 mt 4681 1417 L
c9
4681 1486 mt 4697 1470 L
c10
4681 1464 mt 4695 1448 L
4681 1417 mt 4659 1429 L
c8
4681 1405 mt 4632 1428 L
c9
4680 1399 mt 4631 1422 L
c8
4677 1492 mt 4692 1476 L
c10
4669 1471 mt 4681 1464 L
4663 1475 mt 4669 1471 L
c9
4660 1507 mt 4681 1486 L
c10
4659 1429 mt 4634 1440 L
4658 1494 mt 4663 1475 L
c8
4655 1513 mt 4677 1492 L
c10
4643 1509 mt 4658 1494 L
4634 1440 mt 4601 1458 L
c8
4632 1428 mt 4569 1456 L
c9
4631 1422 mt 4568 1450 L
c10
4623 1519 mt 4643 1509 L
c9
4610 1523 mt 4660 1507 L
c10
4610 1531 mt 4623 1519 L
c8
4605 1529 mt 4655 1513 L
c10
4601 1458 mt 4554 1479 L
4595 1547 mt 4610 1531 L
4574 1568 mt 4595 1547 L
c9
4574 1535 mt 4610 1523 L
c8
4570 1540 mt 4605 1529 L
4569 1456 mt 4507 1478 L
c9
4568 1450 mt 4506 1472 L
c10
4554 1479 mt 4496 1506 L
c9
4552 1563 mt 4574 1535 L
4543 1599 mt 4552 1563 L
c8
4549 1568 mt 4570 1540 L
4541 1604 mt 4549 1568 L
c9
4537 1622 mt 4543 1599 L
c8
4538 1626 mt 4541 1604 L
4526 1649 mt 4538 1626 L
4525 1676 mt 4526 1649 L
c10
4525 1584 mt 4574 1568 L
c9
4524 1644 mt 4537 1622 L
4523 1672 mt 4524 1644 L
/c11 { 0.000000 1.000000 1.000000 sr} bdef
c11
4508 1606 mt 4501 1599 L
c8
4507 1478 mt 4431 1489 L
c9
4506 1472 mt 4429 1484 L
c8
4502 1700 mt 4525 1676 L
c11
4502 1608 mt 4508 1606 L
c9
4501 1696 mt 4523 1672 L
c11
4501 1599 mt 4494 1600 L
c10
4496 1506 mt 4439 1528 L
c11
4494 1600 mt 4480 1601 L
4493 1617 mt 4502 1608 L
c10
4490 1595 mt 4525 1584 L
c11
4480 1601 mt 4469 1611 L
c8
4479 1716 mt 4502 1700 L
c11
4479 1631 mt 4493 1617 L
c9
4477 1713 mt 4501 1696 L
c11
4477 1643 mt 4479 1631 L
4473 1620 mt 4464 1627 L
gr

12 w
c11
0 sg
4470 4738 mt 
(X) s
gs 872 377 5209 4103 rc
c11
4469 1611 mt 4473 1620 L
c10
4469 1623 mt 4490 1595 L
c8
4466 1738 mt 4479 1716 L
c11
4464 1655 mt 4477 1643 L
4464 1627 mt 4448 1636 L
c9
4464 1735 mt 4477 1713 L
c8
4462 1758 mt 4466 1738 L
c10
4460 1659 mt 4469 1623 L
c9
4459 1755 mt 4464 1735 L
c10
4457 1681 mt 4460 1659 L
c11
4452 1655 mt 4464 1655 L
4448 1636 mt 4422 1649 L
c10
4444 1703 mt 4457 1681 L
c8
4444 1777 mt 4462 1758 L
c10
4442 1730 mt 4444 1703 L
c11
4441 1658 mt 4452 1655 L
c9
4440 1774 mt 4459 1755 L
c10
4439 1528 mt 4365 1539 L
c11
4433 1670 mt 4441 1658 L
c8
4431 1489 mt 4356 1503 L
c9
4429 1484 mt 4352 1498 L
c11
4422 1649 mt 4386 1659 L
c10
4419 1755 mt 4442 1730 L
c8
4412 1797 mt 4444 1777 L
c9
4410 1794 mt 4440 1774 L
c11
4407 1687 mt 4433 1670 L
c8
4401 1821 mt 4412 1797 L
c9
4398 1818 mt 4410 1794 L
c10
4397 1771 mt 4419 1755 L
c11
4393 1692 mt 4407 1687 L
4386 1659 mt 4341 1679 L
c10
4382 1792 mt 4397 1771 L
c11
4379 1701 mt 4393 1692 L
c8
4379 1866 mt 4401 1821 L
c10
4377 1811 mt 4382 1792 L
c9
4375 1863 mt 4398 1818 L
c11
4367 1714 mt 4379 1701 L
c10
4365 1539 mt 4291 1552 L
4360 1830 mt 4377 1811 L
c8
4356 1503 mt 4308 1516 L
c9
4352 1498 mt 4299 1511 L
c11
4352 1731 mt 4367 1714 L
c8
4345 1904 mt 4379 1866 L
c11
4341 1679 mt 4298 1693 L
c9
4341 1901 mt 4375 1863 L
c10
4333 1848 mt 4360 1830 L
4324 1871 mt 4333 1848 L
c11
4313 1742 mt 4352 1731 L
c8
4311 1935 mt 4345 1904 L
4308 1516 mt 4266 1524 L
c9
4307 1933 mt 4341 1901 L
c10
4306 1913 mt 4324 1871 L
c9
4299 1511 mt 4260 1520 L
c11
4298 1693 mt 4241 1701 L
c10
4291 1552 mt 4251 1563 L
c11
4283 1750 mt 4313 1742 L
c10
4278 1949 mt 4306 1913 L
c8
4276 1976 mt 4311 1935 L
c9
4275 1973 mt 4307 1933 L
c11
4272 1772 mt 4283 1750 L
4269 1805 mt 4272 1772 L
4268 1824 mt 4269 1805 L
4266 1866 mt 4262 1842 L
c8
4266 1524 mt 4220 1522 L
c11
4262 1842 mt 4268 1824 L
c9
4260 1520 mt 4214 1518 L
c8
4256 2009 mt 4276 1976 L
c9
4254 2006 mt 4275 1973 L
c10
4251 1563 mt 4211 1571 L
c11
4251 1885 mt 4266 1866 L
c10
4248 1979 mt 4278 1949 L
c11
4241 1701 mt 4182 1710 L
c8
4237 2033 mt 4256 2009 L
c9
4235 2030 mt 4254 2006 L
c11
4231 1898 mt 4251 1885 L
c8
4225 2052 mt 4237 2033 L
c10
4223 2017 mt 4248 1979 L
c9
4222 2050 mt 4235 2030 L
c8
4220 1522 mt 4165 1517 L
c11
4220 1916 mt 4231 1898 L
4216 1932 mt 4220 1916 L
c9
4214 1518 mt 4157 1513 L
c10
4211 1571 mt 4172 1568 L
4208 2047 mt 4223 2017 L
c8
4206 2070 mt 4225 2052 L
c11
4203 1947 mt 4216 1932 L
c9
4203 2067 mt 4222 2050 L
c10
4191 2070 mt 4208 2047 L
c11
4182 1710 mt 4142 1719 L
4181 1962 mt 4203 1947 L
c8
4178 2082 mt 4206 2070 L
c10
4181 2088 mt 4191 2070 L
c11
4180 1983 mt 4181 1962 L
c9
4175 2080 mt 4203 2067 L
c11
4174 2020 mt 4180 1983 L
c10
4172 1568 mt 4123 1562 L
c8
4165 1517 mt 4113 1503 L
c10
4164 2104 mt 4181 2088 L
c11
4160 2051 mt 4174 2020 L
c9
4157 1513 mt 4106 1498 L
c8
4147 2105 mt 4178 2082 L
c9
4144 2103 mt 4175 2080 L
c11
4142 2076 mt 4160 2051 L
4142 1719 mt 4112 1726 L
c10
4139 2114 mt 4164 2104 L
c8
4138 2118 mt 4147 2105 L
c9
4135 2116 mt 4144 2103 L
c11
4131 2109 mt 4142 2076 L
c9
4129 2227 mt 4129 2212 L
c8
4130 2229 mt 4128 2214 L
c9
4129 2212 mt 4116 2187 L
c8
4128 2214 mt 4117 2189 L
4117 2250 mt 4130 2229 L
c9
4128 2264 mt 4116 2248 L
c8
4128 2266 mt 4117 2250 L
c10
4123 1562 mt 4086 1546 L
c11
4122 2137 mt 4131 2109 L
c8
4120 2130 mt 4138 2118 L
c9
4118 2128 mt 4135 2116 L
c11
4103 2171 mt 4109 2156 L
c9
4116 2187 mt 4100 2161 L
c8
4117 2189 mt 4102 2163 L
c9
4116 2248 mt 4129 2227 L
c8
4114 2144 mt 4120 2130 L
4113 1503 mt 4106 1466 L
c11
4112 1726 mt 4074 1723 L
c10
4110 2136 mt 4139 2114 L
c9
4112 2142 mt 4118 2128 L
c8
4112 2278 mt 4128 2266 L
c9
4111 2276 mt 4128 2264 L
c11
4109 2156 mt 4122 2137 L
c9
4106 1498 mt 4098 1462 L
c8
4106 1466 mt 4100 1430 L
c10
4103 2148 mt 4110 2136 L
c8
4102 2163 mt 4114 2144 L
c9
4086 2289 mt 4111 2276 L
c8
4087 2291 mt 4112 2278 L
c10
4101 2287 mt 4088 2273 L
c9
4100 2161 mt 4112 2142 L
c8
4100 1430 mt 4081 1392 L
c10
4100 2239 mt 4085 2215 L
4099 2253 mt 4100 2239 L
c9
4098 1462 mt 4094 1425 L
4094 1425 mt 4073 1387 L
c11
4090 2185 mt 4103 2171 L
c10
4088 2273 mt 4099 2253 L
4087 2298 mt 4101 2287 L
4086 2159 mt 4103 2148 L
4086 1546 mt 4077 1511 L
c11
4065 2194 mt 4090 2185 L
c10
4085 2215 mt 4069 2190 L
4081 2172 mt 4086 2159 L
c8
4081 1392 mt 4009 1359 L
c10
4077 1511 mt 4069 1474 L
c11
4074 1723 mt 4033 1723 L
c9
4073 1387 mt 4003 1355 L
c10
4069 1474 mt 4048 1438 L
4069 2190 mt 4081 2172 L
c8
4065 2308 mt 4087 2291 L
c9
4064 2307 mt 4086 2289 L
c10
4064 2310 mt 4087 2298 L
c11
4052 2345 mt 4039 2330 L
c10
4048 1438 mt 3979 1405 L
c11
4046 2314 mt 4043 2302 L
4044 2212 mt 4065 2194 L
4043 2302 mt 4028 2280 L
4040 2222 mt 4044 2212 L
4039 2353 mt 4052 2345 L
c9
4036 2324 mt 4064 2307 L
c8
4037 2326 mt 4065 2308 L
c10
4039 2327 mt 4064 2310 L
c11
4039 2330 mt 4046 2314 L
4033 1723 mt 3990 1707 L
c8
4031 2337 mt 4037 2326 L
c9
4030 2335 mt 4036 2324 L
c11
4028 2280 mt 4011 2257 L
c8
4027 2352 mt 4031 2337 L
c9
4026 2350 mt 4030 2335 L
c11
4025 2231 mt 4040 2222 L
c8
4022 2371 mt 4027 2352 L
c11
4021 2242 mt 4025 2231 L
c9
4021 2369 mt 4026 2350 L
c11
4015 2362 mt 4039 2353 L
c10
4013 2342 mt 4039 2327 L
c11
4011 2257 mt 4021 2242 L
c8
4009 1359 mt 3965 1316 L
c10
4007 2353 mt 4013 2342 L
c9
4007 2384 mt 4021 2369 L
c8
4006 2386 mt 4022 2371 L
c10
4004 2367 mt 4007 2353 L
c9
4003 1355 mt 3959 1311 L
c10
3999 2384 mt 4004 2367 L
c11
3998 2375 mt 4015 2362 L
c9
3996 2389 mt 4007 2384 L
c8
3995 2391 mt 4006 2386 L
c11
3990 1707 mt 3979 1677 L
c9
3981 2403 mt 3996 2389 L
c10
3988 2398 mt 3999 2384 L
c8
3981 2405 mt 3995 2391 L
c9
3981 2421 mt 3981 2403 L
c8
3981 2423 mt 3981 2405 L
c10
3979 1405 mt 3937 1361 L
c11
3979 1677 mt 3965 1645 L
3977 2387 mt 3998 2375 L
c10
3976 2403 mt 3988 2398 L
c11
3969 2395 mt 3977 2387 L
3966 2407 mt 3969 2395 L
3965 1645 mt 3941 1612 L
c10
3965 2432 mt 3964 2415 L
c8
3965 1316 mt 3939 1268 L
c9
3964 2463 mt 3981 2421 L
c8
3964 2466 mt 3981 2423 L
c10
3964 2415 mt 3976 2403 L
c11
3962 2421 mt 3966 2407 L
c9
3959 1311 mt 3934 1263 L
c10
3954 2471 mt 3965 2432 L
c11
3951 2433 mt 3962 2421 L
3941 1612 mt 3879 1584 L
c8
3939 1268 mt 3937 1240 L
c11
3939 2436 mt 3951 2433 L
c8
3937 1240 mt 3905 1215 L
c10
3937 1361 mt 3905 1314 L
c9
3934 1263 mt 3934 1235 L
3934 1235 mt 3901 1210 L
3933 2502 mt 3964 2463 L
c8
3932 2504 mt 3964 2466 L
c11
3931 2461 mt 3929 2446 L
3929 2446 mt 3939 2436 L
c10
3928 2506 mt 3954 2471 L
c11
3927 2495 mt 3931 2461 L
3910 2527 mt 3927 2495 L
c10
3905 1314 mt 3902 1286 L
c8
3905 1215 mt 3880 1188 L
c10
3902 1286 mt 3866 1260 L
c9
3901 1210 mt 3877 1182 L
c8
3880 1188 mt 3860 1181 L
c11
3879 1584 mt 3830 1547 L
c9
3877 1182 mt 3858 1176 L
3874 2515 mt 3933 2502 L
c8
3873 2518 mt 3932 2504 L
c10
3872 2519 mt 3928 2506 L
3866 1260 mt 3838 1233 L
c11
3861 2535 mt 3910 2527 L
c8
3860 1181 mt 3824 1167 L
c9
3858 1176 mt 3822 1162 L
c10
3845 2546 mt 3872 2519 L
c8
3845 2545 mt 3873 2518 L
c9
3844 2543 mt 3874 2515 L
c11
3843 2583 mt 3841 2556 L
3841 2556 mt 3861 2535 L
c10
3842 2577 mt 3845 2546 L
c8
3840 2577 mt 3845 2545 L
c9
3839 2575 mt 3844 2543 L
c10
3838 1233 mt 3822 1225 L
c11
3830 1547 mt 3790 1502 L
c8
3824 1167 mt 3779 1145 L
c10
3822 1225 mt 3785 1211 L
c9
3822 1162 mt 3777 1139 L
c11
3820 2599 mt 3843 2583 L
c10
3815 2597 mt 3842 2577 L
c8
3813 2598 mt 3840 2577 L
c9
3813 2596 mt 3839 2575 L
c11
3790 1502 mt 3775 1473 L
c10
3785 1211 mt 3740 1187 L
c8
3779 1145 mt 3733 1153 L
c9
3777 1139 mt 3733 1147 L
c11
3775 1473 mt 3743 1451 L
3774 2596 mt 3820 2599 L
c10
3767 2595 mt 3815 2597 L
c8
3765 2596 mt 3813 2598 L
c9
3764 2594 mt 3813 2596 L
c11
3743 1451 mt 3714 1428 L
3742 2602 mt 3774 2596 L
c10
3740 1187 mt 3693 1196 L
c9
3733 1147 mt 3644 1190 L
c8
3733 1153 mt 3644 1195 L
c11
3724 2600 mt 3742 2602 L
c10
3731 2602 mt 3767 2595 L
c8
3728 2603 mt 3765 2596 L
c9
3726 2601 mt 3764 2594 L
c11
3717 2603 mt 3724 2600 L
3714 1428 mt 3703 1420 L
c10
3712 2602 mt 3731 2602 L
3706 2607 mt 3712 2602 L
c8
3709 2603 mt 3728 2603 L
c9
3708 2601 mt 3726 2601 L
c8
3704 2607 mt 3709 2603 L
c11
3703 1420 mt 3667 1410 L
c9
3702 2607 mt 3708 2601 L
c11
3698 2615 mt 3717 2603 L
3696 3394 mt 3685 3399 L
c10
3693 1196 mt 3615 1237 L
c11
3685 3369 mt 3696 3394 L
3685 3399 mt 3681 3399 L
c10
3683 2620 mt 3706 2607 L
c11
3681 3399 mt 3653 3403 L
c8
3681 2620 mt 3704 2607 L
c9
3679 2620 mt 3702 2607 L
c11
3667 1410 mt 3621 1389 L
3658 3340 mt 3685 3369 L
c9
3656 2541 mt 3640 2556 L
c11
3640 2551 mt 3642 2566 L
c8
3656 2541 mt 3639 2553 L
c10
3656 2541 mt 3639 2553 L
c11
3656 2541 mt 3640 2551 L
3653 3403 mt 3541 3315 L
c9
3644 1190 mt 3526 1223 L
c8
3644 1195 mt 3525 1228 L
c11
3644 3321 mt 3658 3340 L
c10
3639 2553 mt 3641 2570 L
c8
3639 2553 mt 3641 2570 L
c9
3640 2556 mt 3640 2572 L
c8
3641 2570 mt 3629 2589 L
c11
3633 2583 mt 3620 2599 L
c10
3641 2570 mt 3628 2589 L
c11
3642 2566 mt 3633 2583 L
c9
3640 2572 mt 3628 2592 L
c11
3634 2620 mt 3698 2615 L
3631 3300 mt 3644 3321 L
c9
3628 2592 mt 3613 2611 L
c11
3620 2599 mt 3612 2618 L
c10
3628 2589 mt 3613 2609 L
c8
3629 2589 mt 3612 2610 L
c11
3621 1389 mt 3574 1392 L
c10
3615 1237 mt 3502 1269 L
c9
3613 2611 mt 3601 2635 L
c10
3613 2627 mt 3683 2620 L
3613 2609 mt 3602 2632 L
c8
3612 2627 mt 3681 2620 L
c11
3612 2618 mt 3610 2631 L
c8
3612 2610 mt 3600 2634 L
c11
3611 3274 mt 3631 3300 L
3610 2631 mt 3606 2627 L
c9
3606 2629 mt 3679 2620 L
c11
3606 2627 mt 3584 2618 L
c10
3602 2632 mt 3597 2646 L
c9
3601 2635 mt 3596 2650 L
c8
3600 2634 mt 3595 2649 L
c10
3597 2646 mt 3593 2643 L
c9
3596 2650 mt 3592 2646 L
c11
3596 2627 mt 3634 2620 L
c9
3592 2646 mt 3569 2639 L
c8
3595 2649 mt 3590 2645 L
c10
3593 2643 mt 3571 2635 L
c8
3590 2645 mt 3569 2637 L
c11
3584 2618 mt 3571 2630 L
3582 3255 mt 3611 3274 L
3574 1392 mt 3517 1425 L
3571 2630 mt 3569 2650 L
c10
3571 2635 mt 3556 2649 L
c11
3569 2650 mt 3561 2657 L
c8
3569 2637 mt 3554 2652 L
c9
3569 2639 mt 3553 2654 L
c10
3568 2639 mt 3613 2627 L
c11
3568 3232 mt 3582 3255 L
c8
3566 2640 mt 3612 2627 L
c9
3563 2642 mt 3606 2629 L
c8
3546 2676 mt 3535 2684 L
c9
3553 2654 mt 3545 2678 L
c8
3554 2652 mt 3546 2676 L
c10
3556 2649 mt 3550 2672 L
c11
3561 2657 mt 3538 2641 L
c10
3550 2672 mt 3539 2680 L
c11
3549 2661 mt 3539 2672 L
3548 2636 mt 3596 2627 L
c9
3545 2678 mt 3533 2686 L
c11
3543 3207 mt 3568 3232 L
3543 2648 mt 3549 2661 L
3541 3315 mt 3508 3334 L
c10
3539 2680 mt 3514 2665 L
c11
3539 2672 mt 3511 2670 L
3538 2641 mt 3532 2639 L
c10
3518 2672 mt 3525 2687 L
c8
3535 2684 mt 3509 2669 L
c9
3533 2686 mt 3507 2671 L
c11
3532 2639 mt 3543 2648 L
c9
3526 1223 mt 3415 1258 L
c8
3525 1228 mt 3415 1263 L
3518 2693 mt 3503 2708 L
c9
3512 2678 mt 3518 2694 L
c8
3514 2676 mt 3518 2693 L
c10
3525 2687 mt 3509 2701 L
c11
3519 3177 mt 3543 3207 L
c8
3503 2708 mt 3467 2707 L
c9
3518 2694 mt 3501 2708 L
c11
3517 1425 mt 3423 1447 L
c10
3514 2665 mt 3508 2662 L
3513 2654 mt 3568 2639 L
c9
3501 2668 mt 3512 2678 L
c8
3503 2666 mt 3514 2676 L
c9
3507 2671 mt 3501 2668 L
c11
3511 2670 mt 3483 2667 L
c8
3509 2669 mt 3503 2666 L
c10
3509 2701 mt 3475 2700 L
c11
3508 3334 mt 3485 3345 L
c10
3508 2662 mt 3518 2672 L
c8
3506 2657 mt 3566 2640 L
c9
3503 2658 mt 3563 2642 L
c10
3502 1269 mt 3403 1301 L
c9
3501 2708 mt 3464 2709 L
c11
3500 2682 mt 3472 2686 L
3500 3143 mt 3519 3177 L
c10
3499 3490 mt 3485 3498 L
c11
3499 2625 mt 3548 2636 L
3487 2674 mt 3500 2682 L
3485 3345 mt 3469 3348 L
c10
3485 3498 mt 3481 3501 L
c11
3483 2667 mt 3483 2669 L
3483 2669 mt 3487 2674 L
c10
3481 3501 mt 3441 3511 L
3478 3464 mt 3499 3490 L
3475 2700 mt 3445 2699 L
c11
3472 2686 mt 3439 2704 L
3472 3330 mt 3465 3315 L
3469 3341 mt 3472 3330 L
3456 3341 mt 3464 3347 L
3464 3347 mt 3469 3341 L
3469 3348 mt 3449 3340 L
c8
3467 2707 mt 3438 2707 L
c11
3465 3315 mt 3463 3299 L
c8
3438 2707 mt 3436 2710 L
c9
3464 2709 mt 3433 2708 L
c11
3463 3299 mt 3450 3285 L
c10
3462 2646 mt 3513 2654 L
c11
3461 3108 mt 3500 3143 L
c10
3458 2716 mt 3429 2721 L
c8
3454 2650 mt 3506 2657 L
c9
3451 2651 mt 3503 2658 L
c11
3450 3285 mt 3435 3264 L
3449 3340 mt 3456 3341 L
c9
3446 2725 mt 3415 2732 L
c10
3446 2706 mt 3458 2716 L
c8
3446 2724 mt 3416 2731 L
3446 3527 mt 3431 3536 L
c10
3445 2699 mt 3444 2702 L
3444 2702 mt 3446 2706 L
3441 3511 mt 3281 3432 L
c11
3440 2620 mt 3499 2625 L
c10
3439 3435 mt 3478 3464 L
c11
3439 2704 mt 3399 2724 L
c8
3439 2715 mt 3446 2724 L
3436 2710 mt 3439 2715 L
c9
3436 3525 mt 3421 3534 L
3435 2716 mt 3446 2725 L
c11
3435 3264 mt 3384 3202 L
c9
3433 2708 mt 3432 2711 L
3432 2711 mt 3435 2716 L
c8
3431 3536 mt 3427 3540 L
c10
3429 2721 mt 3385 2745 L
c11
3427 2640 mt 3440 2620 L
c8
3427 3540 mt 3383 3552 L
3425 3500 mt 3446 3527 L
c11
3423 2662 mt 3427 2640 L
3423 1447 mt 3353 1468 L
c9
3421 3534 mt 3416 3538 L
c10
3419 3416 mt 3439 3435 L
3217 3477 mt 3198 3482 L
c8
3383 3552 mt 3209 3478 L
c9
3416 3538 mt 3373 3550 L
c8
3416 2731 mt 3368 2757 L
c9
3415 1258 mt 3324 1292 L
3415 2732 mt 3368 2758 L
c8
3415 1263 mt 3324 1297 L
c9
3414 3498 mt 3436 3525 L
c11
3414 3072 mt 3461 3108 L
c10
3403 1301 mt 3322 1333 L
3401 3393 mt 3419 3416 L
3400 2646 mt 3462 2646 L
c11
3399 2724 mt 3356 2722 L
3398 2660 mt 3423 2662 L
3393 2661 mt 3398 2660 L
c8
3391 2651 mt 3454 2650 L
c9
3387 2653 mt 3451 2651 L
c8
3385 3471 mt 3425 3500 L
c10
3385 2745 mt 3330 2769 L
c11
3384 3202 mt 3372 3180 L
3376 2668 mt 3393 2661 L
c10
3379 2669 mt 3400 2646 L
3379 3366 mt 3401 3393 L
c9
3375 3468 mt 3414 3498 L
3373 3550 mt 3204 3474 L
c11
3373 3040 mt 3414 3072 L
3372 3180 mt 3367 3162 L
c10
3371 2696 mt 3379 2669 L
c8
3368 2757 mt 3311 2783 L
c9
3368 2758 mt 3309 2784 L
c8
3368 2676 mt 3391 2651 L
c11
3367 3162 mt 3186 2963 L
c9
3365 2678 mt 3387 2653 L
c8
3363 3452 mt 3385 3471 L
3357 2706 mt 3368 2676 L
c11
3356 2722 mt 3330 2717 L
c9
3354 2707 mt 3365 2678 L
3353 3449 mt 3375 3468 L
c11
3353 1468 mt 3291 1493 L
c10
3344 3348 mt 3379 3366 L
c8
3344 3428 mt 3363 3452 L
c10
3343 2696 mt 3371 2696 L
3342 2698 mt 3343 2696 L
c11
3336 2669 mt 3376 2668 L
c9
3334 3426 mt 3353 3449 L
c8
3332 2705 mt 3357 2706 L
c11
3330 2717 mt 3330 2720 L
3330 2720 mt 3315 2724 L
c10
3330 2769 mt 3285 2768 L
c8
3326 2708 mt 3332 2705 L
c9
3328 2707 mt 3354 2707 L
c10
3326 3325 mt 3344 3348 L
c11
3326 3013 mt 3373 3040 L
c8
3324 1297 mt 3243 1318 L
c9
3324 1292 mt 3243 1313 L
3324 2709 mt 3328 2707 L
c8
3323 3400 mt 3344 3428 L
c10
3322 1333 mt 3247 1352 L
c11
3320 2683 mt 3336 2669 L
c10
3320 2706 mt 3342 2698 L
c11
3315 2724 mt 3307 2725 L
c9
3313 3398 mt 3334 3426 L
c8
3311 2783 mt 3262 2785 L
c9
3309 2784 mt 3257 2787 L
c11
3307 2725 mt 3289 2721 L
3305 2702 mt 3320 2683 L
c8
3301 2718 mt 3326 2708 L
c9
3300 2719 mt 3324 2709 L
c10
3299 3300 mt 3326 3325 L
c11
3296 2976 mt 3326 3013 L
3291 1493 mt 3234 1506 L
3289 2721 mt 3278 2717 L
c8
3289 3380 mt 3323 3400 L
c10
3285 2768 mt 3258 2765 L
3281 3432 mt 3243 3460 L
c9
3279 3379 mt 3313 3398 L
c11
3278 2717 mt 3269 2719 L
c10
3275 2710 mt 3320 2706 L
c8
3271 3357 mt 3289 3380 L
c10
3271 3271 mt 3299 3300 L
c11
3269 2719 mt 3267 2718 L
3268 2701 mt 3305 2702 L
3267 2718 mt 3255 2723 L
3262 2720 mt 3260 2713 L
c9
3262 3356 mt 3279 3379 L
c8
3262 2785 mt 3230 2783 L
c11
3260 2713 mt 3235 2707 L
c10
3258 2765 mt 3257 2768 L
c8
3230 2783 mt 3229 2787 L
c9
3257 2787 mt 3229 2785 L
c10
3257 2768 mt 3236 2775 L
c11
3255 2723 mt 3242 2723 L
c8
3254 2723 mt 3301 2718 L
c11
3249 2720 mt 3262 2720 L
c9
3253 2724 mt 3300 2719 L
c10
3253 2726 mt 3275 2710 L
3247 1352 mt 3168 1368 L
3247 3238 mt 3271 3271 L
c8
3244 3333 mt 3271 3357 L
3243 1318 mt 3158 1335 L
c10
3243 3460 mt 3217 3477 L
c9
3243 1313 mt 3157 1330 L
c11
3242 2954 mt 3296 2976 L
3242 2723 mt 3249 2720 L
c10
3236 2775 mt 3224 2778 L
c9
3235 3330 mt 3262 3356 L
c11
3235 2707 mt 3268 2701 L
3234 1506 mt 3165 1516 L
c8
3231 2740 mt 3254 2723 L
3229 2787 mt 3210 2793 L
c9
3229 2785 mt 3228 2788 L
3228 2741 mt 3253 2724 L
3228 2788 mt 3209 2794 L
c10
3224 2778 mt 3205 2773 L
3220 2756 mt 3253 2726 L
c8
3218 3302 mt 3244 3333 L
3210 2793 mt 3199 2795 L
3209 3478 mt 3170 3507 L
c9
3209 2794 mt 3198 2796 L
3209 3300 mt 3235 3330 L
c11
3207 2932 mt 3242 2954 L
c10
3205 2773 mt 3193 2769 L
3180 3476 mt 3192 3481 L
3192 3481 mt 3196 3475 L
3198 3482 mt 3173 3475 L
c9
3204 3474 mt 3163 3504 L
c10
3202 3206 mt 3247 3238 L
c8
3201 2766 mt 3231 2740 L
3199 2795 mt 3179 2791 L
c9
3199 2766 mt 3228 2741 L
3198 2796 mt 3178 2792 L
c10
3196 3475 mt 3196 3462 L
3196 3462 mt 3187 3446 L
c8
3193 3267 mt 3218 3302 L
c10
3193 2769 mt 3184 2771 L
3187 3446 mt 3179 3431 L
c11
3186 2963 mt 3171 2961 L
c10
3184 2771 mt 3179 2774 L
c9
3184 3267 mt 3209 3300 L
c11
3181 2981 mt 3187 2966 L
c10
3181 2759 mt 3220 2756 L
3179 3431 mt 3170 3422 L
3179 2774 mt 3167 2777 L
c8
3179 2791 mt 3167 2787 L
c9
3178 2792 mt 3165 2788 L
c10
3174 2765 mt 3147 2759 L
c11
3173 2959 mt 3150 2967 L
c10
3173 3475 mt 3180 3476 L
3173 2778 mt 3174 2765 L
c11
3171 2961 mt 3173 2959 L
c8
3170 3507 mt 3140 3525 L
c10
3170 3422 mt 3156 3401 L
3168 1368 mt 3114 1392 L
3167 2777 mt 3152 2778 L
c8
3167 2787 mt 3158 2790 L
c11
3165 2903 mt 3207 2932 L
c9
3165 2788 mt 3155 2791 L
c11
3165 1516 mt 3118 1534 L
c9
3163 3504 mt 3133 3523 L
c11
3163 2989 mt 3181 2981 L
3162 2982 mt 3162 2997 L
3162 2997 mt 3159 3003 L
c8
3161 2769 mt 3201 2766 L
c10
3161 2776 mt 3173 2778 L
c11
3159 3014 mt 3152 3021 L
c9
3159 2770 mt 3199 2766 L
c11
3159 3003 mt 3159 3014 L
c8
3158 2790 mt 3154 2790 L
3158 1335 mt 3098 1360 L
c9
3157 1330 mt 3096 1355 L
c10
3156 3401 mt 3107 3341 L
c8
3154 2790 mt 3139 2796 L
c9
3155 2791 mt 3152 2791 L
c10
3155 3170 mt 3202 3206 L
c11
3152 3021 mt 3149 3032 L
c10
3152 2778 mt 3161 2776 L
c8
3139 2796 mt 3123 2797 L
c9
3152 2791 mt 3136 2797 L
c11
3150 2967 mt 3162 2982 L
3149 3042 mt 3139 3053 L
3149 3032 mt 3149 3042 L
c8
3148 2792 mt 3146 2783 L
c10
3147 2759 mt 3181 2759 L
c8
3147 3234 mt 3193 3267 L
3146 2783 mt 3117 2779 L
c11
3146 2885 mt 3165 2903 L
c9
3146 2793 mt 3143 2784 L
3143 2784 mt 3114 2780 L
c8
3140 3525 mt 3118 3532 L
c11
3139 3053 mt 3113 3062 L
c9
3137 3236 mt 3184 3267 L
c11
3136 2992 mt 3163 2989 L
c9
3136 2797 mt 3121 2798 L
c8
3113 3530 mt 3121 3524 L
c9
3133 3523 mt 3111 3529 L
c8
3133 2794 mt 3148 2792 L
c9
3131 2795 mt 3146 2793 L
c11
3128 2862 mt 3146 2885 L
c8
3123 2797 mt 3133 2794 L
c9
3121 2798 mt 3131 2795 L
c8
3121 3524 mt 3121 3510 L
3121 3510 mt 3115 3493 L
c11
3118 1534 mt 3087 1547 L
c8
3118 3532 mt 3093 3526 L
c11
3118 3010 mt 3136 2992 L
c8
3117 2779 mt 3161 2769 L
c11
3116 3023 mt 3118 3010 L
c8
3115 3493 mt 3114 3474 L
c9
3114 2780 mt 3159 2770 L
c10
3114 1392 mt 3083 1412 L
c9
3114 3508 mt 3107 3491 L
c8
3114 3474 mt 3108 3464 L
c11
3113 3062 mt 3095 3067 L
c9
3112 3521 mt 3114 3508 L
c10
3112 3139 mt 3155 3170 L
c8
3093 3526 mt 3103 3526 L
c9
3095 3523 mt 3106 3528 L
c8
3103 3526 mt 3113 3530 L
c9
3106 3528 mt 3112 3521 L
3111 3529 mt 3086 3523 L
c8
3108 3464 mt 3097 3441 L
c9
3107 3491 mt 3106 3475 L
c10
3107 3341 mt 3095 3325 L
c9
3106 3475 mt 3100 3466 L
c11
3103 3032 mt 3116 3023 L
c8
3102 3197 mt 3147 3234 L
c11
3102 2825 mt 3096 2847 L
c9
3100 3466 mt 3089 3443 L
c8
3098 1360 mt 3064 1381 L
3097 3441 mt 3048 3380 L
c9
3096 1355 mt 3063 1376 L
c11
3096 2847 mt 3128 2862 L
c10
3095 3325 mt 3092 3313 L
c11
3095 3067 mt 3082 3067 L
c9
3094 3197 mt 3137 3236 L
c11
3092 3062 mt 3087 3056 L
c10
3009 3132 mt 3042 3119 L
3092 3313 mt 3008 3063 L
c11
3092 3037 mt 3103 3032 L
3090 3053 mt 3090 3056 L
3090 3056 mt 3092 3062 L
3089 3056 mt 3090 3053 L
c9
3089 3443 mt 3040 3382 L
c11
3087 3056 mt 3074 3054 L
3087 1547 mt 3052 1552 L
c9
3086 3523 mt 3095 3523 L
c10
3083 1412 mt 3047 1422 L
c11
3082 3067 mt 3074 3060 L
3082 3058 mt 3089 3056 L
3081 3057 mt 3079 3056 L
3081 3061 mt 3081 3057 L
3074 3054 mt 3078 3057 L
3079 3056 mt 3069 3052 L
3078 3057 mt 3081 3061 L
3074 3060 mt 3082 3058 L
3072 3043 mt 3092 3037 L
c10
3071 3109 mt 3112 3139 L
c11
3069 3052 mt 3072 3043 L
c8
3064 1381 mt 3026 1391 L
c9
3063 1376 mt 3025 1386 L
c8
3056 3166 mt 3102 3197 L
c11
3052 1552 mt 2986 1579 L
c8
3048 3380 mt 3038 3364 L
c9
3048 3167 mt 3094 3197 L
c10
3047 1422 mt 2966 1453 L
c11
3046 2791 mt 3102 2825 L
c10
3042 3119 mt 3071 3095 L
c9
3040 3382 mt 3028 3367 L
c10
3040 3073 mt 3071 3109 L
c8
3038 3364 mt 3037 3351 L
c9
2916 3178 mt 2962 3165 L
c8
2919 3177 mt 2965 3164 L
c10
2940 3181 mt 2941 3164 L
2948 3171 mt 2940 3182 L
c8
3037 3351 mt 2909 3108 L
c9
3028 3367 mt 3028 3354 L
c10
2914 3195 mt 2940 3181 L
c9
3028 3354 mt 2903 3110 L
c8
3026 1391 mt 2939 1423 L
c9
3025 1386 mt 2937 1418 L
c8
3016 3136 mt 3056 3166 L
c11
3015 2740 mt 3046 2791 L
c9
3008 3137 mt 3048 3167 L
c10
3008 3063 mt 2988 3064 L
c8
3001 3149 mt 3033 3123 L
c9
2998 3150 mt 3031 3124 L
c10
2992 3051 mt 3040 3073 L
2988 3064 mt 2987 3065 L
2987 3065 mt 2973 3073 L
c11
2986 1579 mt 2954 1599 L
c10
2985 3090 mt 2978 3109 L
c8
2983 3099 mt 3016 3136 L
c10
2978 3109 mt 2971 3119 L
c9
2976 3100 mt 3008 3137 L
c10
2973 3073 mt 2985 3090 L
c11
2973 2715 mt 3015 2740 L
c10
2971 3119 mt 2966 3135 L
2971 3024 mt 2992 3051 L
2968 3143 mt 3009 3132 L
2966 1453 mt 2922 1479 L
2966 3135 mt 2961 3143 L
c8
2965 3164 mt 3001 3149 L
c9
2962 3165 mt 2998 3150 L
c10
2961 3143 mt 2954 3155 L
c11
2960 2549 mt 2957 2558 L
2957 2558 mt 2946 2563 L
2955 2538 mt 2960 2549 L
c10
2954 3155 mt 2948 3171 L
c11
2954 1599 mt 2909 1615 L
2949 2668 mt 2973 2715 L
2946 2563 mt 2945 2582 L
2945 2582 mt 2942 2592 L
2942 2592 mt 2938 2609 L
c10
2941 3164 mt 2968 3143 L
2940 3182 mt 2928 3186 L
c11
2940 2523 mt 2955 2538 L
c8
2939 1423 mt 2891 1449 L
c11
2938 2609 mt 2936 2621 L
c8
2938 3076 mt 2983 3099 L
c9
2937 1418 mt 2888 1445 L
c11
2936 2621 mt 2928 2626 L
c10
2931 2997 mt 2971 3024 L
c9
2930 3077 mt 2976 3100 L
c10
2928 3186 mt 2915 3191 L
c11
2928 2626 mt 2921 2631 L
2926 2502 mt 2940 2523 L
2923 2483 mt 2921 2491 L
c10
2922 1479 mt 2872 1498 L
c11
2921 2491 mt 2926 2502 L
2921 2631 mt 2912 2645 L
c8
2916 3048 mt 2938 3076 L
c11
2916 2465 mt 2923 2483 L
c10
2915 3191 mt 2903 3194 L
c11
2912 2645 mt 2902 2662 L
c10
2912 2979 mt 2931 2997 L
c8
2909 3108 mt 2889 3112 L
c11
2909 1615 mt 2859 1624 L
c9
2909 3049 mt 2930 3077 L
c10
2903 3194 mt 2894 3191 L
c8
2889 3112 mt 2888 3113 L
c9
2903 3110 mt 2883 3113 L
c11
2903 2439 mt 2916 2465 L
c10
2903 2954 mt 2912 2979 L
c11
2902 2662 mt 2887 2673 L
2900 2418 mt 2903 2439 L
c10
2898 3203 mt 2914 3195 L
2894 3191 mt 2861 3219 L
c11
2894 2404 mt 2900 2418 L
2891 2624 mt 2949 2668 L
c8
2891 1449 mt 2838 1469 L
2889 3199 mt 2919 3177 L
c9
2888 1445 mt 2836 1465 L
c8
2888 3113 mt 2873 3124 L
c11
2887 2673 mt 2882 2686 L
c10
2886 3235 mt 2883 3230 L
c9
2886 3201 mt 2916 3178 L
c8
2885 3217 mt 2889 3199 L
2885 3142 mt 2874 3164 L
c10
2883 3230 mt 2865 3228 L
c9
2883 3113 mt 2881 3115 L
2882 3218 mt 2886 3201 L
c11
2882 2686 mt 2873 2702 L
c9
2881 3115 mt 2868 3125 L
c11
2881 2383 mt 2894 2404 L
c10
2879 3231 mt 2886 3235 L
c9
2878 3144 mt 2869 3165 L
c10
2877 2939 mt 2903 2954 L
c8
2874 3021 mt 2916 3048 L
2874 3164 mt 2865 3176 L
2873 3124 mt 2885 3142 L
c11
2873 2702 mt 2860 2717 L
c10
2873 3226 mt 2879 3231 L
2872 1498 mt 2813 1513 L
c11
2870 2374 mt 2881 2383 L
c10
2866 3233 mt 2867 3237 L
2869 3234 mt 2865 3234 L
c9
2869 3165 mt 2861 3177 L
2868 3125 mt 2878 3144 L
c10
2867 3237 mt 2869 3234 L
2867 2913 mt 2877 2939 L
c11
2866 2369 mt 2870 2374 L
c9
2866 3022 mt 2909 3049 L
c8
2865 3176 mt 2860 3192 L
c10
2865 3228 mt 2866 3233 L
c11
2865 2605 mt 2891 2624 L
c10
2865 3234 mt 2854 3230 L
2864 3224 mt 2873 3226 L
c11
2864 2521 mt 2860 2525 L
c10
2864 3217 mt 2898 3203 L
2861 3219 mt 2864 3224 L
c9
2861 3177 mt 2855 3194 L
c8
2860 3192 mt 2854 3201 L
c11
2860 2717 mt 2833 2730 L
2860 2525 mt 2854 2526 L
2860 2550 mt 2847 2559 L
2859 1624 mt 2794 1644 L
c8
2857 3232 mt 2885 3217 L
c11
2856 2510 mt 2864 2521 L
c9
2855 3194 mt 2849 3203 L
c8
2854 3201 mt 2845 3216 L
c10
2854 3230 mt 2864 3217 L
c11
2854 2526 mt 2853 2535 L
c9
2854 3234 mt 2882 3218 L
c11
2853 2535 mt 2860 2550 L
c8
2853 3002 mt 2874 3021 L
c11
2852 2508 mt 2856 2510 L
2852 2360 mt 2866 2369 L
2849 2588 mt 2865 2605 L
2849 2567 mt 2843 2580 L
c9
2849 3203 mt 2840 3218 L
c11
2847 2559 mt 2849 2567 L
2847 2503 mt 2852 2508 L
c9
2846 3003 mt 2866 3022 L
c8
2845 3216 mt 2837 3233 L
2844 2976 mt 2853 3002 L
c11
2835 2579 mt 2833 2578 L
2834 2578 mt 2836 2579 L
2836 2579 mt 2833 2579 L
2843 2580 mt 2831 2579 L
c8
2840 3241 mt 2857 3232 L
c9
2840 3218 mt 2832 3235 L
c8
2838 1469 mt 2776 1484 L
c9
2837 3243 mt 2854 3234 L
c8
2837 3233 mt 2828 3246 L
c9
2836 1465 mt 2777 1479 L
2836 2977 mt 2846 3003 L
c11
2835 2578 mt 2835 2579 L
2835 2579 mt 2835 2578 L
2829 2578 mt 2835 2578 L
2831 2577 mt 2832 2578 L
2831 2577 mt 2832 2578 L
2832 2578 mt 2831 2577 L
2832 2577 mt 2831 2578 L
2831 2577 mt 2832 2578 L
2832 2578 mt 2831 2577 L
2833 2578 mt 2834 2578 L
2834 2578 mt 2831 2578 L
2834 2578 mt 2833 2577 L
2835 2578 mt 2832 2578 L
2835 2578 mt 2834 2578 L
2835 2578 mt 2834 2578 L
2830 2578 mt 2833 2578 L
2831 2578 mt 2849 2588 L
2831 2578 mt 2834 2578 L
2832 2578 mt 2833 2577 L
2833 2578 mt 2832 2578 L
2832 2578 mt 2834 2578 L
2832 2578 mt 2833 2578 L
2833 2578 mt 2832 2578 L
2833 2578 mt 2830 2578 L
2834 2578 mt 2832 2578 L
2834 2578 mt 2833 2578 L
2834 2578 mt 2833 2578 L
2833 2577 mt 2834 2578 L
2833 2579 mt 2835 2579 L
2833 2578 mt 2835 2578 L
2833 2730 mt 2809 2743 L
2833 2577 mt 2833 2578 L
2833 2578 mt 2832 2578 L
2833 2578 mt 2835 2578 L
2832 2578 mt 2833 2578 L
c9
2832 3235 mt 2823 3247 L
c11
2832 2578 mt 2832 2577 L
2832 2577 mt 2832 2578 L
2832 2578 mt 2832 2577 L
2832 2578 mt 2831 2577 L
2832 2578 mt 2831 2577 L
2832 2578 mt 2831 2578 L
2832 2577 mt 2831 2577 L
2831 2577 mt 2831 2578 L
2831 2577 mt 2832 2578 L
2831 2578 mt 2832 2577 L
2831 2578 mt 2831 2577 L
2831 2579 mt 2829 2578 L
2831 2577 mt 2832 2578 L
2830 2338 mt 2852 2360 L
c8
2828 3246 mt 2820 3249 L
c10
2827 2876 mt 2867 2913 L
c8
2825 3276 mt 2822 3270 L
c11
2824 2503 mt 2847 2503 L
c9
2823 3247 mt 2815 3251 L
c8
2822 3270 mt 2802 3269 L
c9
2820 3278 mt 2818 3272 L
c8
2820 3249 mt 2804 3256 L
c9
2818 3272 mt 2799 3271 L
c8
2818 2961 mt 2844 2976 L
2817 3272 mt 2825 3276 L
c10
2816 2820 mt 2827 2876 L
c9
2815 3251 mt 2800 3257 L
2813 3274 mt 2820 3278 L
c10
2813 1513 mt 2741 1533 L
c8
2810 3267 mt 2817 3272 L
c11
2810 2513 mt 2824 2503 L
c9
2810 2962 mt 2836 2977 L
c11
2809 2743 mt 2807 2763 L
c10
2808 2589 mt 2803 2601 L
c8
2808 2933 mt 2818 2961 L
c11
2807 2763 mt 2799 2783 L
c8
2803 3275 mt 2804 3279 L
2806 3275 mt 2801 3275 L
c9
2806 3268 mt 2813 3274 L
c8
2804 3256 mt 2793 3260 L
2804 3279 mt 2806 3275 L
c10
2803 2601 mt 2791 2609 L
c9
2799 3277 mt 2800 3281 L
2802 3277 mt 2797 3277 L
c8
2802 3269 mt 2803 3275 L
2801 3265 mt 2810 3267 L
2801 3257 mt 2840 3241 L
c9
2799 3271 mt 2799 3277 L
c8
2801 3275 mt 2790 3271 L
c9
2800 3281 mt 2802 3277 L
c10
2800 2576 mt 2808 2589 L
c8
2793 3260 mt 2788 3257 L
c9
2800 3257 mt 2788 3262 L
c8
2800 3259 mt 2801 3265 L
c11
2799 2783 mt 2781 2791 L
c9
2798 2934 mt 2810 2962 L
2798 3259 mt 2837 3243 L
2797 3277 mt 2787 3273 L
2797 3267 mt 2806 3268 L
2795 3261 mt 2797 3267 L
c11
2794 1644 mt 2740 1653 L
2794 2313 mt 2830 2338 L
2793 2524 mt 2810 2513 L
c10
2791 2609 mt 2783 2631 L
c8
2790 3271 mt 2801 3257 L
c9
2788 3262 mt 2783 3259 L
c8
2788 3257 mt 2800 3259 L
c9
2787 3273 mt 2798 3259 L
c11
2786 2536 mt 2793 2524 L
c10
2785 2558 mt 2800 2576 L
2783 2631 mt 2777 2643 L
c9
2783 3259 mt 2795 3261 L
c11
2781 2791 mt 2758 2789 L
2778 2297 mt 2794 2313 L
c10
2777 2740 mt 2776 2794 L
2777 2643 mt 2771 2663 L
c9
2777 1479 mt 2703 1500 L
c8
2776 1484 mt 2703 1505 L
c10
2776 2794 mt 2816 2820 L
2773 2532 mt 2785 2558 L
2772 2509 mt 2770 2519 L
2771 2663 mt 2764 2678 L
2770 2519 mt 2773 2532 L
c11
2769 2546 mt 2786 2536 L
c10
2766 2488 mt 2772 2509 L
2764 2678 mt 2753 2686 L
c8
2762 2895 mt 2808 2933 L
c10
2758 2458 mt 2766 2488 L
c11
2758 2789 mt 2742 2786 L
2757 2285 mt 2778 2297 L
c10
2755 2433 mt 2758 2458 L
2753 2686 mt 2748 2693 L
c9
2753 2896 mt 2798 2934 L
c11
2751 2560 mt 2769 2546 L
c8
2748 2837 mt 2762 2895 L
c10
2748 2693 mt 2736 2711 L
2748 2415 mt 2755 2433 L
2744 2565 mt 2737 2569 L
c8
2743 2598 mt 2738 2610 L
c11
2742 2786 mt 2719 2786 L
c10
2741 1533 mt 2682 1542 L
c11
2741 2576 mt 2751 2560 L
c9
2740 2837 mt 2753 2896 L
c11
2740 1653 mt 2698 1657 L
c8
2738 2610 mt 2726 2618 L
c10
2737 2569 mt 2730 2572 L
2737 2392 mt 2748 2415 L
c9
2736 2598 mt 2731 2610 L
c10
2736 2711 mt 2720 2734 L
2736 2551 mt 2744 2565 L
c11
2734 2593 mt 2741 2576 L
c8
2734 2585 mt 2743 2598 L
c11
2733 2272 mt 2757 2285 L
2730 2606 mt 2734 2593 L
c10
2732 2600 mt 2713 2611 L
c9
2731 2610 mt 2720 2618 L
c10
2730 2548 mt 2736 2551 L
2730 2572 mt 2728 2583 L
2728 2583 mt 2732 2600 L
c9
2728 2584 mt 2736 2598 L
c10
2726 2544 mt 2730 2548 L
2726 2689 mt 2777 2740 L
c8
2726 2618 mt 2717 2641 L
c10
2723 2382 mt 2737 2392 L
2720 2734 mt 2706 2748 L
c9
2720 2618 mt 2711 2641 L
c10
2719 2376 mt 2723 2382 L
c11
2719 2786 mt 2700 2771 L
c8
2717 2641 mt 2711 2653 L
2716 2567 mt 2734 2585 L
c10
2713 2611 mt 2712 2620 L
2712 2620 mt 2700 2637 L
2707 2667 mt 2726 2689 L
c8
2711 2653 mt 2704 2675 L
2711 2754 mt 2707 2810 L
c9
2711 2641 mt 2705 2653 L
c11
2710 2612 mt 2730 2606 L
c9
2710 2566 mt 2728 2584 L
c11
2708 2246 mt 2733 2272 L
c8
2707 2810 mt 2748 2837 L
2706 2541 mt 2716 2567 L
c10
2706 2748 mt 2696 2764 L
c9
2705 2653 mt 2697 2675 L
c8
2704 2516 mt 2701 2526 L
c10
2704 2645 mt 2707 2667 L
c8
2704 2675 mt 2696 2690 L
c10
2704 2366 mt 2719 2376 L
c9
2704 2754 mt 2700 2810 L
2703 1500 mt 2641 1509 L
c8
2703 1505 mt 2641 1514 L
2701 2526 mt 2706 2541 L
c11
2700 2771 mt 2657 2751 L
2685 2655 mt 2694 2634 L
c10
2685 2635 mt 2704 2645 L
2700 2637 mt 2685 2637 L
c9
2700 2810 mt 2740 2837 L
2699 2540 mt 2710 2566 L
c11
2698 1657 mt 2655 1675 L
2698 2222 mt 2692 2233 L
c9
2697 2515 mt 2695 2526 L
2697 2675 mt 2689 2690 L
c8
2697 2494 mt 2704 2516 L
c10
2697 2545 mt 2726 2544 L
c8
2696 2690 mt 2685 2698 L
c10
2696 2764 mt 2683 2786 L
c11
2696 2619 mt 2710 2612 L
c9
2695 2526 mt 2699 2540 L
c8
2695 2576 mt 2686 2581 L
c11
2694 2634 mt 2694 2624 L
2694 2624 mt 2696 2619 L
c10
2692 2636 mt 2688 2636 L
c11
2692 2233 mt 2708 2246 L
c10
2688 2635 mt 2690 2634 L
2691 2634 mt 2688 2635 L
c11
2691 2216 mt 2698 2222 L
c9
2691 2493 mt 2697 2515 L
c8
2691 2463 mt 2697 2494 L
c10
2691 2635 mt 2690 2635 L
2690 2635 mt 2689 2635 L
2690 2634 mt 2689 2634 L
2690 2635 mt 2689 2635 L
2690 2635 mt 2688 2636 L
2690 2635 mt 2689 2635 L
2689 2635 mt 2690 2635 L
2688 2635 mt 2688 2634 L
2689 2634 mt 2687 2635 L
2689 2635 mt 2692 2636 L
2689 2635 mt 2688 2635 L
2689 2635 mt 2688 2635 L
2687 2635 mt 2685 2635 L
2688 2635 mt 2689 2634 L
2688 2635 mt 2689 2635 L
2689 2635 mt 2686 2635 L
2689 2635 mt 2685 2635 L
c9
2689 2690 mt 2679 2698 L
c10
2689 2634 mt 2689 2635 L
2689 2636 mt 2688 2635 L
2688 2636 mt 2691 2635 L
c8
2688 2438 mt 2691 2463 L
c10
2688 2635 mt 2689 2636 L
2688 2635 mt 2690 2635 L
2688 2635 mt 2687 2634 L
2688 2634 mt 2688 2635 L
2688 2636 mt 2690 2635 L
2688 2635 mt 2687 2634 L
2687 2634 mt 2688 2635 L
2687 2634 mt 2687 2635 L
2687 2635 mt 2688 2635 L
c8
2687 2562 mt 2695 2576 L
c9
2687 2576 mt 2679 2581 L
c10
2687 2635 mt 2687 2634 L
2687 2634 mt 2687 2635 L
c8
2686 2581 mt 2681 2583 L
c10
2686 2635 mt 2689 2635 L
2685 2635 mt 2688 2635 L
c9
2685 2461 mt 2691 2493 L
c10
2685 2637 mt 2684 2635 L
c8
2685 2698 mt 2682 2706 L
c10
2684 2635 mt 2691 2634 L
2683 2786 mt 2661 2805 L
2682 1542 mt 2643 1548 L
c8
2682 2706 mt 2668 2724 L
c10
2682 2342 mt 2704 2366 L
c9
2682 2437 mt 2685 2461 L
c11
2681 2213 mt 2691 2216 L
c8
2681 2583 mt 2677 2595 L
2681 2558 mt 2687 2562 L
2680 2419 mt 2688 2438 L
c9
2680 2562 mt 2687 2576 L
c10
2679 2556 mt 2697 2545 L
c9
2679 2581 mt 2674 2583 L
2679 2698 mt 2675 2706 L
c11
2678 2206 mt 2681 2213 L
c8
2678 2613 mt 2657 2624 L
2677 2595 mt 2678 2613 L
2676 2554 mt 2681 2558 L
c9
2675 2706 mt 2662 2724 L
2674 2418 mt 2682 2437 L
2674 2583 mt 2670 2595 L
2673 2559 mt 2680 2562 L
c8
2672 2395 mt 2680 2419 L
c9
2670 2613 mt 2650 2624 L
2670 2595 mt 2670 2613 L
2668 2554 mt 2673 2559 L
c11
2657 2751 mt 2639 2723 L
c8
2668 2724 mt 2651 2747 L
c11
2667 2664 mt 2685 2655 L
c9
2664 2394 mt 2674 2418 L
2662 2724 mt 2644 2747 L
c10
2661 2805 mt 2629 2823 L
c8
2659 2703 mt 2711 2754 L
2657 2385 mt 2672 2395 L
2657 2624 mt 2654 2633 L
c10
2656 2571 mt 2679 2556 L
c11
2655 1675 mt 2599 1696 L
2654 2198 mt 2678 2206 L
c8
2654 2633 mt 2640 2650 L
2653 2379 mt 2657 2385 L
c9
2653 2703 mt 2704 2754 L
c11
2652 2678 mt 2667 2664 L
c8
2651 2747 mt 2637 2762 L
c9
2651 2383 mt 2664 2394 L
c11
2651 2694 mt 2652 2678 L
c9
2650 2624 mt 2647 2634 L
2647 2634 mt 2633 2650 L
2645 2378 mt 2651 2383 L
c10
2644 2587 mt 2656 2571 L
c9
2644 2747 mt 2630 2762 L
c10
2643 1548 mt 2600 1565 L
c8
2643 2555 mt 2676 2554 L
c10
2642 2315 mt 2682 2342 L
c8
2642 2658 mt 2641 2680 L
2641 2680 mt 2659 2703 L
c9
2641 1509 mt 2603 1515 L
c8
2641 1514 mt 2601 1520 L
2626 2649 mt 2629 2649 L
c9
2618 2648 mt 2635 2659 L
2633 2650 mt 2617 2650 L
c8
2625 2648 mt 2642 2658 L
2628 2649 mt 2631 2650 L
2631 2650 mt 2627 2650 L
2640 2650 mt 2624 2650 L
c11
2639 2723 mt 2632 2719 L
c8
2637 2368 mt 2653 2379 L
2637 2762 mt 2627 2779 L
c9
2636 2555 mt 2668 2554 L
2635 2659 mt 2634 2680 L
c11
2635 2702 mt 2651 2694 L
c9
2634 2680 mt 2653 2703 L
c11
2622 2720 mt 2624 2709 L
2632 2719 mt 2621 2711 L
2632 2185 mt 2654 2198 L
c8
2628 2649 mt 2630 2648 L
2629 2648 mt 2628 2648 L
2630 2648 mt 2629 2648 L
2631 2647 mt 2628 2648 L
c9
2630 2762 mt 2620 2779 L
2630 2367 mt 2645 2378 L
c8
2629 2649 mt 2629 2648 L
c10
2629 2823 mt 2599 2841 L
c8
2629 2648 mt 2627 2649 L
2626 2648 mt 2627 2649 L
2628 2648 mt 2626 2648 L
2627 2649 mt 2628 2648 L
2628 2649 mt 2627 2648 L
2628 2648 mt 2627 2649 L
2628 2648 mt 2629 2648 L
2629 2649 mt 2625 2648 L
2628 2648 mt 2629 2649 L
2627 2649 mt 2625 2648 L
2629 2649 mt 2624 2648 L
2629 2648 mt 2628 2649 L
2629 2648 mt 2628 2648 L
2629 2649 mt 2628 2649 L
2629 2649 mt 2628 2649 L
2628 2648 mt 2629 2649 L
2628 2649 mt 2627 2649 L
2628 2649 mt 2629 2649 L
2628 2649 mt 2629 2648 L
2628 2648 mt 2627 2648 L
2627 2648 mt 2628 2648 L
2627 2649 mt 2628 2649 L
2627 2649 mt 2628 2649 L
2627 2648 mt 2628 2648 L
2627 2779 mt 2615 2801 L
2627 2650 mt 2629 2649 L
2627 2649 mt 2627 2649 L
2627 2648 mt 2626 2648 L
2627 2648 mt 2626 2648 L
2626 2648 mt 2627 2648 L
2626 2648 mt 2627 2648 L
c10
2626 2601 mt 2644 2587 L
c8
2624 2648 mt 2628 2649 L
2625 2648 mt 2626 2649 L
c10
2624 2296 mt 2642 2315 L
c8
2624 2650 mt 2623 2649 L
c9
2624 2650 mt 2620 2650 L
2624 2647 mt 2620 2649 L
c11
2624 2709 mt 2635 2702 L
c9
2623 2649 mt 2622 2649 L
c8
2623 2649 mt 2631 2647 L
c9
2622 2648 mt 2621 2648 L
c8
2622 2568 mt 2643 2555 L
c9
2621 2649 mt 2620 2649 L
2622 2649 mt 2620 2649 L
2622 2649 mt 2621 2649 L
2622 2649 mt 2621 2649 L
2622 2649 mt 2621 2648 L
2622 2649 mt 2620 2649 L
2621 2649 mt 2622 2649 L
2621 2649 mt 2624 2650 L
2621 2649 mt 2620 2648 L
2621 2648 mt 2620 2649 L
2618 2648 mt 2622 2649 L
2619 2649 mt 2618 2648 L
2619 2648 mt 2620 2649 L
2620 2649 mt 2621 2648 L
2620 2649 mt 2622 2648 L
2621 2649 mt 2618 2648 L
2621 2649 mt 2617 2648 L
2621 2648 mt 2620 2648 L
2621 2648 mt 2621 2649 L
c11
2615 2710 mt 2615 2719 L
2621 2711 mt 2615 2713 L
c9
2620 2649 mt 2621 2649 L
2620 2648 mt 2621 2649 L
2620 2649 mt 2623 2649 L
2620 2779 mt 2609 2802 L
2620 2649 mt 2620 2648 L
2620 2648 mt 2619 2648 L
2620 2648 mt 2620 2649 L
2620 2649 mt 2622 2649 L
2620 2650 mt 2622 2649 L
2620 2649 mt 2621 2649 L
2620 2648 mt 2619 2648 L
2620 2648 mt 2620 2648 L
2620 2649 mt 2619 2649 L
2620 2648 mt 2619 2648 L
2620 2648 mt 2619 2648 L
2619 2648 mt 2620 2648 L
2619 2648 mt 2620 2648 L
2619 2648 mt 2620 2648 L
c8
2618 2343 mt 2637 2368 L
c9
2617 2648 mt 2620 2649 L
2617 2650 mt 2616 2649 L
2616 2649 mt 2624 2647 L
c8
2615 2801 mt 2591 2822 L
c11
2615 2719 mt 2609 2718 L
c9
2615 2568 mt 2636 2555 L
c11
2615 2713 mt 2613 2714 L
2613 2714 mt 2615 2710 L
2611 2165 mt 2632 2185 L
c9
2610 2342 mt 2630 2367 L
c11
2609 2718 mt 2622 2720 L
c9
2609 2802 mt 2585 2822 L
2603 1515 mt 2555 1533 L
c10
2602 2283 mt 2624 2296 L
c8
2601 1520 mt 2554 1538 L
c10
2600 1565 mt 2537 1590 L
c11
2599 1696 mt 2530 1711 L
c10
2599 2619 mt 2626 2601 L
2599 2841 mt 2592 2866 L
c8
2598 2583 mt 2622 2568 L
c11
2596 2152 mt 2611 2165 L
c10
2592 2866 mt 2575 2892 L
c8
2591 2822 mt 2556 2841 L
c9
2590 2584 mt 2615 2568 L
2585 2822 mt 2550 2841 L
c8
2584 2599 mt 2598 2583 L
c10
2582 2639 mt 2599 2619 L
c8
2579 2315 mt 2618 2343 L
c9
2576 2600 mt 2590 2584 L
c10
2575 2269 mt 2602 2283 L
2575 2892 mt 2552 2901 L
c11
2575 2137 mt 2596 2152 L
c9
2572 2314 mt 2610 2342 L
c10
2571 2662 mt 2582 2639 L
c8
2563 2613 mt 2584 2599 L
c10
2563 2678 mt 2571 2662 L
c8
2563 2296 mt 2579 2315 L
2556 2841 mt 2525 2859 L
c9
2556 2614 mt 2576 2600 L
2555 1533 mt 2491 1559 L
c8
2554 1538 mt 2490 1564 L
c9
2553 2295 mt 2572 2314 L
c10
2552 2901 mt 2524 2902 L
c9
2550 2841 mt 2518 2860 L
c10
2547 2240 mt 2575 2269 L
c8
2541 2283 mt 2563 2296 L
c10
2540 2687 mt 2563 2678 L
2537 1590 mt 2458 1611 L
c11
2533 2109 mt 2575 2137 L
c8
2533 2633 mt 2563 2613 L
c9
2533 2282 mt 2553 2295 L
c11
2530 1711 mt 2478 1731 L
c10
2529 2212 mt 2526 2225 L
c9
2526 2633 mt 2556 2614 L
c10
2526 2225 mt 2547 2240 L
c8
2525 2859 mt 2516 2885 L
c10
2524 2902 mt 2509 2899 L
2523 2695 mt 2540 2687 L
2518 2703 mt 2523 2695 L
c9
2518 2860 mt 2511 2886 L
c10
2518 2204 mt 2529 2212 L
2516 2715 mt 2518 2703 L
2509 2899 mt 2486 2899 L
c8
2516 2885 mt 2500 2913 L
2514 2653 mt 2533 2633 L
2512 2268 mt 2541 2283 L
c9
2511 2886 mt 2495 2913 L
2507 2654 mt 2526 2633 L
2505 2266 mt 2533 2282 L
c10
2504 2742 mt 2516 2715 L
2503 2199 mt 2518 2204 L
c8
2503 2676 mt 2514 2653 L
c11
2502 1873 mt 2491 1889 L
c8
2500 2913 mt 2478 2922 L
c11
2500 1826 mt 2500 1854 L
2500 1854 mt 2502 1873 L
c10
2498 2191 mt 2503 2199 L
c9
2495 2677 mt 2507 2654 L
c8
2478 2922 mt 2446 2924 L
c9
2495 2913 mt 2471 2923 L
c11
2494 2080 mt 2533 2109 L
c8
2494 2693 mt 2503 2676 L
c11
2491 1889 mt 2474 1906 L
c9
2491 1559 mt 2408 1581 L
c8
2490 1564 mt 2407 1586 L
c11
2489 1805 mt 2500 1826 L
c9
2487 2693 mt 2495 2677 L
c8
2487 2238 mt 2512 2268 L
c10
2486 2899 mt 2473 2882 L
2485 2755 mt 2504 2742 L
c9
2479 2237 mt 2505 2266 L
c11
2478 1731 mt 2456 1756 L
2474 1906 mt 2461 1920 L
c10
2473 2882 mt 2442 2859 L
c9
2471 2923 mt 2441 2924 L
c10
2470 2182 mt 2498 2191 L
c8
2470 2703 mt 2494 2693 L
c11
2469 1781 mt 2489 1805 L
c8
2465 2223 mt 2487 2238 L
2464 2209 mt 2465 2223 L
c11
2464 2060 mt 2494 2080 L
c9
2463 2703 mt 2487 2693 L
c11
2461 1920 mt 2428 1929 L
c10
2460 2772 mt 2485 2755 L
2458 1611 mt 2401 1636 L
2458 2793 mt 2460 2772 L
c9
2457 2221 mt 2479 2237 L
2456 2208 mt 2457 2221 L
c11
2456 1756 mt 2469 1781 L
c8
2451 2712 mt 2470 2703 L
2450 2201 mt 2464 2209 L
c11
2446 2034 mt 2464 2060 L
c8
2446 2924 mt 2430 2921 L
2445 2719 mt 2451 2712 L
2444 2731 mt 2445 2719 L
c9
2444 2712 mt 2463 2703 L
c10
2443 2803 mt 2458 2793 L
c9
2442 2200 mt 2456 2208 L
c10
2442 2859 mt 2433 2827 L
c9
2441 2924 mt 2424 2921 L
c10
2441 2168 mt 2470 2182 L
c9
2439 2720 mt 2444 2712 L
2437 2732 mt 2439 2720 L
c10
2433 2827 mt 2428 2823 L
c8
2431 2197 mt 2450 2201 L
2431 2759 mt 2444 2731 L
2430 2921 mt 2406 2921 L
c10
2423 2828 mt 2423 2812 L
2428 2823 mt 2419 2817 L
c11
2428 1929 mt 2414 1937 L
c9
2424 2921 mt 2401 2922 L
c8
2424 2189 mt 2431 2197 L
c9
2424 2760 mt 2437 2732 L
c10
2423 2812 mt 2443 2803 L
c9
2423 2196 mt 2442 2200 L
c10
2419 2146 mt 2441 2168 L
2415 2817 mt 2415 2826 L
2419 2817 mt 2413 2821 L
c9
2416 2187 mt 2423 2196 L
c10
2415 2826 mt 2409 2826 L
c11
2414 1937 mt 2414 1954 L
2414 1954 mt 2397 1959 L
c10
2413 2821 mt 2410 2822 L
c8
2410 2774 mt 2431 2759 L
c10
2410 2822 mt 2415 2817 L
2409 2826 mt 2423 2828 L
c9
2408 1581 mt 2346 1606 L
c8
2407 1586 mt 2347 1611 L
2406 2921 mt 2391 2905 L
c9
2404 2774 mt 2424 2760 L
c10
2404 2132 mt 2419 2146 L
c9
2401 2922 mt 2386 2906 L
c10
2401 1636 mt 2367 1667 L
c11
2397 1959 mt 2368 1960 L
2396 2004 mt 2446 2034 L
c8
2393 2180 mt 2424 2189 L
2391 2905 mt 2358 2882 L
c9
2386 2906 mt 2352 2883 L
2386 2178 mt 2416 2187 L
c8
2384 2792 mt 2410 2774 L
2381 2814 mt 2384 2792 L
c10
2380 2116 mt 2404 2132 L
c9
2379 2792 mt 2404 2774 L
2375 2815 mt 2379 2792 L
c11
2368 1960 mt 2364 1974 L
c10
2367 1667 mt 2360 1701 L
c8
2366 2825 mt 2381 2814 L
c10
2365 1732 mt 2363 1760 L
c11
2364 1974 mt 2396 2004 L
c10
2363 1760 mt 2349 1793 L
c8
2362 2165 mt 2393 2180 L
c9
2361 2825 mt 2375 2815 L
c10
2360 1701 mt 2365 1732 L
c8
2358 2882 mt 2351 2850 L
c9
2355 2164 mt 2386 2178 L
2352 2883 mt 2346 2851 L
c8
2351 2850 mt 2348 2845 L
c10
2349 1793 mt 2344 1815 L
c8
2345 2851 mt 2347 2834 L
2348 2845 mt 2341 2840 L
2347 2834 mt 2366 2825 L
2347 1611 mt 2312 1644 L
c9
2346 1606 mt 2311 1639 L
2346 2851 mt 2342 2846 L
c10
2344 1815 mt 2335 1831 L
c8
2343 2143 mt 2362 2165 L
2337 2840 mt 2337 2850 L
c9
2339 2852 mt 2340 2835 L
c8
2341 2840 mt 2336 2844 L
c9
2342 2846 mt 2335 2841 L
c10
2340 2086 mt 2380 2116 L
c9
2340 2835 mt 2361 2825 L
c8
2337 2850 mt 2331 2850 L
2336 2844 mt 2332 2845 L
c9
2336 2141 mt 2355 2164 L
2331 2841 mt 2330 2851 L
2335 2841 mt 2330 2845 L
c10
2335 1831 mt 2317 1852 L
c8
2332 2845 mt 2337 2840 L
2331 2850 mt 2345 2851 L
c9
2330 2845 mt 2327 2846 L
2330 2851 mt 2325 2850 L
2327 2846 mt 2331 2841 L
c8
2326 2129 mt 2343 2143 L
c9
2325 2850 mt 2339 2852 L
2320 2127 mt 2336 2141 L
c10
2317 1852 mt 2296 1868 L
c8
2312 1644 mt 2302 1680 L
c9
2311 1639 mt 2302 1674 L
c8
2303 2112 mt 2326 2129 L
2303 1711 mt 2299 1741 L
2302 1680 mt 2303 1711 L
c9
2302 1674 mt 2302 1706 L
2302 1706 mt 2300 1735 L
c10
2302 2053 mt 2340 2086 L
c9
2300 1735 mt 2282 1769 L
c8
2299 1741 mt 2282 1774 L
c9
2297 2110 mt 2320 2127 L
c10
2296 1868 mt 2262 1879 L
c9
2282 1769 mt 2276 1793 L
c8
2282 1774 mt 2276 1798 L
2276 1798 mt 2269 1814 L
c9
2276 1793 mt 2268 1810 L
c10
2270 2031 mt 2302 2053 L
c8
2269 1814 mt 2253 1835 L
c9
2268 1810 mt 2250 1831 L
c8
2263 2081 mt 2303 2112 L
c10
2262 1879 mt 2249 1890 L
2258 2003 mt 2270 2031 L
c9
2257 2079 mt 2297 2110 L
c8
2253 1835 mt 2230 1853 L
c9
2250 1831 mt 2227 1849 L
c10
2249 1890 mt 2238 1910 L
2238 1910 mt 2224 1917 L
c8
2230 1853 mt 2197 1863 L
c9
2227 1849 mt 2193 1860 L
c8
2227 2047 mt 2263 2081 L
c10
2224 1917 mt 2198 1919 L
c9
2221 2045 mt 2257 2079 L
c10
2214 1970 mt 2258 2003 L
2198 1919 mt 2191 1936 L
c8
2197 1863 mt 2188 1874 L
2195 2023 mt 2227 2047 L
c9
2193 1860 mt 2182 1872 L
c10
2191 1936 mt 2214 1970 L
c9
2189 2021 mt 2221 2045 L
c8
2188 1994 mt 2195 2023 L
2188 1874 mt 2170 1897 L
c9
2184 1992 mt 2189 2021 L
2182 1872 mt 2167 1893 L
c8
2170 1897 mt 2158 1904 L
c9
2167 1893 mt 2154 1901 L
c8
2158 1904 mt 2136 1906 L
c9
2154 1901 mt 2130 1903 L
c8
2148 1960 mt 2188 1994 L
c9
2144 1957 mt 2184 1992 L
c8
2136 1906 mt 2125 1924 L
c9
2130 1903 mt 2120 1921 L
c8
2125 1924 mt 2148 1960 L
c9
2120 1921 mt 2144 1957 L
gr

c9
0 sg
1886 4678 mt 
(Y) s
 855 4522 mt 
( ) s
 557 2345 mt  -90 rotate
(Z) s
90 rotate
6 w
1 sg
0 737 1607 0 0 -737 4329 3152 4 MP
PP
-1607 0 0 737 1607 0 0 -737 4329 3152 5 MP stroke
4 w
DO
SO
6 w
0 sg
4329 3152 mt 5936 3152 L
4329 2415 mt 5936 2415 L
4329 3152 mt 4329 2415 L
5936 3152 mt 5936 2415 L
4329 3152 mt 5936 3152 L
4329 3152 mt 4329 2415 L
4329 3152 mt 5936 3152 L
4329 2415 mt 5936 2415 L
4329 3152 mt 4329 2415 L
5936 3152 mt 5936 2415 L
4798 2565 mt 
(Ground truth) s
gs 4329 2415 1608 738 rc
12 w
c9
360 0 4401 2522 2 MP stroke
gr

12 w
c9
0 sg
4798 2739 mt 
(White noise std = 0) s
gs 4329 2415 1608 738 rc
c8
360 0 4401 2696 2 MP stroke
gr

c8
0 sg
4798 2913 mt 
(White noise std = 1) s
gs 4329 2415 1608 738 rc
c10
360 0 4401 2870 2 MP stroke
gr

c10
0 sg
4798 3087 mt 
(White noise std = 3) s
gs 4329 2415 1608 738 rc
c11
360 0 4401 3044 2 MP stroke
6 w
gr

6 w
c11
0 sg
3479 2490 mt 
(Start) s

end %%Color Dict

eplot
%%EndObject

epage
end

showpage

%%Trailer
%%EOF
