%!PS-Adobe-3.0 EPSF-3.0
%%Creator: MATLAB, The MathWorks, Inc. Version 8.1.0.604 (R2013a). Operating System: Darwin 12.5.0 Darwin Kernel Version 12.5.0: Sun Sep 29 13:33:47 PDT 2013; root:xnu-2050.48.12~1/RELEASE_X86_64 x86_64.
%%Title: /Users/Pinglin/Imperial College London/Publication/IPCAI/2014/exp1/x_error_plot.eps
%%CreationDate: 11/22/2013  04:07:15
%%DocumentNeededFonts: Helvetica
%%DocumentProcessColors: Cyan Magenta Yellow Black
%%LanguageLevel: 2
%%Pages: 1
%%BoundingBox:    26   186   585   606
%%EndComments

%%BeginProlog
% MathWorks dictionary
/MathWorks 160 dict begin
% definition operators
/bdef {bind def} bind def
/ldef {load def} bind def
/xdef {exch def} bdef
/xstore {exch store} bdef
% operator abbreviations
/c  /clip ldef
/cc /concat ldef
/cp /closepath ldef
/gr /grestore ldef
/gs /gsave ldef
/mt /moveto ldef
/np /newpath ldef
/cm /currentmatrix ldef
/sm /setmatrix ldef
/rm /rmoveto ldef
/rl /rlineto ldef
/s {show newpath} bdef
/sc {setcmykcolor} bdef
/sr /setrgbcolor ldef
/sg /setgray ldef
/w /setlinewidth ldef
/j /setlinejoin ldef
/cap /setlinecap ldef
/rc {rectclip} bdef
/rf {rectfill} bdef
% page state control
/pgsv () def
/bpage {/pgsv save def} bdef
/epage {pgsv restore} bdef
/bplot /gsave ldef
/eplot {stroke grestore} bdef
% orientation switch
/portraitMode 0 def /landscapeMode 1 def /rotateMode 2 def
% coordinate system mappings
/dpi2point 0 def
% font control
/FontSize 0 def
/FMS {/FontSize xstore findfont [FontSize 0 0 FontSize neg 0 0]
  makefont setfont} bdef
/reencode {exch dup where {pop load} {pop StandardEncoding} ifelse
  exch dup 3 1 roll findfont dup length dict begin
  { 1 index /FID ne {def}{pop pop} ifelse } forall
  /Encoding exch def currentdict end definefont pop} bdef
/isroman {findfont /CharStrings get /Agrave known} bdef
/FMSR {3 1 roll 1 index dup isroman {reencode} {pop pop} ifelse
  exch FMS} bdef
/csm {1 dpi2point div -1 dpi2point div scale neg translate
 dup landscapeMode eq {pop -90 rotate}
  {rotateMode eq {90 rotate} if} ifelse} bdef
% line types: solid, dotted, dashed, dotdash
/SO { [] 0 setdash } bdef
/DO { [.5 dpi2point mul 4 dpi2point mul] 0 setdash } bdef
/DA { [6 dpi2point mul] 0 setdash } bdef
/DD { [.5 dpi2point mul 4 dpi2point mul 6 dpi2point mul 4
  dpi2point mul] 0 setdash } bdef
% macros for lines and objects
/L {lineto stroke} bdef
/MP {3 1 roll moveto 1 sub {rlineto} repeat} bdef
/AP {{rlineto} repeat} bdef
/PDlw -1 def
/W {/PDlw currentlinewidth def setlinewidth} def
/PP {closepath eofill} bdef
/DP {closepath stroke} bdef
/MR {4 -2 roll moveto dup  0 exch rlineto exch 0 rlineto
  neg 0 exch rlineto closepath} bdef
/FR {MR stroke} bdef
/PR {MR fill} bdef
/L1i {{currentfile picstr readhexstring pop} image} bdef
/tMatrix matrix def
/MakeOval {newpath tMatrix currentmatrix pop translate scale
0 0 1 0 360 arc tMatrix setmatrix} bdef
/FO {MakeOval stroke} bdef
/PO {MakeOval fill} bdef
/PD {currentlinewidth 2 div 0 360 arc fill
   PDlw -1 eq not {PDlw w /PDlw -1 def} if} def
/FA {newpath tMatrix currentmatrix pop translate scale
  0 0 1 5 -2 roll arc tMatrix setmatrix stroke} bdef
/PA {newpath tMatrix currentmatrix pop	translate 0 0 moveto scale
  0 0 1 5 -2 roll arc closepath tMatrix setmatrix fill} bdef
/FAn {newpath tMatrix currentmatrix pop translate scale
  0 0 1 5 -2 roll arcn tMatrix setmatrix stroke} bdef
/PAn {newpath tMatrix currentmatrix pop translate 0 0 moveto scale
  0 0 1 5 -2 roll arcn closepath tMatrix setmatrix fill} bdef
/vradius 0 def /hradius 0 def /lry 0 def
/lrx 0 def /uly 0 def /ulx 0 def /rad 0 def
/MRR {/vradius xdef /hradius xdef /lry xdef /lrx xdef /uly xdef
  /ulx xdef newpath tMatrix currentmatrix pop ulx hradius add uly
  vradius add translate hradius vradius scale 0 0 1 180 270 arc 
  tMatrix setmatrix lrx hradius sub uly vradius add translate
  hradius vradius scale 0 0 1 270 360 arc tMatrix setmatrix
  lrx hradius sub lry vradius sub translate hradius vradius scale
  0 0 1 0 90 arc tMatrix setmatrix ulx hradius add lry vradius sub
  translate hradius vradius scale 0 0 1 90 180 arc tMatrix setmatrix
  closepath} bdef
/FRR {MRR stroke } bdef
/PRR {MRR fill } bdef
/MlrRR {/lry xdef /lrx xdef /uly xdef /ulx xdef /rad lry uly sub 2 div def
  newpath tMatrix currentmatrix pop ulx rad add uly rad add translate
  rad rad scale 0 0 1 90 270 arc tMatrix setmatrix lrx rad sub lry rad
  sub translate rad rad scale 0 0 1 270 90 arc tMatrix setmatrix
  closepath} bdef
/FlrRR {MlrRR stroke } bdef
/PlrRR {MlrRR fill } bdef
/MtbRR {/lry xdef /lrx xdef /uly xdef /ulx xdef /rad lrx ulx sub 2 div def
  newpath tMatrix currentmatrix pop ulx rad add uly rad add translate
  rad rad scale 0 0 1 180 360 arc tMatrix setmatrix lrx rad sub lry rad
  sub translate rad rad scale 0 0 1 0 180 arc tMatrix setmatrix
  closepath} bdef
/FtbRR {MtbRR stroke } bdef
/PtbRR {MtbRR fill } bdef
/stri 6 array def /dtri 6 array def
/smat 6 array def /dmat 6 array def
/tmat1 6 array def /tmat2 6 array def /dif 3 array def
/asub {/ind2 exch def /ind1 exch def dup dup
  ind1 get exch ind2 get sub exch } bdef
/tri_to_matrix {
  2 0 asub 3 1 asub 4 0 asub 5 1 asub
  dup 0 get exch 1 get 7 -1 roll astore } bdef
/compute_transform {
  dmat dtri tri_to_matrix tmat1 invertmatrix 
  smat stri tri_to_matrix tmat2 concatmatrix } bdef
/ds {stri astore pop} bdef
/dt {dtri astore pop} bdef
/db {2 copy /cols xdef /rows xdef mul dup 3 mul string
  currentfile 
  3 index 0 eq {/ASCIIHexDecode filter}
  {/ASCII85Decode filter 3 index 2 eq {/RunLengthDecode filter} if }
  ifelse exch readstring pop
  dup 0 3 index getinterval /rbmap xdef
  dup 2 index dup getinterval /gbmap xdef
  1 index dup 2 mul exch getinterval /bbmap xdef pop pop}bdef
/it {gs np dtri aload pop moveto lineto lineto cp c
  cols rows 8 compute_transform 
  rbmap gbmap bbmap true 3 colorimage gr}bdef
/il {newpath moveto lineto stroke}bdef
currentdict end def
%%EndProlog

%%BeginSetup
MathWorks begin

0 cap

end
%%EndSetup

%%Page: 1 1
%%BeginPageSetup
%%PageBoundingBox:    26   186   585   606
MathWorks begin
bpage
%%EndPageSetup

%%BeginObject: obj1
bplot

/dpi2point 12 def
portraitMode 0312 7272 csm

    0     0  6719  5033 rc
87 dict begin %Colortable dictionary
/c0 { 0.000000 0.000000 0.000000 sr} bdef
/c1 { 1.000000 1.000000 1.000000 sr} bdef
/c2 { 0.900000 0.000000 0.000000 sr} bdef
/c3 { 0.000000 0.820000 0.000000 sr} bdef
/c4 { 0.000000 0.000000 0.800000 sr} bdef
/c5 { 0.910000 0.820000 0.320000 sr} bdef
/c6 { 1.000000 0.260000 0.820000 sr} bdef
/c7 { 0.000000 0.820000 0.820000 sr} bdef
c0
1 j
1 sg
   0    0 6720 5034 rf
6 w
0 4102 5208 0 0 -4102 873 4479 4 MP
PP
-5208 0 0 4102 5208 0 0 -4102 873 4479 5 MP stroke
4 w
DO
0 sg
 873 4479 mt  873  377 L
 873  377 mt  873  377 L
1393 4479 mt 1393  377 L
1393  377 mt 1393  377 L
1914 4479 mt 1914  377 L
1914  377 mt 1914  377 L
2435 4479 mt 2435  377 L
2435  377 mt 2435  377 L
2956 4479 mt 2956  377 L
2956  377 mt 2956  377 L
3477 4479 mt 3477  377 L
3477  377 mt 3477  377 L
3997 4479 mt 3997  377 L
3997  377 mt 3997  377 L
4518 4479 mt 4518  377 L
4518  377 mt 4518  377 L
5039 4479 mt 5039  377 L
5039  377 mt 5039  377 L
5560 4479 mt 5560  377 L
5560  377 mt 5560  377 L
6081 4479 mt 6081  377 L
6081  377 mt 6081  377 L
 873 4479 mt 6081 4479 L
6081 4479 mt 6081 4479 L
 873 4068 mt 6081 4068 L
6081 4068 mt 6081 4068 L
 873 3658 mt 6081 3658 L
6081 3658 mt 6081 3658 L
 873 3248 mt 6081 3248 L
6081 3248 mt 6081 3248 L
 873 2838 mt 6081 2838 L
6081 2838 mt 6081 2838 L
 873 2428 mt 6081 2428 L
6081 2428 mt 6081 2428 L
 873 2017 mt 6081 2017 L
6081 2017 mt 6081 2017 L
 873 1607 mt 6081 1607 L
6081 1607 mt 6081 1607 L
 873 1197 mt 6081 1197 L
6081 1197 mt 6081 1197 L
 873  787 mt 6081  787 L
6081  787 mt 6081  787 L
 873  377 mt 6081  377 L
6081  377 mt 6081  377 L
SO
6 w
 873 4479 mt 6081 4479 L
 873  377 mt 6081  377 L
 873 4479 mt  873  377 L
6081 4479 mt 6081  377 L
 873 4479 mt 6081 4479 L
 873 4479 mt  873  377 L
 873 4479 mt  873 4426 L
 873  377 mt  873  429 L
%%IncludeResource: font Helvetica
/Helvetica /ISOLatin1Encoding 120 FMSR

 840 4624 mt 
(0) s
1393 4479 mt 1393 4426 L
1393  377 mt 1393  429 L
1327 4624 mt 
(50) s
1914 4479 mt 1914 4426 L
1914  377 mt 1914  429 L
1814 4624 mt 
(100) s
2435 4479 mt 2435 4426 L
2435  377 mt 2435  429 L
2335 4624 mt 
(150) s
2956 4479 mt 2956 4426 L
2956  377 mt 2956  429 L
2856 4624 mt 
(200) s
3477 4479 mt 3477 4426 L
3477  377 mt 3477  429 L
3377 4624 mt 
(250) s
3997 4479 mt 3997 4426 L
3997  377 mt 3997  429 L
3897 4624 mt 
(300) s
4518 4479 mt 4518 4426 L
4518  377 mt 4518  429 L
4418 4624 mt 
(350) s
5039 4479 mt 5039 4426 L
5039  377 mt 5039  429 L
4939 4624 mt 
(400) s
5560 4479 mt 5560 4426 L
5560  377 mt 5560  429 L
5460 4624 mt 
(450) s
6081 4479 mt 6081 4426 L
6081  377 mt 6081  429 L
5981 4624 mt 
(500) s
 873 4479 mt  925 4479 L
6081 4479 mt 6028 4479 L
 602 4523 mt 
(-1.5) s
 873 4068 mt  925 4068 L
6081 4068 mt 6028 4068 L
 702 4112 mt 
(-1) s
 873 3658 mt  925 3658 L
6081 3658 mt 6028 3658 L
 602 3702 mt 
(-0.5) s
 873 3248 mt  925 3248 L
6081 3248 mt 6028 3248 L
 772 3292 mt 
(0) s
 873 2838 mt  925 2838 L
6081 2838 mt 6028 2838 L
 672 2882 mt 
(0.5) s
 873 2428 mt  925 2428 L
6081 2428 mt 6028 2428 L
 772 2472 mt 
(1) s
 873 2017 mt  925 2017 L
6081 2017 mt 6028 2017 L
 672 2061 mt 
(1.5) s
 873 1607 mt  925 1607 L
6081 1607 mt 6028 1607 L
 772 1651 mt 
(2) s
 873 1197 mt  925 1197 L
6081 1197 mt 6028 1197 L
 672 1241 mt 
(2.5) s
 873  787 mt  925  787 L
6081  787 mt 6028  787 L
 772  831 mt 
(3) s
 873  377 mt  925  377 L
6081  377 mt 6028  377 L
 672  421 mt 
(3.5) s
 873 4479 mt 6081 4479 L
 873  377 mt 6081  377 L
 873 4479 mt  873  377 L
6081 4479 mt 6081  377 L
gs 873 377 5209 4103 rc
/c8 { 1.000000 0.000000 0.000000 sr} bdef
c8
11 0 10 0 11 0 10 0 11 0 10 0 10 0 11 0 
10 0 11 0 10 0 10 0 11 0 10 0 11 0 10 0 
11 0 10 0 10 0 11 0 10 0 11 0 10 0 10 0 
11 0 10 0 11 0 10 0 11 0 10 0 10 0 11 0 
10 0 11 0 10 0 10 0 11 0 10 0 11 0 10 0 
11 0 10 0 10 0 11 0 10 0 11 0 10 0 10 0 
11 0 10 0 11 0 10 0 11 0 10 0 10 0 11 0 
10 0 11 0 10 0 10 0 11 0 10 0 11 0 10 0 
11 0 10 0 10 0 11 0 10 0 11 0 10 0 10 0 
11 0 10 0 11 0 10 0 11 0 10 0 10 0 11 0 
10 0 11 0 10 0 10 0 11 0 10 0 11 0 10 0 
11 0 10 0 10 0 11 0 10 0 11 0 10 0 10 0 
11 0 10 0 11 0 10 0 11 0 10 0 10 0 11 0 
10 0 11 0 10 0 10 0 11 0 10 0 11 0 10 0 
11 0 10 0 10 0 11 0 10 0 11 0 10 0 10 0 
11 0 10 0 11 0 10 0 10 0 11 0 10 0 11 0 
10 0 11 0 10 0 10 0 11 0 10 0 11 0 10 0 
10 0 11 0 10 0 11 0 10 0 11 0 10 0 10 0 
11 0 10 0 11 0 10 0 10 0 11 0 10 0 11 0 
10 0 11 0 10 0 10 0 11 0 10 0 11 0 10 0 
10 0 11 0 10 0 11 0 10 0 11 0 10 0 10 0 
11 0 10 0 11 0 10 0 10 0 11 0 10 0 11 0 
10 0 11 0 10 0 10 0 11 0 10 0 11 0 10 0 
10 0 11 0 10 0 11 0 10 0 11 0 10 0 10 0 
11 0 10 0 11 0 10 0 10 0 11 0 10 0 11 0 
10 0 11 0 10 0 10 0 11 0 10 0 11 0 10 0 
10 0 11 0 10 0 11 0 10 0 11 0 10 0 10 0 
11 0 10 0 11 0 10 0 10 0 11 0 10 0 11 0 
10 0 11 0 10 0 10 0 11 0 10 0 11 0 10 0 
10 0 11 0 10 0 11 0 10 0 11 0 10 0 10 0 
11 0 10 0 11 0 10 0 10 0 11 0 10 0 11 0 
10 0 10 0 11 0 10 0 11 0 10 0 11 0 10 0 
10 0 11 0 10 0 11 0 10 0 10 0 11 0 10 0 
11 0 10 0 11 0 10 0 10 0 11 0 10 0 11 0 
10 0 10 0 11 0 10 0 11 0 10 0 11 0 10 0 
10 0 11 0 10 0 11 0 10 0 10 0 11 0 10 0 
11 0 10 0 11 0 10 0 10 0 11 0 10 0 11 0 
10 0 10 0 11 0 2966 3248 300 MP stroke
10 0 11 0 10 0 11 0 10 0 10 0 11 0 10 0 
11 0 10 0 10 0 11 0 10 0 11 0 10 0 11 0 
10 0 10 0 11 0 10 0 11 0 10 0 10 0 11 0 
10 0 11 0 10 0 11 0 10 0 10 0 11 0 10 0 
11 0 10 0 10 0 11 0 10 0 11 0 10 0 11 0 
10 0 10 0 11 0 10 0 11 0 10 0 10 0 11 0 
10 0 11 0 10 0 11 0 10 0 10 0 11 0 10 0 
11 0 10 0 10 0 11 0 10 0 11 0 10 0 11 0 
10 0 10 0 11 0 10 0 11 0 10 0 10 0 11 0 
10 0 11 0 10 0 10 0 11 0 10 0 11 0 10 0 
11 0 10 0 10 0 11 0 10 0 11 0 10 0 10 0 
11 0 10 0 11 0 10 0 11 0 10 0 10 0 11 0 
10 0 11 0 10 0 10 0 11 0 10 0 11 0 10 0 
11 0 10 0 10 0 11 0 10 0 11 0 10 0 10 0 
11 0 10 0 11 0 10 0 11 0 10 0 10 0 11 0 
10 0 11 0 10 0 10 0 11 0 10 0 11 0 10 0 
11 0 10 0 10 0 11 0 10 0 11 0 10 0 10 0 
11 0 10 0 11 0 10 0 11 0 10 0 10 0 11 0 
10 0 11 0 10 0 10 0 11 0 10 0 11 0 10 0 
11 0 10 0 10 0 11 0 10 0 11 0 10 0 10 0 
11 0 10 0 11 0 10 0 11 0 10 0 10 0 11 0 
10 0 11 0 10 0 10 0 11 0 10 0 11 0 10 0 
11 0 10 0 10 0 11 0 10 0 11 0 10 0 10 0 
11 0 10 0 11 0 10 0 11 0 10 0 10 0 11 0 
10 0 11 0 10 0 10 0 11 0 10 0 11 0 10 0 
883 3248 201 MP stroke
/c9 { 0.000000 1.000000 0.000000 sr} bdef
c9
11 6 10 3 11 0 10 -2 11 1 10 -2 10 3 11 3 
10 2 11 -1 10 1 10 0 11 -3 10 1 11 1 10 4 
11 -4 10 1 10 6 11 -1 10 4 11 -5 10 -4 10 4 
11 0 10 0 11 -5 10 7 11 -3 10 -3 10 2 11 10 
10 -8 11 5 10 -3 10 -1 11 20 10 0 11 -9 10 -3 
11 2 10 3 10 8 11 -3 10 9 11 -9 10 6 10 -5 
11 -1 10 -3 11 5 10 -14 11 28 10 5 10 0 11 -8 
10 5 11 -1 10 -3 10 -3 11 -1 10 -3 11 2 10 -6 
11 0 10 0 10 -2 11 -8 10 0 11 -5 10 -3 10 3 
11 -1 10 3 11 -3 10 6 11 -7 10 9 10 0 11 -5 
10 -5 11 3 10 -6 10 5 11 2 10 -2 11 4 10 0 
11 1 10 -3 10 0 11 0 10 1 11 0 10 0 10 0 
11 0 10 0 11 0 10 1 11 0 10 -2 10 0 11 -1 
10 1 11 0 10 0 10 1 11 0 10 -1 11 1 10 -1 
11 0 10 -1 10 -1 11 1 10 0 11 1 10 0 10 -1 
11 0 10 1 11 -1 10 0 10 1 11 2 10 0 11 0 
10 0 11 0 10 1 10 -1 11 -1 10 0 11 -1 10 1 
10 0 11 0 10 0 11 1 10 -1 11 0 10 1 10 0 
11 0 10 0 11 0 10 -6 10 0 11 6 10 0 11 0 
10 0 11 0 10 0 10 -1 11 1 10 0 11 -1 10 1 
10 -6 11 6 10 -1 11 0 10 0 11 1 10 0 10 -1 
11 2 10 -2 11 2 10 -1 10 0 11 -2 10 1 11 1 
10 1 11 0 10 -1 10 -6 11 6 10 -8 11 9 10 -1 
10 -2 11 1 10 0 11 0 10 1 11 1 10 -6 10 -1 
11 -1 10 7 11 -6 10 6 10 -5 11 6 10 -1 11 -6 
10 6 11 -7 10 6 10 1 11 0 10 -1 11 1 10 0 
10 0 11 0 10 -5 11 3 10 0 11 -3 10 6 10 2 
11 -4 10 -6 11 5 10 -1 10 2 11 1 10 1 11 -4 
10 -2 11 4 10 2 10 -3 11 -2 10 -1 11 6 10 -4 
10 -1 11 7 10 -6 11 3 10 3 11 -7 10 -5 10 7 
11 -5 10 16 11 -10 10 4 10 -1 11 -1 10 -6 11 4 
10 -1 10 1 11 -4 10 3 11 0 10 -6 11 0 10 -3 
10 22 11 -20 10 -3 11 8 10 -4 10 3 11 1 10 3 
11 -6 10 5 11 -11 10 4 10 0 11 6 10 -6 11 -1 
10 -2 10 -1 11 2 10 -1 11 -5 10 0 11 7 10 -7 
10 3 11 -4 10 -1 11 -1 10 0 10 10 11 -5 10 5 
11 -4 10 4 11 -2 10 11 10 -9 11 -6 10 0 11 5 
10 0 10 2 11 1 2966 3220 300 MP stroke
10 -8 11 -1 10 -2 11 2 10 -12 10 5 11 -5 10 0 
11 4 10 -11 10 -3 11 9 10 3 11 -12 10 -7 11 15 
10 -6 10 -8 11 -3 10 -17 11 -1 10 -7 10 2 11 9 
10 -7 11 5 10 -1 11 -8 10 -3 10 5 11 -10 10 9 
11 -1 10 0 10 17 11 -1 10 -5 11 -7 10 4 11 0 
10 -2 10 -2 11 -3 10 -7 11 1 10 3 10 0 11 17 
10 3 11 -3 10 1 11 7 10 -1 10 8 11 5 10 5 
11 11 10 -7 10 5 11 -2 10 1 11 -4 10 -3 11 15 
10 -34 10 -3 11 -9 10 1 11 -4 10 6 10 8 11 8 
10 3 11 -2 10 6 10 6 11 -14 10 -10 11 -2 10 -11 
11 0 10 8 10 3 11 -13 10 -10 11 -5 10 -7 10 -7 
11 11 10 3 11 -5 10 2 11 10 10 3 10 11 11 20 
10 1 11 1 10 -4 10 10 11 1 10 7 11 7 10 -19 
11 9 10 4 10 8 11 0 10 -21 11 6 10 -2 10 8 
11 -3 10 2 11 1 10 0 11 0 10 -2 10 -7 11 -3 
10 -6 11 5 10 1 10 -5 11 6 10 0 11 8 10 -5 
11 2 10 4 10 4 11 -11 10 -3 11 2 10 2 10 5 
11 -8 10 2 11 6 10 1 11 6 10 3 10 -1 11 -3 
10 10 11 -8 10 30 10 -21 11 2 10 0 11 5 10 -2 
11 -4 10 12 10 -14 11 -9 10 4 11 11 10 -5 10 4 
11 1 10 -1 11 -3 10 -2 11 -6 10 7 10 -1 11 1 
10 -6 11 -3 10 -1 10 -1 11 -2 10 5 11 20 10 -16 
11 -12 10 3 10 -4 11 28 10 7 11 3 10 -14 10 -6 
11 -17 10 13 11 4 10 -2 11 -2 10 -4 10 -7 11 0 
10 -16 11 3 10 4 10 -3 11 16 10 -5 11 -20 10 13 
883 3248 201 MP stroke
/c10 { 0.000000 0.000000 1.000000 sr} bdef
c10
11 29 10 28 11 36 10 25 11 15 10 20 10 10 11 35 
10 13 11 -1 10 -2 10 2 11 -3 10 -5 11 -8 10 7 
11 -2 10 6 10 12 11 -3 10 297 11 17 10 -2 10 -15 
11 6 10 -8 11 -15 10 -16 11 -14 10 -1 10 -15 11 -14 
10 -14 11 -12 10 -9 10 -12 11 -211 10 23 11 2 10 4 
11 21 10 37 10 48 11 25 10 17 11 13 10 -1 10 12 
11 -3 10 -19 11 -31 10 -27 11 -35 10 -19 10 -2 11 -7 
10 -1 11 5 10 -1 10 5 11 -13 10 -4 11 -14 10 -8 
11 -14 10 -3 10 3 11 -20 10 10 11 -6 10 -3 10 -8 
11 -5 10 22 11 7 10 6 11 7 10 4 10 40 11 12 
10 3 11 -29 10 -7 10 -7 11 -28 10 -13 11 3 10 1 
11 -1 10 -1 10 0 11 0 10 0 11 2 10 -1 10 0 
11 -1 10 -1 11 1 10 1 11 1 10 -1 10 -1 11 0 
10 1 11 -1 10 1 10 1 11 -1 10 0 11 0 10 0 
11 0 10 -1 10 0 11 0 10 -1 11 0 10 2 10 -1 
11 1 10 0 11 0 10 -1 10 2 11 0 10 0 11 0 
10 -1 11 0 10 1 10 0 11 -1 10 0 11 0 10 1 
10 0 11 -1 10 0 11 0 10 0 11 0 10 -1 10 1 
11 -1 10 0 11 0 10 1 10 1 11 -1 10 1 11 0 
10 -1 11 0 10 1 10 -3 11 1 10 0 11 0 10 0 
10 0 11 1 10 0 11 -1 10 1 11 0 10 0 10 0 
11 0 10 -2 11 1 10 1 10 0 11 1 10 0 11 -2 
10 0 11 1 10 0 10 -1 11 1 10 2 11 -3 10 -2 
10 3 11 1 10 -1 11 1 10 -2 11 0 10 1 10 0 
11 -1 10 3 11 -3 10 3 10 -2 11 2 10 -2 11 0 
10 -1 11 3 10 -1 10 -1 11 0 10 0 11 -1 10 -1 
10 0 11 1 10 4 11 -4 10 -4 11 -20 10 -9 10 -12 
11 -24 10 -18 11 18 10 -8 10 -8 11 13 10 2 11 18 
10 23 11 17 10 13 10 9 11 27 10 11 11 12 10 3 
10 7 11 17 10 3 11 -4 10 14 11 2 10 9 10 14 
11 -9 10 14 11 9 10 1 10 1 11 -2 10 -8 11 -4 
10 7 10 27 11 8 10 28 11 -9 10 -14 11 3 10 -12 
10 -19 11 -10 10 2 11 -9 10 -13 10 -22 11 -19 10 10 
11 -3 10 8 11 -23 10 -10 10 14 11 1 10 -13 11 -11 
10 -1 10 -5 11 3 10 -1 11 -2 10 27 11 -1 10 5 
10 -2 11 1 10 -9 11 2 10 5 10 -8 11 -4 10 13 
11 -4 10 -14 11 -9 10 4 10 -7 11 3 10 -18 11 8 
10 35 10 23 11 30 2966 2680 300 MP stroke
10 14 11 21 10 8 11 -14 10 1 10 -1 11 -5 10 -16 
11 6 10 -49 10 -30 11 4 10 -15 11 19 10 9 11 -34 
10 26 10 5 11 -13 10 -6 11 22 10 -7 10 -16 11 5 
10 -31 11 -9 10 -1 11 -17 10 -22 10 -2 11 -32 10 9 
11 -14 10 -24 10 7 11 -13 10 -26 11 -38 10 -3 11 -10 
10 -27 10 -31 11 -28 10 -54 11 -52 10 -34 10 -56 11 24 
10 8 11 4 10 -11 11 23 10 21 10 25 11 32 10 -11 
11 -18 10 0 10 8 11 3 10 -71 11 -54 10 -42 11 -6 
10 -74 10 -25 11 -23 10 -29 11 -28 10 -12 10 -7 11 -12 
10 -14 11 -9 10 -16 10 11 11 -21 10 -9 11 6 10 -8 
11 5 10 1 10 8 11 -18 10 -7 11 -2 10 2 10 -12 
11 8 10 -1 11 2 10 -1 11 9 10 4 10 -2 11 7 
10 0 11 -17 10 -13 10 12 11 -19 10 -6 11 9 10 9 
11 16 10 25 10 34 11 22 10 38 11 33 10 9 10 11 
11 9 10 10 11 11 10 9 11 3 10 -1 10 -11 11 -1 
10 6 11 -15 10 16 10 0 11 21 10 5 11 -22 10 10 
11 -2 10 5 10 2 11 11 10 -8 11 15 10 7 10 37 
11 33 10 15 11 16 10 8 11 5 10 2 10 6 11 -3 
10 0 11 -5 10 24 10 -12 11 30 10 11 11 16 10 9 
11 11 10 -2 10 20 11 10 10 18 11 21 10 -33 10 3 
11 84 10 -17 11 -34 10 21 11 9 10 2 10 -31 11 18 
10 -10 11 0 10 -11 10 6 11 4 10 7 11 -14 10 -48 
11 -27 10 -17 10 -14 11 -1 10 4 11 4 10 -9 10 -19 
11 -11 10 2 11 6 10 -3 11 -5 10 -3 10 -14 11 -8 
10 -7 11 -1 10 -1 10 -5 11 7 10 -1 11 -21 10 13 
883 3248 201 MP stroke
/c11 { 0.000000 1.000000 1.000000 sr} bdef
c11
11 167 10 112 11 133 10 85 11 15 10 98 10 35 11 138 
10 50 11 -8 10 -18 10 8 11 -7 10 -20 11 -46 10 16 
11 33 10 52 10 70 11 -6 10 47 11 20 10 -8 10 -5 
11 65 10 -1 11 -51 10 -36 11 -9 10 -32 10 -31 11 -48 
10 -7 11 21 10 -7 10 -36 11 254 10 35 11 25 10 19 
11 54 10 73 10 67 11 42 10 22 11 12 10 17 10 25 
11 -39 10 -37 11 -80 10 -89 11 -346 10 -103 10 -4 11 -18 
10 47 11 75 10 33 10 13 11 -10 10 22 11 -4 10 9 
11 -10 10 11 10 41 11 -15 10 35 11 -25 10 -12 10 -22 
11 -35 10 16 11 17 10 -38 11 -4 10 67 10 3 11 -70 
10 16 11 -188 10 -57 10 -47 11 -132 10 -18 11 0 10 0 
11 0 10 -5 10 -1 11 2 10 0 11 0 10 0 10 0 
11 0 10 -1 11 2 10 0 11 0 10 -2 10 -1 11 1 
10 -1 11 0 10 1 10 1 11 0 10 0 11 -1 10 1 
11 0 10 -2 10 0 11 0 10 0 11 0 10 0 10 0 
11 -2 10 1 11 0 10 -1 10 0 11 4 10 0 11 1 
10 1 11 -1 10 1 10 0 11 -2 10 -1 11 2 10 -1 
10 -3 11 3 10 0 11 0 10 0 11 1 10 2 10 1 
11 -1 10 0 11 0 10 0 10 -1 11 0 10 0 11 0 
10 -1 11 2 10 0 10 1 11 -1 10 1 11 0 10 0 
10 0 11 -5 10 1 11 -1 10 2 11 2 10 0 10 -1 
11 0 10 0 11 1 10 0 10 1 11 -8 10 1 11 0 
10 -4 11 2 10 8 10 -3 11 1 10 7 11 -5 10 -1 
10 -5 11 4 10 0 11 0 10 2 11 0 10 1 10 -3 
11 -1 10 3 11 1 10 5 10 -8 11 3 10 -4 11 2 
10 0 11 2 10 3 10 -8 11 1 10 -5 11 3 10 1 
10 -1 11 -4 10 16 11 5 10 -30 11 -67 10 -33 10 -65 
11 -43 10 -26 11 4 10 -30 10 -5 11 27 10 -7 11 72 
10 49 11 62 10 53 10 27 11 93 10 63 11 44 10 37 
10 33 11 44 10 24 11 12 10 42 11 11 10 76 10 28 
11 -9 10 73 11 -2 10 18 10 1 11 -7 10 19 11 -13 
10 8 10 46 11 35 10 114 11 75 10 28 11 6 10 -14 
10 -59 11 -64 10 -56 11 -48 10 -55 10 -60 11 -83 10 -24 
11 -38 10 11 11 -69 10 -37 10 16 11 -18 10 -46 11 -38 
10 -21 10 -52 11 -15 10 -27 11 21 10 23 11 -23 10 -10 
10 -4 11 -8 10 -48 11 -2 10 6 10 -19 11 12 10 9 
11 10 10 -12 11 26 10 16 10 1 11 28 10 8 11 47 
10 59 10 57 11 70 2966 1374 300 MP stroke
10 23 11 57 10 49 11 3 10 9 10 20 11 -1 10 -14 
11 28 10 -71 10 -69 11 -34 10 -41 11 65 10 37 11 -93 
10 67 10 26 11 -47 10 13 11 72 10 -18 10 -88 11 -29 
10 -77 11 -102 10 -37 11 -41 10 -64 10 -43 11 -46 10 28 
11 -47 10 -89 10 -45 11 4 10 -80 11 -79 10 44 11 57 
10 -9 10 -28 11 -88 10 -111 11 -151 10 -66 10 -96 11 58 
10 -32 11 -22 10 12 11 -4 10 -43 10 82 11 45 10 -65 
11 -123 10 -39 10 -18 11 -48 10 -67 11 -200 10 -64 11 -74 
10 -67 10 -112 11 -110 10 -89 11 -68 10 -4 10 -36 11 -65 
10 -60 11 -25 10 -72 10 -56 11 -67 10 -11 11 22 10 -27 
11 -13 10 -1 10 -37 11 -97 10 -66 11 -72 10 -96 10 -7 
11 -5 10 2 11 11 10 31 11 25 10 39 10 5 11 -5 
10 14 11 -6 10 10 10 -1 11 -20 10 -22 11 13 10 28 
11 51 10 80 10 110 11 80 10 114 11 68 10 20 10 23 
11 27 10 5 11 48 10 35 11 -3 10 -5 10 -6 11 -20 
10 -4 11 -9 10 33 10 0 11 18 10 -4 11 25 10 35 
11 -15 10 -8 10 10 11 11 10 -12 11 28 10 6 10 85 
11 83 10 61 11 65 10 45 11 30 10 10 10 38 11 -4 
10 -9 11 11 10 64 10 34 11 81 10 24 11 40 10 66 
11 35 10 12 10 -8 11 46 10 53 11 62 10 102 10 26 
11 81 10 -36 11 -3 10 12 11 20 10 -11 10 -32 11 -7 
10 -13 11 -12 10 -18 10 -22 11 -34 10 -3 11 -23 10 -59 
11 -130 10 -94 10 -26 11 -11 10 -3 11 -2 10 -24 10 -64 
11 -46 10 9 11 5 10 -2 11 -23 10 -22 10 -42 11 -22 
10 -7 11 3 10 -21 10 -24 11 -6 10 -25 11 -18 10 9 
883 3248 201 MP stroke
gr

c11
0 sg
%%IncludeResource: font Helvetica
/Helvetica /ISOLatin1Encoding 168 FMSR

3087 4802 mt 
(Frame No.) s
 510 3003 mt  -90 rotate
(X displacement) s
90 rotate
%%IncludeResource: font Helvetica
/Helvetica /ISOLatin1Encoding 120 FMSR

 856 4522 mt 
( ) s
6065  419 mt 
( ) s
1 sg
0 736 1606 0 0 -736 1026 1210 4 MP
PP
-1606 0 0 736 1606 0 0 -736 1026 1210 5 MP stroke
4 w
DO
SO
6 w
0 sg
1026 1210 mt 2632 1210 L
1026  474 mt 2632  474 L
1026 1210 mt 1026  474 L
2632 1210 mt 2632  474 L
1026 1210 mt 2632 1210 L
1026 1210 mt 1026  474 L
1026 1210 mt 2632 1210 L
1026  474 mt 2632  474 L
1026 1210 mt 1026  474 L
2632 1210 mt 2632  474 L
1494  624 mt 
(Ground truth) s
gs 1026 474 1607 737 rc
c8
360 0 1097 581 2 MP stroke
gr

c8
0 sg
1494  798 mt 
(White noise std = 0) s
gs 1026 474 1607 737 rc
c9
360 0 1097 755 2 MP stroke
gr

c9
0 sg
1494  971 mt 
(White noise std = 1) s
gs 1026 474 1607 737 rc
c10
360 0 1097 928 2 MP stroke
gr

c10
0 sg
1494 1145 mt 
(White noise std = 3) s
gs 1026 474 1607 737 rc
c11
360 0 1097 1102 2 MP stroke
gr

c11

end %%Color Dict

eplot
%%EndObject

epage
end

showpage

%%Trailer
%%EOF
